% $ biblatex auxiliary file $
% $ biblatex bbl format version 2.6 $
% Do not modify the above lines!
%
% This is an auxiliary file used by the 'biblatex' package.
% This file may safely be deleted. It will be recreated by
% biber as required.
%
\begingroup
\makeatletter
\@ifundefined{ver@biblatex.sty}
  {\@latex@error
     {Missing 'biblatex' package}
     {The bibliography requires the 'biblatex' package.}
      \aftergroup\endinput}
  {}
\endgroup


\refsection{0}
  \sortlist[entry]{nty/global}
    \entry{goturn}{article}{}
      \name{author}{3}{}{%
        {{hash=4687a6291e0e8f42818e47c8a6f11aa0}{%
           family={Held},
           family_i={H\bibinitperiod},
           given={David},
           given_i={D\bibinitperiod}}}%
        {{hash=5112ea130eadef0764fce0145b8b9f91}{%
           family={Thrun},
           family_i={T\bibinitperiod},
           given={Sebastian},
           given_i={S\bibinitperiod}}}%
        {{hash=e29c20003a517abaaac28852301c03c2}{%
           family={Savarese},
           family_i={S\bibinitperiod},
           given={Silvio},
           given_i={S\bibinitperiod}}}%
      }
      \strng{namehash}{9cd978fbb2d0a5fa1a9145d323ba91dc}
      \strng{fullhash}{9cd978fbb2d0a5fa1a9145d323ba91dc}
      \field{sortinit}{H}
      \field{sortinithash}{82012198d5dfa657b8c4a168793268a6}
      \field{labelnamesource}{author}
      \field{labeltitlesource}{title}
      \field{eprinttype}{arXiv}
      \field{journaltitle}{CoRR}
      \field{title}{Learning to Track at 100 {FPS} with Deep Regression Networks}
      \field{volume}{abs/1604.01802}
      \field{year}{2016}
      \verb{eprint}
      \verb 1604.01802
      \endverb
      \verb{url}
      \verb http://arxiv.org/abs/1604.01802
      \endverb
    \endentry
    \entry{auto}{article}{}
      \name{author}{1}{}{%
        {{hash=5fb166aa1daaacbdf65eda59ffee2654}{%
           family={Hemmersbaugh},
           family_i={H\bibinitperiod},
           given={Paul\bibnamedelima A.},
           given_i={P\bibinitperiod\bibinitdelim A\bibinitperiod}}}%
      }
      \strng{namehash}{5fb166aa1daaacbdf65eda59ffee2654}
      \strng{fullhash}{5fb166aa1daaacbdf65eda59ffee2654}
      \field{sortinit}{H}
      \field{sortinithash}{82012198d5dfa657b8c4a168793268a6}
      \field{labelnamesource}{author}
      \field{labeltitlesource}{title}
      \field{journaltitle}{Docket No. NHTSA-2016-0040}
      \field{title}{Safety-Related Defects and Emerging Automotive Technologies}
      \field{year}{2016}
      \field{pages}{18935\bibrangedash 18939}
      \range{pages}{5}
      \verb{doi}
      \verb 81 FR 18935
      \endverb
    \endentry
    \entry{metrics}{article}{}
      \name{author}{1}{}{%
        {{hash=885314c7ace03276c858d0f76c8dc94e}{%
           family={Luka\bibnamedelima Cehovin},
           family_i={L\bibinitperiod\bibinitdelim C\bibinitperiod},
           suffix={Ales\bibnamedelima Leonardis},
           suffix_i={A\bibinitperiod\bibinitdelim L\bibinitperiod},
           given={Matej\bibnamedelima Kristan},
           given_i={M\bibinitperiod\bibinitdelim K\bibinitperiod}}}%
      }
      \strng{namehash}{885314c7ace03276c858d0f76c8dc94e}
      \strng{fullhash}{885314c7ace03276c858d0f76c8dc94e}
      \field{sortinit}{L}
      \field{sortinithash}{872351f18d0f736066eda0bf18bfa4f7}
      \field{labelnamesource}{author}
      \field{labeltitlesource}{title}
      \field{journaltitle}{IEEE Transactions on Image Processing}
      \field{title}{Visual object tracking performance measures revisited}
      \field{year}{2016}
      \field{pages}{1261\bibrangedash 1274}
      \range{pages}{14}
      \verb{doi}
      \verb 10.1109/TIP.2016.2520370
      \endverb
    \endentry
    \entry{yolo}{article}{}
      \name{author}{2}{}{%
        {{hash=99bced2e56a5253f3fe98a5f04e6d9b2}{%
           family={Redmon},
           family_i={R\bibinitperiod},
           given={Joseph},
           given_i={J\bibinitperiod}}}%
        {{hash=396c6ddedb6f986906fc3e4994d19974}{%
           family={Farhadi},
           family_i={F\bibinitperiod},
           given={Ali},
           given_i={A\bibinitperiod}}}%
      }
      \strng{namehash}{e3b480c56f52be95ad68ce67e9708174}
      \strng{fullhash}{e3b480c56f52be95ad68ce67e9708174}
      \field{sortinit}{R}
      \field{sortinithash}{c7387613477035a752d935acfc3e3ea2}
      \field{labelnamesource}{author}
      \field{labeltitlesource}{title}
      \field{eprinttype}{arXiv}
      \field{journaltitle}{CoRR}
      \field{title}{{YOLO9000:} Better, Faster, Stronger}
      \field{volume}{abs/1612.08242}
      \field{year}{2016}
      \verb{eprint}
      \verb 1612.08242
      \endverb
      \verb{url}
      \verb http://arxiv.org/abs/1612.08242
      \endverb
    \endentry
    \entry{mit}{license}{}
      \list{language}{1}{%
        {english}%
      }
      \list{organization}{1}{%
        {MIT}%
      }
      \field{sortinit}{T}
      \field{sortinithash}{423d138a005a533b47e6475e39378bf2}
      \field{labeltitlesource}{title}
      \field{day}{20}
      \field{month}{07}
      \field{pagination}{section}
      \field{shorthand}{MIT}
      \field{title}{The MIT License}
      \field{version}{X}
      \field{year}{2017}
      \verb{url}
      \verb https://opensource.org/licenses/MIT
      \endverb
    \endentry
    \entry{bar}{article}{}
      \name{author}{1}{}{%
        {{hash=62d6065821162c476f1ca931bb39431d}{%
           family={V.\bibnamedelimi John\bibnamedelima Ella},
           family_i={V\bibinitperiod\bibinitdelim J\bibinitperiod\bibinitdelim E\bibinitperiod},
           given={Jackson\bibnamedelima Lewis},
           given_i={J\bibinitperiod\bibinitdelim L\bibinitperiod}}}%
      }
      \strng{namehash}{62d6065821162c476f1ca931bb39431d}
      \strng{fullhash}{62d6065821162c476f1ca931bb39431d}
      \field{sortinit}{V}
      \field{sortinithash}{d18f5ce25ce0b5ca7f924e3f6c04870e}
      \field{labelnamesource}{author}
      \field{labeltitlesource}{title}
      \field{journaltitle}{American Bar National Symposium on Technology in Labor and Employment}
      \field{title}{Employee Monitoring and Workplace Privacy Law}
      \field{year}{2016}
      \field{pages}{i\bibrangedash 14}
      \range{pages}{14}
      \verb{doi}
      \verb 4821-0501-3295
      \endverb
    \endentry
    \entry{bench}{article}{}
      \name{author}{1}{}{%
        {{hash=71b6a7b3ef51102bb449c54ac0d4b272}{%
           family={Yi\bibnamedelima Wu},
           family_i={Y\bibinitperiod\bibinitdelim W\bibinitperiod},
           suffix={Jongwoo\bibnamedelima Lim},
           suffix_i={J\bibinitperiod\bibinitdelim L\bibinitperiod},
           given={Ming-Hsuan\bibnamedelima Yang},
           given_i={M\bibinithyphendelim H\bibinitperiod\bibinitdelim Y\bibinitperiod}}}%
      }
      \strng{namehash}{71b6a7b3ef51102bb449c54ac0d4b272}
      \strng{fullhash}{71b6a7b3ef51102bb449c54ac0d4b272}
      \field{sortinit}{Y}
      \field{sortinithash}{3cbc1e3d286284cedb5e5218a3248f94}
      \field{labelnamesource}{author}
      \field{labeltitlesource}{title}
      \field{journaltitle}{IEEE Conf. 23-28 June Portland}
      \field{title}{Online Object Tracking: A Benchmark}
      \field{year}{2013}
      \field{pages}{i\bibrangedash 22}
      \range{pages}{22}
      \verb{doi}
      \verb 10.1109/CVPR.2013.312
      \endverb
    \endentry
  \endsortlist
\endrefsection
\endinput

