45.3282,132.072,112.406,212.27
36.6375,138.492,102.565,215.588
36.3325,139.48,99.4134,218.708
36.0792,139.311,98.2225,218.915
36.7714,138.186,97.6851,218.279
37.4027,138.301,97.607,219.001
38.7535,138.75,98.526,219.866
42.9355,139.589,102.555,221.661
47.9456,140.479,107.361,224.612
50.8066,142.948,109.654,228.223
54.5494,145.03,113.095,232.206
58.8774,148.725,117.565,237.319
64.2233,151.953,123.05,242.007
69.3559,152.889,127.934,244.612
75.4857,152.792,133.511,247.581
80.1513,152.44,137.676,250.695
82.868,153.113,139.612,253.933
85.4582,154.706,141.623,256.7
87.446,157.735,143.044,260.617
88.812,157.91,143.972,262.705
90.1427,159.346,145.123,265.416
90.5997,159.455,145.015,266.624
92.8757,158.22,146.889,267.945
95.9015,156.668,149.655,270.936
97.6202,155.742,150.742,273.233
99.5159,154.371,152.783,274.507
100.064,153.88,153.32,275.298
100.491,153.558,153.853,275.59
100.955,153.403,154.301,276.269
101.354,153.242,154.647,276.652
101.658,153.146,154.999,276.888
102.277,153.204,155.412,277.809
104.04,153.477,157.208,279.918
106.822,156.178,160.539,283.56
107.393,156.905,161.772,286.797
109.257,157.635,163.194,289.989
109.239,158.74,163.492,293.429
109.477,155.469,164.293,291.909
110.001,152.318,165.17,290.497
112.894,155.374,169.508,294.013
115.877,159.31,173.299,298.804
120.779,159.205,178.73,302.121
125.059,155.202,182.637,302.792
126.025,156.996,183.941,305.437
130.979,159.471,187.955,309.177
134.725,159.582,191.052,310.63
138.924,161.984,194.677,314.304
141.005,162.324,196.222,317.765
143.849,164.665,198.654,321.323
145.46,165.783,199.968,323.434
146.507,166.775,200.948,326.013
146.632,167.257,200.864,326.836
146.885,167.463,201.258,327.565
147.127,167.255,201.47,328.402
148.317,167.705,202.721,329.608
149.172,168.005,203.507,330.427
150.142,167.815,204.484,331.312
150.892,168.041,205.426,331.649
154.407,168.291,209.781,332.128
158.008,166.478,213.616,331.652
161.345,164.814,217.564,332.536
165.754,164.116,222.016,333.952
171.228,164.198,227.544,334.103
172.951,164.052,229.077,334.254
175.959,164.237,232.627,334.463
176.892,164.239,233.589,334.554
181.798,164.588,238.49,334.11
186.156,165.307,242.205,333.848
189.737,166.023,245.791,333.366
194.186,164.899,250.256,331.519
198.659,163.701,254.157,330.238
200.79,162.753,255.497,329.249
202.857,161.942,257.548,327.377
204.795,159.447,259.016,325.109
204.953,159.119,259.243,325.134
205.187,159.139,259.614,325.507
205.211,159.323,259.638,325.647
206.17,159.698,260.459,325.899
207.017,159.842,261.381,325.977
207.799,159.408,262.13,325.854
209.129,158.497,263.352,324.81
209.55,157.819,263.934,323.958
211.634,157.476,265.976,322.734
219.359,156.945,273.417,319.68
220.587,154.795,275.67,317.2
220.337,151.32,277.025,313.408
222.43,147.34,280.003,309.723
226.397,144.975,284.68,307.749
230.322,145.787,289.304,306.447
233.718,147.39,292.649,305.153
236.536,149.69,296.954,306.14
241.905,151.436,303.137,308.465
243.324,146.494,306.738,308.019
245.363,141.81,312.094,308.391
244.95,133.898,314.544,306.189
245.7,132.952,315.869,306.582
247.045,129.636,318.422,306.098
247.486,126.123,319.488,305.435
248.004,123.883,320.953,305.437
248.316,123.199,321.999,305.757
248.418,123.135,322.823,306.23
248.683,123.339,323.75,306.676
249.113,123.25,325.091,306.843
249.964,121.455,326.076,305.604
251.417,120.277,328.288,305.09
252.277,119.979,329.585,304.978
253.456,119.981,331.455,304.702
253.9,119.81,332.102,304.76
254.193,119.822,332.654,304.59
254.932,120.168,333.425,304.258
256.475,121.808,334.528,303.421
257.117,123.717,335.471,303.448
259.009,123.492,337.184,302.667
259.602,123.848,337.97,302.479
259.79,123.701,338.142,302.304
260.186,124.02,338.603,302.503
261.57,123.716,339.949,301.565
262.811,123.068,340.932,300.799
262.981,122.785,341.313,300.938
263.464,121.953,341.569,301.026
263.863,121.559,342.148,301.202
264.413,120.735,342.504,301.001
264.926,119.148,342.844,300.325
265.579,119.422,343.133,301.191
266.154,119.148,343.724,301.27
266.783,118.575,344.303,301.606
266.917,118.637,344.78,302.26
267.262,118.112,345.043,302.235
267.689,117.788,345.425,302.496
268.026,116.258,345.322,302.055
267.531,116.414,344.874,301.977
266.693,115.605,344.095,301.618
266.566,115.683,344.083,302.073
265.202,114.526,343.761,301.521
265.255,112.178,344.175,299.984
264.953,111.375,343.84,299.485
264.636,108.253,343.639,298.975
264.902,106.764,344.253,298.5
265.04,106.163,344.425,298.434
265.131,105.944,344.521,298.506
265.228,105.192,344.447,298.487
265.41,104.948,344.766,298.448
265.794,102.995,344.716,296.773
266.069,102.386,344.834,296.178
266.688,101.85,345.307,295.462
267.907,101.269,346.076,294.669
269.027,101.15,346.992,293.309
269.9,101.076,347.384,292.845
270.641,100.907,347.578,292.01
271.146,101.023,347.735,291.68
273.417,101,348.911,290.751
274.966,101.476,349.769,289.078
276.646,102.162,350.678,288.275
278.561,102.408,352.668,286.51
280.442,102.594,353.982,285.105
283.635,103.757,356.697,283.747
285.439,102.469,357.983,282.083
286.718,102.307,359.049,281.476
288.187,101.567,359.565,280.224
288.85,101.321,359.898,279.888
289.317,101.375,360.618,280.215
289.656,101.215,360.954,279.931
290.112,101.106,361.418,279.747
291.322,100.703,362.303,279.269
292.384,100.62,362.923,279.283
294.749,100.966,364.99,278.756
296.034,100.489,365.869,278.309
296.537,100.272,366.143,278.087
296.843,100.37,366.645,278.108
297.073,100.47,366.878,278.313
297.28,100.482,367.144,278.233
297.363,100.586,367.304,278.396
297.423,100.625,367.346,278.202
297.482,100.822,367.429,278.748
297.517,100.838,367.479,278.735
297.537,100.888,367.499,278.812
297.573,100.913,367.522,278.819
297.849,100.67,367.756,278.167
298.219,100.423,368.101,277.591
298.427,100.361,368.349,277.501
299.167,99.5717,368.755,276.724
299.821,99.4716,369.413,276.718
300.481,99.2338,370.013,276.507
301.006,98.9721,370.743,276.071
301.223,99.0599,371.142,276.385
301.373,99.0921,371.262,276.412
301.524,99.0867,371.386,276.48
301.985,99.0289,371.609,276.483
302.631,98.7915,372.289,276.172
303.706,98.2774,373.116,275.354
305.43,98.2721,373.952,274.897
307.333,97.7295,375.191,271.873
309.814,95.239,376.65,266.399
310.864,94.2535,376.929,263.716
311.739,93.2526,377.518,261.992
312.317,93.1187,377.963,261.329
312.951,93.0804,378.428,260.999
313.884,92.18,378.641,259.039
314.785,91.5952,378.886,257.398
315.34,90.4101,379.479,255.274
315.793,90.0301,380.018,254.63
316.506,89.7599,380.67,254.451
316.982,89.6585,381.288,254.319
317.494,89.9643,381.733,254.427
318.056,90.117,382.299,254.015
318.64,90.0629,382.878,253.737
318.863,90.1941,383.272,254.139
318.99,90.2213,383.426,254.174
319.071,90.2981,383.504,254.22
319.547,90.3736,383.811,254.161
319.783,90.4241,384.188,254.363
320.263,90.2066,384.37,254.014
320.846,90.0949,385.137,254.058
321.354,89.8594,385.713,253.774
321.573,89.8143,385.963,253.739
322.37,89.6211,386.472,253.354
325.376,89.7953,388.717,253.625
326.251,89.6397,389.343,253.658
326.732,89.8822,390.001,254.394
326.871,90.125,390.313,255.075
326.929,90.1481,390.372,255.097
327.029,90.1593,390.437,255.09
327.162,90.1758,390.581,255.15
327.277,90.1458,390.681,255.02
327.374,90.1735,390.805,255.027
327.452,90.2129,390.908,255.113
327.619,90.1618,391.034,254.998
327.798,90.0954,391.217,255.059
327.962,90.0257,391.379,254.955
328.185,89.8466,391.611,254.723
328.428,89.7105,391.857,254.594
328.773,89.4892,392.145,254.533
328.85,89.7089,392.318,255.127
328.888,89.7348,392.355,255.148
328.954,89.7238,392.393,255.081
329.014,89.7827,392.475,255.192
329.027,89.7982,392.498,255.207
328.843,89.4732,392.296,254.75
328.87,89.5748,392.326,254.941
328.894,89.5801,392.345,254.899
328.897,89.464,392.303,254.673
328.86,89.3461,392.298,254.643
328.891,89.3614,392.353,254.711
328.879,89.3635,392.329,254.673
328.905,89.4322,392.361,254.788
328.926,89.4766,392.386,254.846
328.977,89.5369,392.404,254.82
329.07,89.6008,392.508,254.825
329.401,89.6655,392.799,254.458
329.675,89.7068,393.091,254.084
329.948,89.5442,393.398,253.494
329.99,89.4787,393.426,253.189
330.027,89.4364,393.382,252.936
330.032,89.341,393.382,252.484
329.995,89.5992,393.351,252.436
329.638,89.1294,393.018,250.923
329.593,89.1974,392.993,250.827
329.431,89.4002,392.768,250.953
329.466,89.6011,392.912,251.436
329.367,89.69,392.787,251.439
328.934,89.8386,392.377,251.314
327.284,90.5157,390.632,249.759
327.365,90.9814,390.691,249.41
327.591,91.7712,390.912,248.004
328.081,91.7484,391.55,247.473
328.224,91.7216,391.694,247.088
330.509,88.9233,393.833,242.681
330.979,86.9914,394.456,239.311
331.396,86.3738,394.919,237.773
331.676,86.0779,395.613,236.772
331.727,86.1475,395.654,236.858
331.851,86.4498,395.754,237.167
332.364,86.6768,396.194,237.219
332.119,86.8485,395.78,237.486
331.992,86.4151,395.316,237.191
332.11,86.4812,395.543,237.283
332.197,86.5898,395.644,237.413
332.206,86.6871,395.645,237.577
332.684,86.7182,396.039,237.452
332.945,86.6148,396.265,237.555
333.356,86.3488,396.813,236.732
333.4,86.1828,396.859,235.692
333.039,87.012,396.342,235.074
332.31,87.7663,395.485,234.867
331.677,88.0931,394.978,234.772
331.456,88.4067,394.804,234.676
331.758,88.6017,395.141,234.731
331.758,88.7773,395.119,234.969
331.599,88.7667,394.797,235.036
331.626,88.8983,394.871,235.18
331.701,89.0026,394.988,235.123
331.467,89.0559,394.563,234.877
331.613,89.228,395.01,234.894
331.535,89.4902,394.917,235.125
330.416,90.022,393.694,234.287
330.305,90.3361,393.516,233.908
330.417,90.9277,393.727,233.998
330.277,91.5023,393.613,233.899
330.082,91.8812,393.363,233.259
329.999,92.3313,393.29,232.308
330.044,92.6462,393.346,231.602
330.083,92.9454,393.401,230.834
330.182,93.0509,393.608,230.792
330.087,93.4114,393.423,230.594
329.381,93.8018,392.503,229.566
328.727,94.2826,391.92,228.486
327.752,94.9012,390.833,226.945
327.543,95.5422,390.686,225.732
327.228,95.8756,390.428,224.578
327.201,96.189,390.539,224.234
327.316,96.8052,390.546,223.797
327.451,97.0441,390.702,222.92
327.559,97.215,390.85,222.418
327.683,97.4875,391.025,222.496
327.733,97.7767,391.132,223.063
327.739,98.0888,391.057,222.9
327.669,98.1803,390.996,222.75
327.724,98.4179,391.139,223.067
327.346,98.6616,390.641,222.723
325.32,98.9862,388.512,221.079
324.93,99.4083,388.245,221.125
324.781,99.725,388.213,220.845
324.772,99.9473,388.231,221.278
324.785,100.156,388.218,221.32
324.526,100.569,387.87,221.31
324.592,101.014,388.018,221.084
324.671,101.761,388.092,220.954
324.848,102.326,388.256,220.198
324.901,102.364,388.348,220.193
324.866,102.466,388.245,220.172
324.811,102.72,388.038,219.931
324.958,103.14,388.329,219.663
325.06,103.837,388.412,219.614
325.125,104.249,388.521,219.548
325.275,104.641,388.583,219.276
325.455,104.917,388.814,219.465
325.599,105.181,388.958,219.843
325.765,105.461,389.118,219.701
325.898,105.562,389.281,219.799
326.035,105.712,389.36,219.652
326.281,105.934,389.491,218.571
326.514,106.255,389.742,217.908
326.644,106.498,389.946,217.421
326.767,106.461,390.158,216.839
326.932,107.184,390.176,215.666
327.367,108.013,390.45,213.831
327.951,109.098,390.929,211.444
328.476,110.151,390.609,210.315
328.969,110.721,391.002,209.857
330.172,111.53,391.664,209.018
