263.683,310.2,300.482,379.561
262.877,308.436,299.293,378.478
262.762,305.158,298.816,376.315
262.521,301.274,298.751,372.468
262.995,298.342,299.225,369.659
263.264,297.648,299.803,368.993
263.514,297.712,300.505,369.153
263.428,297.249,300.481,368.62
263.595,296.807,301.09,368.216
263.355,296.157,300.831,367.302
262.879,295.857,300.295,367.253
262.447,295.19,299.849,366.755
261.884,294.451,299.149,366.54
261.509,294.047,298.849,366.543
260.411,292.816,297.625,365.224
259.201,292.286,296.435,364.704
258.321,291.68,295.505,364.09
257.207,290.409,294.306,362.792
256.384,289.851,293.529,362.331
256.234,289.564,293.49,362.1
255.119,287.929,292.214,360.812
254.393,287.034,291.669,359.91
252.594,285.427,289.938,358.032
248.798,282.858,286.088,355.639
245.831,281.871,283.033,354.692
245.053,280.256,281.62,353.014
242.086,279.416,279.051,351.798
240.167,278.989,277.158,351.367
239.558,278.896,276.395,351.473
238.176,280.077,275.094,352.725
238.23,280.252,275.218,353.217
238.235,280.271,275.217,353.239
238.244,280.287,275.225,353.255
238.252,280.302,275.234,353.271
237.869,280.057,274.68,353.165
235.651,278.841,272.44,351.98
234.447,278.444,271.174,351.683
234.441,278.409,271.273,351.812
234.341,278.051,271.18,351.536
234.42,278.001,271.386,351.48
234.437,277.972,271.396,351.435
234.33,277.851,271.151,351.332
234.293,277.499,270.925,350.972
234.514,276.588,271.28,350.265
234.063,276.027,270.833,350.289
233.908,275.636,270.74,349.982
232.353,275.036,269.234,349.222
231.594,275.093,268.429,349.399
229.989,275.374,266.874,349.558
229.914,275.52,266.84,349.993
229.9,275.637,266.833,350.092
229.915,275.688,266.886,350.168
229.822,275.739,266.761,350.203
229.856,275.797,266.829,350.254
229.876,275.809,266.851,350.277
230.058,275.418,266.947,350.552
231.518,274.406,267.918,351.807
231.936,273.948,268.315,352.296
232.906,273.457,269.066,352.699
233.376,273.124,269.713,352.91
233.571,272.932,269.967,353.044
233.628,273.032,270.109,353.523
233.654,272.922,270.125,353.35
233.673,272.921,270.144,353.327
233.686,272.893,270.153,353.32
233.668,272.884,270.122,353.383
233.665,272.717,270.138,353.114
233.454,272.379,269.828,352.735
232.779,271.951,269.063,352.091
232.879,272.079,269.279,352.509
232.53,271.75,268.69,352.008
232.015,271.584,268.041,351.69
231.651,271.316,267.591,351.327
230.879,269.759,266.047,349.465
229.983,269.029,264.935,348.541
229.664,269.014,264.507,348.553
228.168,268.448,262.864,346.734
226.354,268.291,261.072,345.504
224.221,268.985,259.081,344.768
221.438,269.74,256.578,344.634
220.055,271.277,255.708,345.393
217.35,273.156,253.289,347.34
215.861,274.857,251.897,348.964
216.048,275.649,252.51,350.174
216.101,275.952,252.559,350.925
216.134,275.965,252.599,350.966
216.231,276.163,252.666,351.728
216.268,275.737,252.788,352.061
216.819,275.201,253.785,351.988
217.372,274.966,254.251,352.066
217.656,274.873,254.57,352.345
217.76,274.466,254.691,351.959
218.031,274.157,254.75,351.378
218.895,274.422,255.577,351.47
219.504,274.435,256.299,351.689
220.8,274.658,257.465,351.755
222.453,275.244,258.904,351.795
223.934,275.955,259.997,352.413
226.595,277.228,262.586,352.636
227.994,278.536,263.401,352.955
229.654,279.662,264.765,352.909
231.433,280.756,266.463,352.866
232.047,281.568,267.293,353.09
232.202,281.934,267.636,353.796
232.294,282.059,267.64,353.963
232.178,282.702,267.528,354.371
231.87,283.559,267.211,355.408
231.988,283.997,267.452,355.855
232.21,284.997,267.648,356.585
233.255,287.322,268.651,358.695
233.699,288.182,269.107,359.525
233.968,288.255,269.393,359.747
234.036,288.265,269.499,359.746
234.118,288.23,269.549,359.716
235.042,288.861,270.162,360.294
236.454,288.634,271.274,360.615
237.582,288.112,272.052,360.827
238.888,287.032,272.664,361.137
240.257,286.339,273.455,362.118
241.425,284.724,273.994,363.505
242.254,283.818,274.75,363.636
243.247,283.182,275.084,364.082
244.121,283.004,275.545,364.788
245.709,281.047,276.58,364.873
248.843,282.569,278.766,367.35
250.935,278.668,279.392,366.288
251.232,277.962,279.609,365.958
251.312,277.704,279.761,365.802
251.502,277.749,279.919,366.477
253.394,276.975,281.857,366.62
255.035,276.047,283.585,365.861
255.992,275.932,285.039,365.818
256.28,276.025,285.753,365.939
256.288,276.048,285.772,365.99
256.191,275.691,285.673,365.529
256.105,275.761,285.589,365.56
255.962,276.008,285.41,365.739
255.783,276.367,285.241,366.124
255.742,276.935,285.156,366.413
255.792,277.014,285.262,366.386
255.836,277.229,285.276,366.525
256.044,278.158,285.31,366.892
256.523,280.423,285.812,368.112
256.72,281.462,286.09,368.554
256.532,282.109,285.918,369.273
256.211,282.51,285.666,368.625
255.734,282.928,285.294,368.612
255.158,283.359,285.202,367.811
253.314,283.329,283.569,364.327
252.257,285.31,282.542,364.407
252.162,287.024,282.553,364.264
252.543,289.093,282.824,363.25
252.659,290.524,282.856,362.571
252.817,292.231,282.914,361.623
252.691,292.692,282.84,359.707
252.712,292.674,282.687,358.3
252.863,292.785,282.52,358.5
252.995,292.933,282.936,358.846
253.006,292.973,282.952,358.879
253.032,293.02,283.017,358.992
253.106,292.874,283.052,358.753
253.183,292.913,283.179,358.887
253.189,292.928,283.174,358.898
253.84,293.097,283.765,358.987
255.491,293.866,285.199,359.967
255.764,294.18,285.635,360.71
256.94,294.361,286.541,361.608
257.84,293.719,287.451,361.042
259.31,292.759,288.663,360.163
260.864,291.969,289.624,359.864
262.175,291.55,290.5,359.351
263.713,291.861,291.396,359.694
265.441,291.234,292.506,359.369
267.425,291.536,294.192,360.508
267.453,291.498,294.248,360.88
267.492,291.699,294.471,361.298
267.545,292.346,294.512,362.962
267.611,292.498,294.703,363.71
268.091,292.985,295.716,364.593
268.717,293.657,296.878,365.533
269.164,293.867,297.696,365.702
269.41,294.47,298.365,366.107
269.449,294.784,298.432,366.663
269.752,294.948,298.701,366.642
269.822,295.119,298.783,367.02
269.884,295.167,298.84,367.046
269.931,295.444,298.815,367.365
268.995,296.075,297.862,367.775
269.157,296.322,298.05,368.24
269.262,296.465,298.155,368.492
269.233,296.355,298.126,369.046
269.357,296.439,298.299,369.527
269.598,296.336,298.533,370.015
269.61,296.391,298.578,370.585
269.831,296.349,298.817,370.859
269.881,295.754,298.838,370.935
269.893,295.889,298.88,371.383
269.92,295.712,298.911,371.164
269.908,295.615,298.894,371.134
269.691,294.861,298.559,371.017
269.667,294.966,298.632,371.408
268.93,294.397,297.908,370.43
268.458,294.073,297.416,370.565
267.313,293.439,296.291,369.41
267.289,293.428,296.252,369.359
267.268,293.455,296.235,369.352
267.219,293.682,296.189,369.579
267.052,295.911,295.939,371.809
266.892,297.526,295.945,373.159
267.182,297.938,296.76,373.707
267.286,298.227,297.368,374.057
266.779,298.042,297.277,373.61
265.702,298.847,296.379,374.471
265.204,299.387,296.216,375.356
265.405,299.768,296.911,375.598
265.693,300.285,297.645,376.176
265.85,300.733,297.781,376.678
267.452,302.12,299.192,378.111
268.894,302.618,300.634,378.23
269.122,302.843,301.061,378.736
269.371,302.878,301.2,378.79
269.96,303.094,301.699,378.916
271.304,303.119,302.974,379.013
272.558,303.022,304.288,379.088
273.203,303.073,305.079,379.515
274.441,302.29,306.269,378.583
275.027,301.26,306.992,377.274
275.114,300.708,307.128,377.004
275.301,300.757,307.774,377.122
273.292,301.264,305.553,377.325
272.717,300.626,305.103,376.814
272.736,300.678,305.193,377.047
271.583,300.785,303.863,376.587
271.252,300.305,303.61,375.624
269.316,299.208,301.616,373.676
268.978,299.744,300.998,372.37
267.489,300.227,299.394,370.136
265.361,300.864,296.463,367.888
265.554,301.118,297.019,368.562
266.084,301.609,297.285,368.965
266.235,301.677,297.721,369.146
265.888,301.413,297.304,368.658
265.91,300.823,297.346,367.968
266.349,297.504,298.051,362.939
266.515,295.406,298.54,359.892
266.446,293.637,298.75,358.222
266.544,293.845,299.028,358.816
266.625,293.914,299.076,358.949
264.716,290.424,296.688,355.653
261.165,285.9,292.49,350.979
256.296,282.417,287.208,347.788
252.402,280.896,282.603,346.408
249.439,280.521,279.203,346.292
248.969,281.098,278.68,347.102
249.108,281.347,279.085,347.813
249.123,281.378,279.04,347.828
249.14,281.476,279.095,347.921
248.86,281.915,278.714,348.509
247.789,281.784,277.503,348.484
247.354,281.955,277.175,348.888
244.995,281.858,274.616,348.489
242.744,281.943,272.484,348.404
241.826,282.533,271.901,348.61
241.949,283.729,272.488,349.655
241.508,284.194,272.526,349.597
241.73,284.267,273.209,349.689
242.686,286.624,273.89,351.68
242.605,287.076,273.974,352.957
241.639,286.39,273.015,352.024
240.639,286.571,272.037,352.268
239.475,286.58,270.81,352.45
238.604,286.774,270.04,352.687
238.489,287.206,269.988,353.071
238.281,287.309,269.786,353.309
238.023,287.599,270.13,353.572
237.915,287.988,270.499,353.873
236.531,287.599,269.711,353.603
235.578,287.685,269.144,354.21
233.825,288.426,267.744,355.171
233.693,288.757,267.664,355.649
232.998,288.742,266.886,355.618
230.578,288.889,264.395,355.405
230.05,289.718,263.67,356.696
229.855,289.518,263.663,356.52
230.014,289.836,263.945,357.235
229.233,288.234,262.705,355.139
229.033,286.204,262.073,352.826
229.087,285.285,262.428,352.245
229.323,283.519,262.616,350.203
229.72,279.793,262.843,347.287
229.709,279.163,262.962,346.628
229.467,278.158,262.707,345.694
230.257,275.74,263.57,343.748
230.749,274.419,264.172,343.171
231.278,271.957,264.583,341.365
231.879,271.528,265.201,341.111
232.415,271.507,265.748,341.538
235.246,270.845,268.206,341.424
237.264,270.312,269.68,341.322
239.233,269.841,271.399,341.664
241.191,269.275,273.302,341.49
244.708,267.462,276.772,340.561
246.556,267.024,278.587,340.774
249.098,266.875,281.094,340.96
251.142,267.652,282.549,342.117
253.229,268.368,284.248,342.643
255.633,268.545,286.809,343.045
258.521,269.081,289.993,343.276
260.412,267.832,292.228,342.109
266.304,267.499,298.436,342.093
270.378,268.407,302.707,343.321
274.915,269.027,306.889,344.342
278.401,269.815,310.008,345.157
280.896,269.272,312.467,344.697
281.951,269.331,313.702,344.858
282.125,269.584,314.091,345.527
283.429,269.621,315.069,345.485
283.884,269.555,315.757,345.55
284.656,269.279,316.453,344.676
285.016,269.217,316.897,344.341
285.986,269.257,317.673,344.549
287.004,269.258,318.61,344.051
287.958,269.445,319.671,343.908
288.344,269.405,320.158,343.83
288.5,269.494,320.436,343.877
288.531,269.553,320.516,344.02
288.539,269.569,320.523,344.037
288.548,269.587,320.528,344.052
288.562,269.621,320.542,344.068
288.57,269.637,320.547,344.084
288.539,269.538,320.426,343.597
286.594,269.266,318.194,342.893
285.049,268.582,316.629,342.096
284.554,268.164,316.219,341.861
280.877,264.158,312.578,336.79
279.024,264.917,310.368,337.889
276.796,268.782,307.449,340.429
277.519,274.396,307.858,345.847
280.696,276.268,310.274,347.269
284.896,277.101,314.258,348.404
285.916,277.877,314.965,349.593
285.862,279.142,314.745,351.532
284.836,279.461,313.343,353.074
282.691,278.262,310.843,352.982
280.772,275.889,308.814,351.171
278.23,273.226,306.227,348.758
274.472,270.825,301.92,347.385
271.958,268.899,299.016,346.531
269.786,266.373,297.016,345.2
266.611,264.737,293.733,344.083
264.071,265.145,291.188,344.782
262.119,264.05,288.984,345.132
260.652,264.355,287.36,346.114
260.425,266.423,287.216,349.2
259.591,268.23,286.431,351.353
257.725,271.565,284.296,356
256.757,271.354,283.722,356.705
256.742,271.634,283.768,357.157
256.969,271.976,284.463,357.95
257.096,272.442,284.704,358.451
257.211,273.122,285.237,359.398
256.867,273.378,285.547,359.946
255.386,273.837,284.486,360.46
253.825,273.99,283.478,360.973
252.704,274.448,282.735,361.17
251.585,274.357,281.979,361.44
249.906,274.541,280.514,361.648
249.31,273.382,280.319,360.378
249.344,273.08,280.898,359.672
246.969,273.668,279.517,358.86
244.045,274.342,277.177,357.659
240.087,276.707,273.67,357.911
239.089,276.383,273.296,356.813
238.899,276.54,273.211,354.973
238.906,276.146,273.324,353.713
238.939,276.281,273.351,353.848
239.005,277.185,273.369,353.494
239.091,277.318,273.516,352.542
239.247,277.658,273.669,351.316
239.32,277.921,273.736,351.316
239.381,277.838,273.803,351.05
239.383,277.238,273.711,350.203
239.367,276.919,273.555,349.391
239.191,277.105,273.391,348.932
237.628,277.218,272.085,347.546
236.493,276.743,270.759,346.769
233.696,277.428,267.836,347.923
232.935,277.679,267.423,348.261
231.73,278.367,266.116,349.18
231.344,278.752,265.639,349.736
230.568,279.016,264.757,350.144
230.382,279.218,264.733,350.717
229.98,279.124,264.099,350.82
229.659,279.059,263.878,351.149
227.3,280.098,260.873,351.99
226.307,280.412,259.68,351.889
225.112,280.829,258.281,351.753
224.73,280.781,257.973,351.464
222.692,281.391,256.044,351.501
221.764,281.415,254.984,351.45
221.446,281.71,254.844,352.039
220.824,282.013,254.195,352.215
220.911,282.203,254.372,352.569
221.065,282.314,254.5,352.665
222.293,282.321,255.668,352.121
224.066,282.636,257.482,352.262
225.344,282.868,258.853,352.518
225.729,283.216,259.751,353.21
226.43,283.46,261.212,353.498
226.988,284.603,262.123,354.839
227.36,284.638,262.879,355.131
227.085,284.636,263.108,355.091
226.519,284.189,262.916,354.795
225.503,282.188,261.607,354.557
224.954,280.285,261.141,353.071
224.235,279.01,260.772,351.825
219.212,278.043,257.241,352.576
219.098,276.102,257.989,352.218
219.356,272.278,258.139,349
217.935,269.076,256.665,345.486
218.337,267.643,256.998,343.575
218.621,266.731,257.087,340.737
219.084,266.466,257.477,340.227
216.096,265.948,254.022,338.706
214.745,267.462,251.232,338.811
214.011,269.268,248.949,340.26
214.372,269.358,248.993,339.96
216.116,268.714,251.086,338.517
216.77,268.043,251.871,337.379
218.074,267.304,253.77,336.464
218.717,267.541,254.649,337
219.813,267.075,255.632,335.895
221.072,266.249,257.062,334.438
222.185,266.272,258.001,334.679
224.663,265.012,260.567,333.618
226.215,263.672,261.994,334.21
226.78,264.736,261.966,336.722
227.017,264.915,262.178,337.568
227.277,265.219,262.724,338.244
227.424,265.584,262.823,339.11
227.889,266.308,263.093,340.564
228.144,266.478,263.53,341.052
228.846,266.602,264.345,341.603
230.665,266.139,266.114,341.548
232.041,265.665,267.494,341.624
232.716,265.282,268.246,341.878
234.539,265.779,270.418,342.97
234.894,265.605,270.839,343.583
235.371,265.753,271.354,343.957
236.562,266.077,272.605,344.911
237.76,266.228,274.37,346.012
238.521,265.89,275.652,346.632
240.708,266.727,277.523,348.608
241.556,266.04,278.455,348.54
242.364,265.299,279.341,348.255
243.622,265.005,280.228,348.454
245.841,265.003,282.454,349.061
246.463,264.916,283.356,349.696
247.775,264.769,284.37,350.208
249.071,264.441,285.838,349.788
249.415,264.312,286.285,349.948
249.787,264.371,286.574,350.402
250.358,264.468,287.099,351.04
251.552,265.162,288.121,351.286
256.162,265.36,292.427,350.465
258.386,265.875,294.575,350.121
261.193,266.099,297.037,349.606
263.146,265.398,298.642,349.015
264.09,264.911,299.227,348.897
265.842,264.251,301.061,348.282
267.029,264.47,302.237,348.703
267.847,264.363,303.214,348.905
269.059,264.135,304.233,349.109
269.795,263.7,305.053,348.809
270.096,263.734,305.511,349.203
271.427,263.907,306.797,349.444
272.181,263.45,307.474,349.653
273.156,263.568,308.723,350.016
273.53,263.603,309.506,350.095
274.539,263.113,310.192,350.116
275.554,262.962,311.115,350.632
276.384,262.557,312.073,351.03
276.902,262.516,312.895,350.964
277.188,262.559,313.2,350.831
277.48,262.692,313.993,351.181
278.655,262.106,315.423,351.261
279.027,262.014,316.01,351.894
279.299,261.945,316.057,352.506
280.139,262.499,316.299,353.22
280.513,262.561,316.835,353.625
279.908,262.383,316.108,354.117
278.587,261.909,314.747,354.278
277.169,260.032,313.216,353.837
277.002,259.839,313.135,353.849
277.432,260.487,313.514,354.805
278.122,260.318,314.226,354.818
278.737,260.048,315.011,354.673
279.005,260.283,315.399,355.235
279.194,260.467,315.584,355.414
279.474,261.251,315.813,355.854
279.688,263.282,315.969,357.086
280.498,264.723,316.318,358.029
280.873,265.65,316.602,358.841
281.393,266.501,316.977,359.852
281.936,268.177,317.429,360.913
282.202,268.651,317.426,361.525
282.389,268.923,317.725,361.909
282.914,269.701,318.004,362.631
283.491,270.652,318.641,363.243
284.199,271.582,319.273,364.256
284.596,272.211,319.895,365.024
284.919,272.623,320.211,365.455
285.407,272.976,320.727,365.722
285.859,273.893,321.206,365.99
286.38,275.074,321.725,366.729
286.979,275.648,322.287,367.254
287.426,276.567,323.061,367.555
287.748,276.87,323.745,367.371
288.009,277.547,323.984,367.582
288.209,277.881,324.136,368.134
288.445,278.343,324.373,368.335
288.737,278.677,324.66,368.164
288.868,278.89,324.799,368.191
289.034,279.16,324.967,368.436
289.232,279.528,325.175,368.798
289.553,280,325.449,369.152
289.939,280.632,325.875,369.659
290.192,281.201,326.145,370.342
290.294,281.482,326.225,370.907
290.384,281.602,326.337,371.033
290.496,281.773,326.41,371.27
290.611,281.839,326.545,371.304
290.768,282.133,326.723,371.322
290.905,282.452,326.853,371.782
290.978,282.585,326.962,371.988
291.384,282.715,327.303,371.608
291.822,282.649,327.697,371.362
292.687,281.821,328.622,369.941
293.988,281.027,329.88,368.349
294.369,280.879,330.342,368.032
294.784,280.858,330.753,367.981
295.349,280.722,331.286,367.921
295.697,280.681,331.669,367.834
295.987,280.779,331.838,368.228
296.397,280.735,332.274,368.227
296.679,280.763,332.54,368.254
297.128,280.762,332.965,368.244
297.358,280.446,333.206,368.032
297.549,280.298,333.259,368.425
297.792,279.864,333.339,368.428
297.106,278.743,332.678,367.796
296.426,277.827,331.917,367.19
295.867,276.875,331.04,366.074
295.215,276.777,330.3,366.004
294.419,276.967,329.458,366.101
294.624,277.188,330,366.632
294.92,277.26,330.346,366.716
295.055,277.431,330.481,366.839
295.313,277.833,330.675,367.068
295.593,278.329,331.064,367.236
295.668,278.431,331.111,367.398
295.852,279.05,331.255,367.699
295.964,279.405,331.406,368.353
296.099,279.805,331.495,368.627
296.24,280.264,331.624,369.127
296.512,281.761,331.415,370.533
296.15,282.649,330.397,371.455
295.743,283.28,329.647,372.258
296.068,283.789,329.636,372.818
295.051,283.677,328.726,373.004
294.72,283.65,328.419,373.044
294.799,283.892,328.68,373.336
294.943,283.736,328.936,373.296
295.3,284.046,329.154,373.986
295.417,283.881,329.369,373.932
295.562,283.849,329.48,374.383
295.964,283.928,329.964,374.816
296.395,283.857,330.885,374.822
296.591,283.658,331.013,374.634
297.468,282.935,331.817,374.09
297.688,282.9,332.115,374.406
297.72,282.546,332.145,374.515
297.826,282.459,332.282,374.446
297.996,282.187,332.442,374.231
298.101,282.168,332.518,374.657
298.542,281.687,332.88,374.258
298.846,280.688,333.154,374.023
299.05,279.554,333.379,373.03
299.06,278.677,333.445,372.218
298.04,276.628,332.236,370.885
297.202,275.689,331.448,370.625
296.552,274.804,330.791,369.788
295.351,273.294,329.363,368.435
294.482,272.452,328.291,368.732
293.778,272.44,327.459,368.721
293.706,272.29,327.559,368.769
292.927,271.937,326.621,368.234
292.812,271.978,326.594,368.422
293.074,271.913,327.042,368.512
293.251,272.175,327.14,369.083
293.193,272.271,327.083,369.229
293.314,272.242,327.246,369.19
293.343,272.12,327.154,369.022
293.251,272.031,327.077,368.719
293.147,272.118,326.979,368.947
293.033,272.095,326.825,369.055
293.138,271.886,327.144,368.927
293.207,272.379,327.651,369.698
293.187,272.651,327.608,369.876
293.231,272.923,327.69,370.144
293.021,273.484,327.428,370.897
293.033,273.475,327.35,370.873
292.66,273.934,326.971,370.923
291.744,273.979,325.912,370.738
291.316,274.429,325.673,371.165
290.949,274.611,325.36,371.423
291.012,275.241,325.407,371.99
291.162,276.203,325.51,372.82
291.343,277.825,325.668,374.059
291.84,279.241,325.952,374.996
291.947,279.802,326.14,375.44
290.865,280.913,324.96,374.82
288.177,280.942,322.71,372.956
286.672,280.471,321.369,370.895
286.631,279.998,321.107,368.907
286.906,280.258,320.993,367.925
287.525,280.443,321.612,366.868
288.243,280.599,322.281,365.621
288.156,280.458,322.534,364.996
286.88,279.419,321.228,363.255
285.554,279.058,319.807,361.066
285.28,278.765,319.703,360.493
285.049,277.996,319.258,359.106
285.314,276.821,319.423,357.155
284.689,275.488,318.998,354.611
283.873,274.56,318.165,353.369
282.69,272.853,317.045,351.417
282.218,271.623,316.993,350.459
282.654,271.226,317.636,350.189
283.012,271.206,317.786,350.29
283.197,271.465,318.141,350.952
283.319,271.669,318.173,351.175
283.457,272.139,318.362,352.066
283.652,272.24,318.539,352.232
283.774,272.321,318.744,352.226
283.898,272.496,318.787,352.504
284.115,272.841,318.927,353.425
284.476,273.245,319.248,354.331
284.659,273.746,319.433,355.224
284.837,273.861,319.747,355.416
284.878,274.154,319.824,356.171
284.127,274.869,318.854,357.206
283.723,275.514,318.526,357.831
283.406,276.452,318.237,358.73
282.514,277.026,317.24,359.306
281.596,277.664,316.305,360.14
280.61,278.595,314.915,360.814
277.98,279.846,311.911,361.511
276.762,280.419,310.392,361.917
275.059,281.127,308.58,361.928
274.127,281.492,307.51,361.643
273.423,282.01,306.385,361.021
273.101,282.48,305.557,361.118
273.145,282.791,305.512,361.136
273.62,283.032,306.015,359.799
273.801,283.249,306.227,359.08
274.039,283.604,306.452,358.976
274.412,283.769,306.886,358.288
275.051,283.592,307.466,358.317
275.604,283.357,308.043,358.029
275.88,283.271,308.301,358.229
276.294,283.237,308.652,358.126
276.261,283.191,308.567,358.072
274.13,283.597,306.177,358.167
274.287,284.717,306.613,359.273
273.805,288.973,306.046,362.664
271.394,293.394,303.162,365.624
266.443,297.533,298.353,367.095
262.513,300.63,294.088,369.437
261.66,300.558,293.288,369.156
261.811,300.671,293.752,369.599
261.146,300.064,292.828,368.273
261.155,299.235,292.83,366.677
260.96,297.978,292.79,364.536
259.265,297.88,290.97,364.134
259.5,297.952,291.461,364.467
259.481,298.11,291.417,365.03
259.523,298.067,291.504,364.971
259.531,298.348,291.499,364.949
259.421,299.082,291.419,365.073
259.112,299.551,291.052,364.572
259.229,299.577,291.317,364.4
259.448,299.56,291.972,363.952
259.691,299.587,292.682,364.039
259.777,298.766,292.754,362.777
259.819,298.253,292.791,362.566
259.412,296.361,292.388,360.89
259.12,295.46,292.125,360.179
259.276,294.789,292.854,359.457
259.583,293.86,293.63,358.897
259.513,292.711,294.162,357.882
258.975,291.295,293.946,356.591
258.228,290.467,293.021,355.951
257.989,289.579,292.469,355.219
258.548,288.74,292.477,355.059
260.205,287.898,293.971,354.652
261.642,286.878,295.053,353.496
263.164,286.141,296.253,353.396
265.235,284.961,298.405,353.309
268.247,284.05,301.122,353.423
268.993,283.632,301.782,353.496
269.684,282.6,302.313,353.152
270.364,281.184,302.977,353.226
271.326,279.991,303.837,353.112
270.581,279.316,303.214,352.707
269.823,278.308,302.622,352.034
268.774,276.524,301.571,350.321
269.097,276.11,302.043,348.978
270.1,273.417,302.917,345.901
270.07,272.061,302.811,344.552
269.427,269.308,302.27,341.165
269.665,266.459,302.584,339.922
271.487,263.557,304.558,339.505
273.03,262.53,306.192,339.734
274.492,261.609,307.439,339.875
275.446,260.385,307.886,340.018
279.143,257.572,311.318,340.396
281.719,252.52,313.772,338.967
283.042,249.771,314.931,339.472
282.028,249.844,314.28,340.661
284.819,242.592,317.2,335.032
287.735,232.271,320.478,324.17
289.569,229.251,322.3,321.336
288.158,228.4,320.908,322.045
287.267,224.032,319.936,321.599
286.677,220.463,319.393,320.928
290.232,219.516,322.93,322.762
289.704,216.949,322.331,321.295
290.074,216.813,322.792,320.844
291.146,217.201,323.858,321.437
294.837,220.521,327.404,323.794
297.412,222.76,330.027,325.133
298.138,222.955,330.847,325.223
300.483,225.224,333.209,326.769
303.419,224.699,336.102,327.296
306.962,223.335,340.124,326.848
310.598,224.044,344.235,327.836
312.223,223.468,346.055,328.858
312.586,223.278,346.458,329.061
312.653,222.705,346.526,329.072
312.365,222.197,346.22,329.119
311.302,222.2,344.436,329.873
310.831,222.216,344.147,330.632
309.488,223.108,342.463,331.835
308.42,224.953,341.136,333.916
308.252,225.074,341.073,334.219
308.35,225.28,341.317,334.828
308.372,225.513,341.349,335.467
308.388,225.562,341.361,335.506
308.486,225.641,341.455,335.695
308.941,226.334,341.803,337.018
310.941,228.877,343.752,340.008
312.371,228.892,345.322,340.292
313.293,228.584,346.182,340.229
315.913,228.567,348.983,340.635
316.193,228.858,349.593,341.388
317.021,229.031,350.258,342.094
317.756,229.232,351.172,342.895
319.528,229.469,353.012,344.233
320.46,231.423,353.784,346.215
321.568,232.012,354.802,347.265
322.517,235.042,355.843,349.609
321.73,236.973,355.077,351.626
320.734,238.974,353.999,353.232
320.551,241.954,353.848,355.607
321.778,243.098,355.535,357.114
322.212,243.201,356.138,357.752
321.997,242.582,355.846,357.581
320.734,240.834,354.214,355.586
318.554,237.845,351.493,352.742
317.77,235.279,350.443,350.438
315.441,231.23,348.068,346.8
311.523,228.375,344.323,343.043
308.41,225.168,340.943,340.336
308.417,223.615,341.486,339.807
309.83,220.92,343.442,338.318
310.592,217.892,344.661,336.454
313.607,213.499,348.112,333.014
314.339,212.634,349.448,332.712
316.478,209.03,352.263,329.278
310.898,205.964,347.004,326.046
310.874,205.332,347.175,325.483
310.724,205.138,347.081,325.468
310.829,204.985,347.286,325.511
310.911,205.016,347.355,325.937
310.934,204.97,347.345,325.879
310.186,204.707,346.058,325.519
307.754,204.296,342.818,324.97
305.29,204.84,340.269,325.721
305.083,204.659,339.927,325.536
303.582,203.67,337.916,324.487
301.338,204.206,335.478,324.429
299.038,204.87,333.083,324.947
297.905,205.622,332.059,325.675
297.945,205.952,332.156,326.318
298.012,206.214,332.335,326.56
297.681,206.614,332.025,326.951
296.346,208.749,330.631,328.706
295.729,210.223,330.127,329.578
294.146,213.758,328.09,332.171
292.655,216.998,326.284,334.646
292.45,217.403,326.37,335.434
292.575,218.079,326.554,336.476
292.78,220.027,326.724,338.533
292.951,221.3,326.898,340.197
293.136,221.629,327.11,340.467
293.149,221.738,327.133,340.672
293.194,221.825,327.135,340.779
293.247,221.9,327.206,340.851
293.032,222.13,326.824,341.092
292.968,222.479,326.858,341.402
292.595,222.451,326.234,341.321
292.639,222.565,326.435,341.485
292.79,222.717,326.754,341.649
293.1,223.913,327.049,342.916
292.901,224.354,326.814,343.786
293.123,224.36,327.069,343.864
293.165,224.641,327.143,344.559
293.139,224.574,327.092,344.481
293.169,224.299,327.106,344.209
292.759,223.28,326.391,343.229
292.691,222.3,326.518,342.222
292.744,222,326.615,341.979
292.858,221.012,326.783,340.929
293.103,220.615,327.09,340.385
293.085,220.63,327.062,340.565
293.082,220.604,327.06,340.559
293.167,220.559,327.145,340.605
294.658,219.356,328.561,340.115
295.895,218.382,329.888,339.626
296.112,218.373,330.024,339.946
296.109,218.741,329.99,340.648
295.778,218.586,329.503,340.31
296.14,218.784,330.071,340.803
296.734,219.828,330.617,341.657
297.286,220.392,331.246,342.112
300.2,221.362,334.564,342.759
300.642,222.192,335.125,343.223
302.851,225.028,337.489,345.069
305.424,224.847,340.812,345.407
308.656,224.826,344.227,345.676
311.249,224.593,347.16,345.704
311.449,224.694,347.338,346.149
311.824,224.447,347.716,346.007
312.051,224.488,347.951,346.441
312.045,224.094,347.895,346.022
311.47,223.328,347.145,344.227
310.345,221.299,345.648,342.267
308.974,220.47,343.638,341.382
309.11,220.897,344.039,341.69
307.985,222.864,342.646,343.266
305.361,230.355,340.031,350.271
303.054,235.956,337.587,355.199
302.714,236.284,337.485,355.874
301.819,236.217,336.429,356.083
302.034,236.195,336.98,356.177
302.134,235.717,337.016,355.686
302.245,235.657,337.197,355.576
302.318,235.604,337.268,355.606
302.451,235.669,337.348,356.176
302.821,235.689,337.642,356.745
304.772,236.668,340.106,357.766
306.403,237.282,341.977,358.648
308.714,238.415,344.942,359.287
311.352,242.221,348.657,360.241
315.352,248.627,353.064,364.514
317.255,252.379,355.633,367.294
321.039,257.927,359.292,370.914
323.238,262.379,361.356,374.309
321.854,267.243,359.368,378.75
320.89,269.026,358.237,380.585
318.983,269.734,355.963,381.601
315.883,271.762,352.382,383.419
313.302,274.273,349.233,385.914
310.651,276.046,346.154,387.538
309.197,276.986,344.736,388.566
307.237,278.774,342.622,390.587
304.247,282.763,339.443,394.294
302.684,286.181,337.974,397.908
300.318,291.186,335.369,402.743
300.79,294.201,335.864,406.719
300.77,298.556,335.71,411.025
302.29,301.593,337.319,413.428
304.543,300.276,340.022,412.367
308.056,296.514,343.621,410.104
311.083,295.234,346.921,409.944
313.138,294.263,348.911,409.333
315.621,291.567,351.716,406.86
318.328,288.651,354.707,404.408
321.36,288.672,357.22,403.805
318.398,287.368,353.81,400.736
318.127,288.427,353.532,401.341
319.726,289.99,355.162,402.456
319.892,289.905,355.244,402.202
319.473,290.7,354.616,402.826
322.267,290.071,357.337,401.523
324.521,288.831,359.629,400.099
329.338,286.938,364.633,399.12
332.786,286.031,368.208,398.471
333.232,285.591,368.632,398.413
333.363,285.547,368.812,398.622
333.945,285.437,369.279,399.178
334.261,285.367,369.664,399.468
335.067,284.866,370.447,399.545
337.493,282.611,372.973,398.404
339.662,281.116,375.186,397.473
341.729,280.213,377.695,396.849
345.991,275.869,382.253,391.955
349.552,274.781,385.742,389.913
352.399,272.707,388.159,387.462
353.089,271.463,388.399,385.97
354.412,270.206,389.395,383.717
355.298,272.886,390.386,385.558
360.007,276.648,396.127,389.157
360.671,283.1,397.578,395.551
359.614,290.99,396.989,404.049
359.674,300.227,397.057,412.772
361.51,308.222,399.098,420.218
364.909,308.456,402.654,421.928
366.573,306.829,403.888,421.867
363.163,304.772,400.615,419.974
360.503,304.105,398.592,420.636
360.845,303.564,399.165,421.474
362.69,298.963,400.937,418.105
363.636,293.369,402.778,411.617
363.626,292.812,403.633,410.253
362.659,292.799,403.502,409.637
361.501,292.654,402.24,410.88
360.843,291.582,401.611,412.32
360.806,290.961,401.806,413.241
360.71,289.441,401.423,412.858
359.58,285.477,400.37,411.704
357.996,282.361,399.116,411.425
357.397,281.855,398.793,411.398
356.958,279.039,398.673,409.356
358.033,277.558,400.291,406.783
358.688,277.127,401.412,405.455
360.091,275.645,403.083,402.523
360.487,274.448,403.511,402.18
360.579,273.756,404.329,402.179
359.405,273.07,403.552,401.96
358.276,272.648,403.625,401.444
357.672,272.161,403.525,401.413
356.145,271.949,402.51,401.39
354.559,272.305,401.477,402.581
353.357,272.484,400.595,403.389
352.753,272.538,400.408,403.643
353.613,273.347,401.501,405.366
353.696,273.718,401.715,406.441
354.16,273.678,402.787,406.988
355.333,273.75,404.716,407.254
356.567,273.669,406.284,407.624
357.351,273.174,407.27,407.167
358.168,272.518,408.063,406.752
358.843,272.023,408.691,406.741
361.177,271.055,411.288,406.801
361.18,271.213,412.397,405.939
361.412,271.121,413.069,405.845
362.345,271.094,414.611,405.296
362.714,271.021,415.346,405.246
362.883,270.33,416.21,404.609
362.64,269.974,416.224,404.292
361.975,269.355,415.885,403.44
364.14,268.235,417.968,402.667
364.63,268.109,418.652,401.951
366.47,266.821,420.659,400.749
367.683,266.087,422.032,400.231
367.891,266.219,422.259,400.46
368.034,266.415,422.516,400.724
368.098,266.468,422.742,400.856
368.401,266.605,423.394,400.993
368.694,266.784,423.704,401.002
369.228,267.125,424.624,401.237
370.599,266.799,425.871,400.812
371.225,265.707,426.564,399.678
372.623,265.165,427.831,398.199
375.877,264.338,431.444,397.099
376.286,263.823,432.468,396.429
378.439,262.946,435.126,395.464
379.185,261.947,436.168,394.549
380.001,261.088,437.102,394.295
382.713,259.317,440.128,392.462
384.409,257.86,442.159,390.51
386.183,258.483,443.618,389.965
388.446,259.089,445.396,389.702
391.498,259.969,447.762,389.557
396.144,259.909,451.763,388.98
400.876,260.817,455.55,388.608
402.428,260.557,456.859,388.568
402.951,261.095,456.758,389.217
403.115,261.251,456.839,389.522
403.441,261.355,457.219,389.642
404.237,261.373,457.342,389.573
404.53,261.671,457.73,389.972
404.693,261.833,458.094,390.196
404.918,261.761,458.153,390.214
405.01,261.777,458.472,390.199
405.028,261.817,458.5,390.261
405.093,261.835,458.517,390.252
405.209,261.847,458.605,390.289
405.682,261.752,458.98,390.029
405.827,261.759,459.252,390.29
406.833,261.735,459.74,390.791
407.662,260.824,460.323,390.258
408.307,260.671,461.149,390.215
408.586,260.538,461.479,390.717
408.689,260.65,461.637,391.137
408.828,260.418,461.772,390.841
409.174,259.176,462.011,389.359
409.66,257.658,462.369,387.918
410.415,256.243,463.176,386.429
410.75,255.697,463.58,385.49
410.86,255.354,463.835,384.983
410.839,255.157,463.818,384.85
410.924,255.12,463.831,384.871
410.959,255.157,463.926,384.991
410.98,255.203,463.948,385.097
411.02,255.223,463.974,385.168
411.053,255.25,464.023,385.183
411.14,255.205,464.072,385.039
411.287,254.678,464.182,384.171
411.549,252.589,464.401,381.643
411.858,251.942,464.783,381.125
412.471,250.461,465.205,379.605
413.041,249.335,465.709,378.633
413.471,247.96,466.291,377.217
413.643,247.493,466.585,376.765
413.7,247.288,466.671,376.571
413.506,246.602,466.523,375.495
413.472,245.923,466.924,374.269
412.821,244.67,466.227,372.277
411.576,243.994,465.19,371.448
410.823,243.547,465.326,370.793
411.172,243.765,466.118,371.175
411.27,243.873,466.219,371.268
411.229,244.008,466.24,371.517
412.167,245.267,466.992,373.211
412.679,247.042,467.244,374.708
413.27,248.793,467.503,376.425
413.738,250.395,467.641,378.418
414.394,252.494,467.439,380.935
414.703,253.447,467.946,382.015
414.905,253.853,468.251,382.828
415.019,254.062,468.402,382.985
415.209,254.477,468.424,383.369
415.506,254.858,468.798,383.727
415.649,254.978,469.085,383.882
415.827,255.234,469.226,383.88
415.906,255.382,469.366,384.263
416.3,254.478,469.619,383.046
416.683,253.715,470.177,381.767
417.001,251.582,470.292,379.355
416.985,250.461,470.441,378.147
416.945,249.066,470.476,376.625
417.253,248.269,471.133,376.11
417.172,246.773,471.068,374.449
417.339,245.685,471.231,373.236
417.569,245.412,471.465,373.21
417.733,244.953,471.713,372.41
417.897,243.928,471.792,370.615
417.966,243.865,471.949,370.29
417.973,243.634,471.937,369.904
417.961,242.819,471.82,368.977
418.201,241.868,471.769,367.999
418.41,240.895,472.23,367.087
418.654,240.065,472.427,365.955
418.819,239.452,472.623,365.379
418.935,239.549,472.899,364.785
418.882,239.073,472.791,363.555
419.146,238.599,473.084,362.672
419.211,238.791,473.176,363.094
419.224,238.845,473.198,363.22
419.285,238.877,473.23,363.329
419.358,238.919,473.29,363.336
419.463,239.014,473.341,363.371
419.754,239.103,473.539,363.515
419.868,239.151,473.833,363.599
419.914,239.215,473.844,363.658
420.055,239.479,473.901,363.938
420.18,239.718,474.081,364.102
420.244,240.119,474.165,364.483
420.275,240.23,474.234,364.689
420.284,240.301,474.255,364.739
419.769,241.01,473.692,365.735
419.64,241.645,473.569,366.612
419.341,241.969,473.302,367.004
418.531,242.364,472.454,367.742
417.428,243.063,471.407,368.417
416.408,243.217,470.273,369.051
416.265,243.26,470.244,369.271
416.176,243.464,470.155,369.96
415.062,243.169,469.095,369.761
414.501,243.241,468.984,370.317
414.144,243.437,468.639,370.897
414.145,243.458,468.618,370.903
414.118,243.493,468.595,370.939
414.128,243.52,468.601,370.965
414.146,243.571,468.616,370.997
414.145,243.616,468.609,371.055
414.156,243.646,468.631,371.09
414.172,243.68,468.643,371.124
414.187,243.711,468.659,371.155
414.202,243.742,468.674,371.187
414.228,243.79,468.693,371.229
414.246,243.836,468.718,371.267
414.264,243.879,468.735,371.319
414.299,243.929,468.763,371.339
414.385,244.011,468.819,371.397
414.444,244.096,468.905,371.478
414.58,244.095,468.984,371.234
414.747,244.219,469.163,371.387
414.808,244.351,469.267,371.759
414.958,244.392,469.35,371.804
415.038,244.462,469.508,371.89
415.147,244.382,469.558,371.648
415.226,244.484,469.679,371.89
415.367,244.469,469.787,371.763
415.464,244.591,469.897,371.945
415.607,244.376,470.071,371.203
415.943,243.8,470.289,370.117
416.054,241.459,470.317,367.949
416.169,239.963,470.485,366.413
416.15,237.617,470.563,363.911
416.248,235.664,470.576,361.977
415.526,232.674,470.334,359.175
414.557,231.73,469.895,358.337
414.562,231.634,470.056,358.411
414.584,231.33,470.058,358.154
414.716,230.975,470.099,357.914
414.92,230.83,470.282,357.904
415.84,230.213,470.733,358.313
416.268,230.085,470.977,358.832
416.446,229.967,471.345,359.109
416.809,230.062,471.626,359.655
417.508,229.964,472.121,360
418.08,230.571,472.786,360.956
418.776,230.728,473.538,361.197
419.005,230.69,473.897,361.241
419.105,230.906,474.085,361.794
419.13,230.964,474.099,361.963
419.149,230.969,474.12,361.928
419.157,231.038,474.11,362.053
419.182,231.597,474.06,363.276
419.259,231.872,474.184,363.937
419.58,232.873,474.104,366.372
419.972,233.05,474.747,367.04
420.541,233.425,475.045,368.278
420.88,233.551,475.744,368.696
420.952,233.793,475.916,369.245
420.968,233.83,475.942,369.271
420.977,233.868,475.951,369.309
420.989,233.898,475.962,369.34
421.002,233.928,475.977,369.372
421.017,233.962,475.991,369.41
421.03,233.995,476,369.441
421.052,234.058,476.011,369.541
421.074,234.086,476.04,369.548
421.095,234.152,476.052,369.651
421.124,234.225,476.075,369.739
421.137,234.503,476.119,370.453
421.105,234.681,476.061,370.777
421.103,235.008,476.059,371.569
420.936,235.654,475.71,373.115
420.791,236.251,475.719,374.432
421.103,237.339,475.591,376.416
421.208,237.834,475.557,377.324
421.293,237.922,475.74,377.382
421.271,238.333,475.631,378.018
421.326,238.579,475.776,378.557
421.119,239.301,475.384,379.377
421.226,239.753,475.642,380.214
421.273,239.899,475.719,380.328
421.303,239.985,475.758,380.425
421.194,240.092,475.547,380.617
421.145,240.269,475.518,381.613
421.124,239.99,475.46,382.545
421.088,239.875,475.421,384.034
421.613,241.182,475.798,385.658
421.831,244.129,476.011,386.866
421.034,242.831,475.556,385.54
420.307,240.268,475.481,383.05
419.735,237.568,475.006,382.275
419.442,225.016,474.699,372.034
418.733,215.814,474.16,362.556
418.64,213.713,473.931,361.22
417.681,212.987,473.057,360.443
416.275,206.843,472.04,354.221
416.132,198.084,471.05,346.19
416.473,191.981,470.601,342.043
416.384,186.778,470.304,338.846
415.387,184.525,468.781,337.497
414.164,184.02,467.267,337.001
414.312,183.503,467.729,336.852
414.374,183.548,467.875,336.955
414.602,183.518,468.586,336.921
414.441,183.679,468.38,337.056
414.469,183.754,468.442,337.185
414.482,183.788,468.455,337.222
414.473,184.111,468.47,337.378
414.406,185.056,468.457,337.31
414.739,185.682,469.198,337.009
414.747,186.899,469.198,336.835
415.283,189.311,469.675,336.408
415.627,192.108,470.243,336.783
416.14,196.507,471.283,337.477
417.879,198.801,473.108,336.927
421.833,199.671,476.278,334.641
423.872,197.078,477.427,328.916
425.623,196.249,478.892,326.053
426.22,197.661,479.478,326.454
427.08,197.674,480,324.943
427.896,198.415,480,323.171
428.927,200.763,480,323.546
430.194,202.333,480,322.735
430.87,200.875,479.844,319.263
431.717,201.327,479.569,316.799
431.758,201.844,478.991,315.128
432.478,201.861,479.564,313.432
432.654,202.547,479.825,312.606
431.077,204.168,478.742,312.207
429.299,206.008,477.481,312.868
427.216,206.226,475.955,311.137
426.152,206.077,475.559,309.932
425.922,204.511,476.056,306.969
424.432,201.135,475.125,301.339
423.623,201.471,474.649,300.792
423.217,200.77,474.424,299.789
425.82,198.131,476.26,296.145
428.038,194.835,477.42,291.312
430.278,194.769,478.33,287.896
434.057,195.068,480,284.836
436.634,196.154,480,282.137
439.379,200.179,480,283.901
439.934,203.994,480,284.941
438.429,202.98,479.029,283.144
435.872,200.947,476.926,281.221
434.411,200.166,476.245,279.989
434.456,200.128,476.464,280.068
434.433,198.711,477.1,278.208
434.434,198.185,477.496,277.607
434.422,197.701,478.052,277.073
434.537,197.755,478.571,277.16
434.578,197.807,479.163,277.136
434.652,197.963,479.407,276.742
434.717,198.358,479.611,276.932
434.757,198.213,479.624,277.058
434.385,194.569,478.754,273.449
434.554,192.927,478.647,271.74
434.626,192.114,478.614,270.914
434.647,192.182,478.611,271.108
434.659,192.249,478.648,271.185
434.61,192.315,478.616,271.243
434.659,192.41,479.2,271.288
434.56,193.169,479.573,271.656
434.648,193.274,480,271.619
434.613,193.951,480,271.957
434.638,194.334,479.956,272.646
435.118,194.557,479.756,272.679
435.907,193.442,479.43,271.817
437.205,191.661,479.424,270.205
437.918,190.396,479.272,269.313
438.764,188.806,479.065,268.596
440.697,188.131,479.294,268.39
442.175,188.554,479.499,268.607
444.336,187.131,480,267.853
446.594,182.596,480,263.775
447.841,179.824,480,261.804
448.131,180.388,480,262.425
447.907,182.318,479.815,262.159
447.734,183.59,479.519,262.632
447.867,184.107,479.486,263.054
447.728,185.139,479.48,261.962
446.96,186.877,478.761,261.053
445.963,189.107,477.807,259.546
445.288,193.559,476.704,260.537
445.012,195.733,475.903,260.09
444.894,196.466,476.023,257.346
445.579,196.568,476.95,254.436
445.746,197.012,477.115,253.173
446.168,198.015,477.418,253.297
446.206,198.293,477.735,253.51
446.271,198.762,478.314,253.695
446.179,199.443,478.778,253.637
445.813,200.575,479.02,253.731
445.457,201.323,479.117,253.698
445.388,201.365,479.452,253.348
444.842,201.713,479.528,252.724
444.789,202.153,479.795,253.234
445.062,203.388,480,254.011
444.842,203.44,479.714,254.036
444.934,203.177,479.761,253.772
445.003,203.695,479.92,253.912
444.466,203.546,479.538,252.766
443.596,204.15,479.654,251.782
441.657,202.331,478.679,248.336
439.965,202.176,477.645,246.816
438.361,206.873,476.488,250.622
438.685,204.372,477.201,247.164
439.115,203.266,477.392,246.431
440.85,196.401,478.262,239.647
440.628,194.521,477.259,236.724
441.328,193.983,477.615,235.455
441.541,193.897,477.934,235.217
441.771,193.717,478.111,234.939
441.885,193.82,478.303,235.227
441.916,193.852,478.402,235.33
441.856,193.727,478.287,234.999
441.703,193.813,478.229,235.162
440.715,194.978,477.984,236.006
439.121,195.364,477.025,236.003
437.584,197.026,476.685,236.766
435.528,198.039,476.508,236.841
433.244,198.339,476.271,236.016
432.356,198.387,476.71,235.897
431.403,198.915,476.737,236.187
429.375,199.13,476.82,235.752
428.935,199.437,476.974,235.902
428.878,199.488,477.596,235.648
428.645,199.818,477.849,235.947
428.531,200.239,478.195,236.294
428.562,200.556,478.635,236.858
428.456,200.563,478.977,236.885
428.519,200.493,479.552,236.889
428.379,200.565,479.839,236.65
427.902,200.522,479.375,236.763
426.891,200.547,478.343,236.55
426.938,201.129,478.28,237.17
426.94,201.31,478.306,237.302
426.91,201.443,478.186,237.086
427.098,202.221,478.559,237.729
426.94,202.446,478.49,238.254
427.232,202.562,479.028,238.317
427.673,202.995,479.146,238.781
428.642,204.801,479.282,240.636
427.66,205.463,477.968,241.642
427.758,206.821,478.153,243.23
427.533,207.56,478.127,243.713
427.846,207.376,478.048,243.987
427.923,207.678,478.414,244.641
427.701,207.8,478.29,244.714
427.779,207.856,478.775,244.822
427.77,207.876,478.718,244.867
427.81,207.885,478.731,244.899
428.227,208.099,478.806,245.634
429.239,208.153,479.265,246.302
430.828,206.575,479.475,245.161
432.529,203.542,479.179,242.407
433.388,200.127,478.889,238.682
434.274,197.82,479.544,235.994
434.94,197.073,480,234.563
434.409,192.906,480,229.408
433.484,191.3,479.83,227.569
432.136,188.572,479.119,224.31
431.97,188.221,479.11,223.864
431.935,187.091,479.561,222.602
432.509,184.899,479.823,220.453
435.667,179.974,480,217.477
438.827,172.26,480,210.947
440.36,171.608,480,210.725
441.946,169.607,480,209.268
442.526,169.841,480,209.805
442.633,169.752,479.754,209.756
442.386,171.568,479.267,212.709
440.827,175.904,477.74,218.487
439.978,176.916,476.983,221.366
439.572,178.258,476.956,223.182
439.331,175.778,477.348,222.251
438.885,175.822,477.17,223.106
437.855,175.762,476.624,226.752
437.865,162.86,477.202,217.624
438.195,161.405,477.158,217.411
439.033,158.164,477.435,215.905
440.154,148.856,477.929,207.783
440.55,148.211,478.18,207.438
441.799,145.018,478.994,205.093
442.372,144.998,479.398,205.787
442.719,140.576,479.71,202.917
443.893,136.961,480,201.11
444.969,138.944,480,204.816
445.363,139.211,480,207.097
442.096,140.249,478.287,209.058
439.53,141.032,477.847,210.385
438.474,141.728,477.642,211.282
438.777,141.857,478.086,210.786
438.91,141.11,478.294,209.094
439.089,140.956,478.457,208.679
439.329,140.317,478.573,207.999
439.659,139.23,478.803,206.829
439.888,139.215,479.21,207.13
440.104,137.87,479.357,205.213
440.181,136.667,479.517,203.63
440.27,136.368,479.685,203.122
440.414,135.947,479.789,202.66
440.384,136.011,479.867,202.911
440.366,136.376,479.871,203.122
438.934,136.168,479.29,202.319
438.143,136.119,478.853,202.407
438.263,136.483,479.244,202.833
438.267,136.599,479.247,203.044
438.618,136.804,479.087,202.82
438.648,136.949,479.075,203.325
438.151,137.784,478.646,203.175
437.8,137.987,478.485,203.008
437.572,137.321,478.658,202.335
437.351,136.031,478.858,200.981
437.824,135.686,479.549,200.282
438.165,135.54,479.99,200.206
437.072,133.248,480,197.17
436.723,131.813,480,195.189
435.409,132.073,480,194.517
433.516,130.641,480,190.31
432.701,128.724,479.304,187.043
432.654,126.97,479.277,184.238
433.337,126.747,479.963,182.791
435.563,126.127,480,181.087
437.144,124.924,480,179.216
438.432,122.978,480,177.196
438.981,122.173,480,177.014
439.111,122.513,480,177.515
439.084,124.136,479.871,179.632
438.059,126.439,479.032,181.462
436.353,128.749,478.329,183.142
434.801,133.029,477.409,186.52
433.272,132.879,476.557,185.255
431.575,123.183,475.954,174.804
429.974,114.59,475.8,166.42
429.169,108.618,476.147,159.094
428.624,104.413,476.112,152.873
428.482,101.009,476.784,147.656
427.75,99.7054,476.262,144.405
426.742,98.4765,476.23,141.114
426.657,96.6748,476.132,138.289
426.085,94.6254,475.769,135.367
425.132,93.3802,475.479,133.185
425.128,92.7357,475.478,132.6
425.037,92.4121,475.386,132.408
425.588,91.954,475.874,131.916
426.831,91.1282,476.938,131.204
426.425,90.4983,477.234,131.13
425.721,89.8997,476.768,131.347
425.542,87.8457,476.567,131.082
425.906,86.7276,476.821,131.072
425.437,84.2671,476.127,129.885
425.308,81.0808,475.778,127.232
425.642,78.11,475.823,124.57
425.827,78.0562,476.283,124.551
426.005,77.7189,476.408,124.261
427.424,76.8453,477.171,123.905
428.935,76.4455,478.146,123.856
430.776,76.1571,479.119,123.748
431.919,75.6466,479.567,124.045
432.591,75.5127,480,123.931
433.661,74.7734,480,123.757
434.557,73.5096,480,123.212
435.146,72.3372,480,122.942
435.518,72.172,480,123.172
435.613,71.6613,479.935,122.867
436.291,69.5614,479.963,121.045
436.106,67.5142,479.416,118.557
436.257,64.4711,478.683,115.68
435.775,66.6786,477.789,116.347
435.352,67.6576,477.692,116.521
434.941,61.9362,476.911,109.871
434.215,58.3828,475.51,104.811
433.713,45.8446,474.305,91.0658
432.258,44.4711,474.352,88.5
432.119,44.3671,474.545,88.4776
430.951,45.017,473.829,89.4452
427.448,47.6553,472.515,93.0365
424.454,46.7252,471.997,92.3134
422.197,46.2036,471.818,92.8871
421.115,45.2182,472.59,92.6213
421.631,47.4693,473.586,93.266
421.471,48.1944,474.235,92.1438
421.511,48.6462,474.095,90.8492
421.154,47.7003,473.366,89.5923
420.495,47.3685,472.272,88.9484
420.193,46.299,471.746,87.471
419.993,45.3373,471.966,86.0731
419.253,44.9006,471.508,85.6121
419.328,44.4463,471.983,85.3331
419.268,44.3188,472.325,85.2407
419.271,44.1049,472.91,85.0193
418.794,43.8425,473.38,84.7379
418.607,43.473,474.064,84.4757
417.934,42.4347,474.299,83.73
417.975,42.4984,474.469,83.9672
417.741,41.9825,474.371,83.814
417.876,41.9484,474.886,83.954
416.68,40.4824,475.732,83.6482
415.755,39.6055,476.307,83.806
414.324,38.0001,477.223,83.4635
411.124,36.6177,476.681,82.7988
407.663,34.6413,476.158,81.5984
406.457,33.2427,475.653,80.1607
406.343,32.6644,475.917,79.4563
406.103,31.3779,475.59,78.0553
406.778,30.6671,475.845,77.1386
409.485,29.0163,477.697,73.6495
410.752,28.6965,478.877,72.8137
411.867,28.6372,480,72.0656
412.66,28.632,480,71.6674
414.095,28.9542,480,71.5106
413.9,29.3407,479.875,71.7158
412.103,27.3576,477.698,68.7613
410.124,25.3381,475.695,66.0821
409.22,23.9611,475.007,65.036
408.227,21.1756,473.935,62.1431
408.017,20.3177,473.91,61.1382
407.226,19.6138,472.823,60.1457
407.37,19.6038,473.234,60.646
407.43,19.3747,473.333,60.7787
407.588,18.1381,473.467,59.3404
407.732,17.7571,473.579,59.2997
407.458,16.454,473.325,57.9378
407.403,16.4069,473.416,57.7399
406.814,16.4094,473.468,57.188
406.889,16.6559,473.798,57.519
406.385,16.9471,473.395,57.638
406.623,17.1169,474.068,58.0873
406.509,17.1171,473.938,57.8566
406.389,17.5098,473.86,58.3752
406.586,19.4228,473.619,60.1658
409.27,23.3016,475.329,64.8431
408.882,22.5239,474.974,65.0159
412.017,25.7907,476.895,69.1276
416.139,29.5031,479.549,73.4678
417.704,32.4243,480,76.3782
420.572,34.8158,480,78.4525
423.11,36.2411,480,79.8655
423.623,36.4353,480,80.3595
424.584,36.7415,480,80.0562
425.689,36.6992,480,80.0772
426.009,36.8432,480,80.2684
426.065,36.7947,479.947,80.2914
426.161,36.6942,479.937,80.1066
426.112,36.5373,479.946,80.0512
425.727,36.5002,479.706,80.4758
424.888,35.2412,478.95,79.4038
424.242,33.6813,479.034,77.9551
424.332,33.763,479.31,78.247
423.608,32.207,478.852,76.4652
423.558,30.8598,478.987,75.0281
423.29,29.3329,478.535,73.5693
422.914,27.6971,478.272,71.9861
422.859,27.5056,478.297,72.0963
422.73,27.5017,478.158,72.5633
422.615,27.542,478.104,73.1811
422.539,27.6438,477.973,73.6649
422.4,27.7421,477.898,74.2742
422.334,27.8827,477.747,74.9078
422.148,28.164,477.581,75.5175
422.114,28.2173,477.568,75.7075
421.603,27.6965,477.285,75.6158
420.86,27.2843,476.973,75.5581
420.407,27.0713,476.962,75.6204
418.834,25.3367,476.241,75.5364
418.21,25.0058,476.009,75.5984
417.81,24.8262,475.98,75.9654
417.523,24.8715,476.15,76.398
417.336,25.0173,476.296,77.0503
417.183,25.2499,476.163,77.7533
417.08,25.4492,476.031,78.4927
417.1,25.6822,476.072,79.1583
416.866,26.2693,475.786,79.6085
416.989,26.7434,475.747,80.2148
417.081,27.735,475.702,80.8689
417.645,28.9515,476.49,81.7131
418.821,30.1839,477.49,82.0658
421.258,30.3692,479.079,82.0225
423.243,30.8003,480,82.5391
424.013,31.1541,480,82.9259
424.092,31.3852,480,82.4875
422.856,31.9058,479.57,81.1874
421.658,31.5746,478.981,79.2266
420.661,30.2649,478.08,76.6345
418.535,27.395,476.481,72.391
416.765,25.2427,475.038,68.8502
416.142,21.1701,474.941,63.8212
414.741,18.9661,473.65,60.7442
412.807,18.0985,472.948,58.8803
411.827,16.4728,472.737,56.8741
411.605,15.8501,472.819,56.2761
411.643,15.7461,473.219,56.1014
411.28,15.3287,473.511,55.5119
411.121,15.0534,473.767,55.4219
410.584,14.1878,473.954,54.4325
410.01,14.0841,473.698,54.1139
409.774,14.125,473.814,54.192
409.489,13.7668,474.293,53.9586
408.63,13.665,474.184,53.5175
408.562,13.7067,474.83,53.222
408.484,13.7719,475.145,53.7035
408.36,13.7031,475.573,53.4094
408.189,13.8233,475.768,53.6541
408.37,14.0866,476.275,54.1731
408.445,14.2126,476.318,54.8775
409.319,14.7207,476.858,55.8014
410.116,15.5171,477.726,56.9822
410.563,15.3922,478.116,56.6397
411.825,16.0771,478.894,57.3075
412.075,16.7539,479.353,58.2772
412.097,17.4341,479.072,59.3035
410.806,17.4841,477.811,58.6579
410.277,17.6034,477.702,58.8124
409.86,17.7554,477.387,58.9395
410.02,17.7545,477.994,59.2834
410.061,17.8953,477.954,59.7359
409.704,17.1559,477.662,58.7385
409.324,16.405,477.201,58.3299
408.792,16.1298,476.794,56.9232
408.442,15.9415,476.942,55.8837
407.967,15.5217,476.991,54.4274
407.087,14.1326,476.677,52.7229
406.373,12.7677,476.41,50.6622
406.286,12.8555,476.901,50.2886
406.372,13.0383,477.401,50.1575
406.48,13.3044,477.925,50.5261
406.234,13.2698,477.584,50.0842
406.092,13.2059,477.582,49.7281
405.818,13.1609,477.132,49.8167
405.596,12.5078,476.691,48.9698
405.499,12.0233,476.957,47.7661
405.222,11.6566,476.638,47.4351
404.667,10.1641,476.067,45.2087
404.744,10.1005,475.924,45.2126
404.783,10.3426,476.131,45.5356
404.825,10.5099,476.258,45.8388
404.58,10.4543,476.185,45.8011
404.684,10.4778,476.664,45.8427
404.653,10.5788,476.629,45.95
404.648,10.6724,476.617,46.1112
404.542,10.7806,476.642,46.1819
404.69,10.8641,477.198,46.3356
404.933,10.8897,477.902,46.3715
404.922,10.9506,477.889,46.4086
404.903,11.061,477.854,46.5129
404.912,11.3096,477.574,46.7865
405.048,11.4019,478.051,46.8715
405.244,11.4941,478.865,46.8733
405.384,11.6233,479.405,47.0552
405.613,11.6658,480,47.1326
405.644,11.6985,480,47.1589
405.311,11.3588,479.816,46.6172
405.46,11.273,480,46.5265
405.679,9.29858,480,44.0723
405.394,8.52795,479.813,42.7122
405.423,7.98773,479.578,41.8758
406.55,6.46568,479.608,39.7365
407.496,5.90051,479.975,38.1808
406.747,5.88721,479.618,37.5822
406.767,6.05575,479.481,37.6237
406.987,6.21365,479.236,37.6222
406.999,6.34716,479.427,37.4001
406.947,6.73006,479.282,37.965
407.113,7.03616,479.068,38.1256
407.19,7.44274,478.574,38.1919
407.205,7.64219,478.658,38.5831
407.219,7.69129,478.673,38.6668
407.226,7.72112,478.697,38.6689
407.239,7.7518,478.702,38.7357
407.25,7.76264,478.719,38.7483
407.281,7.73224,478.753,38.7048
407.389,7.70977,478.793,38.6709
407.459,7.48682,478.831,38.3795
407.56,7.50322,479.007,38.4501
407.679,7.47254,479.1,38.3896
407.433,7.27072,479.026,38.1267
407.758,7.30736,479.609,38.3371
407.878,7.60882,479.821,39.0935
407.959,7.67216,479.875,39.1518
408.549,8.32939,480,39.8477
409.366,8.75226,480,40.9433
411.212,8.8589,480,41.5403
412.78,9.23645,480,42.3751
412.99,9.43743,480,42.9418
414.367,9.84982,480,43.8262
415.72,10.0093,480,44.131
416.984,10.1788,480,44.8116
417.638,10.6442,480,45.651
417.716,10.8573,480,46.3518
417.943,10.4758,480,45.8374
418.264,10.1575,480,45.6263
418.382,10.1769,480,45.6386
418.494,10.2757,480,45.4814
418.697,10.5845,480,45.7883
418.429,10.9706,479.969,45.946
