% $ biblatex auxiliary file $
% $ biblatex bbl format version 2.8 $
% Do not modify the above lines!
%
% This is an auxiliary file used by the 'biblatex' package.
% This file may safely be deleted. It will be recreated by
% biber as required.
%
\begingroup
\makeatletter
\@ifundefined{ver@biblatex.sty}
  {\@latex@error
     {Missing 'biblatex' package}
     {The bibliography requires the 'biblatex' package.}
      \aftergroup\endinput}
  {}
\endgroup


\refsection{0}
  \sortlist[entry]{nty/global/}
    \entry{goturn}{article}{}
      \name{author}{3}{}{%
        {{hash=4687a6291e0e8f42818e47c8a6f11aa0}{%
           family={Held},
           familyi={H\bibinitperiod},
           given={David},
           giveni={D\bibinitperiod}}}%
        {{hash=5112ea130eadef0764fce0145b8b9f91}{%
           family={Thrun},
           familyi={T\bibinitperiod},
           given={Sebastian},
           giveni={S\bibinitperiod}}}%
        {{hash=e29c20003a517abaaac28852301c03c2}{%
           family={Savarese},
           familyi={S\bibinitperiod},
           given={Silvio},
           giveni={S\bibinitperiod}}}%
      }
      \strng{namehash}{9cd978fbb2d0a5fa1a9145d323ba91dc}
      \strng{fullhash}{9cd978fbb2d0a5fa1a9145d323ba91dc}
      \strng{authornamehash}{9cd978fbb2d0a5fa1a9145d323ba91dc}
      \strng{authorfullhash}{9cd978fbb2d0a5fa1a9145d323ba91dc}
      \field{sortinit}{H}
      \field{sortinithash}{2f664b453ec75da1fe3804ca92633405}
      \field{labelnamesource}{author}
      \field{labeltitlesource}{title}
      \field{eprinttype}{arXiv}
      \field{journaltitle}{CoRR}
      \field{title}{Learning to Track at 100 {FPS} with Deep Regression Networks}
      \field{volume}{abs/1604.01802}
      \field{year}{2016}
      \verb{eprint}
      \verb 1604.01802
      \endverb
      \verb{url}
      \verb http://arxiv.org/abs/1604.01802
      \endverb
    \endentry
    \entry{auto}{article}{}
      \name{author}{1}{}{%
        {{hash=5fb166aa1daaacbdf65eda59ffee2654}{%
           family={Hemmersbaugh},
           familyi={H\bibinitperiod},
           given={Paul\bibnamedelima A.},
           giveni={P\bibinitperiod\bibinitdelim A\bibinitperiod}}}%
      }
      \strng{namehash}{5fb166aa1daaacbdf65eda59ffee2654}
      \strng{fullhash}{5fb166aa1daaacbdf65eda59ffee2654}
      \strng{authornamehash}{5fb166aa1daaacbdf65eda59ffee2654}
      \strng{authorfullhash}{5fb166aa1daaacbdf65eda59ffee2654}
      \field{sortinit}{H}
      \field{sortinithash}{2f664b453ec75da1fe3804ca92633405}
      \field{labelnamesource}{author}
      \field{labeltitlesource}{title}
      \field{journaltitle}{Docket No. NHTSA-2016-0040}
      \field{title}{Safety-Related Defects and Emerging Automotive Technologies}
      \field{year}{2016}
      \field{pages}{18935\bibrangedash 18939}
      \range{pages}{5}
      \verb{doi}
      \verb 81 FR 18935
      \endverb
    \endentry
    \entry{metrics}{article}{}
      \name{author}{1}{}{%
        {{hash=0ebf7b0636897cce167b3ecbbcfe4b87}{%
           family={Luka\bibnamedelima Cehovin},
           familyi={L\bibinitperiod\bibinitdelim C\bibinitperiod},
           given={Matej\bibnamedelima Kristan},
           giveni={M\bibinitperiod\bibinitdelim K\bibinitperiod},
           suffix={Ales\bibnamedelima Leonardis},
           suffixi={A\bibinitperiod\bibinitdelim L\bibinitperiod}}}%
      }
      \strng{namehash}{0ebf7b0636897cce167b3ecbbcfe4b87}
      \strng{fullhash}{0ebf7b0636897cce167b3ecbbcfe4b87}
      \strng{authornamehash}{0ebf7b0636897cce167b3ecbbcfe4b87}
      \strng{authorfullhash}{0ebf7b0636897cce167b3ecbbcfe4b87}
      \field{sortinit}{L}
      \field{sortinithash}{7bba64db83423e3c29ad597f3b682cf3}
      \field{labelnamesource}{author}
      \field{labeltitlesource}{title}
      \field{journaltitle}{IEEE Transactions on Image Processing}
      \field{title}{Visual object tracking performance measures revisited}
      \field{year}{2016}
      \field{pages}{1261\bibrangedash 1274}
      \range{pages}{14}
      \verb{doi}
      \verb 10.1109/TIP.2016.2520370
      \endverb
    \endentry
    \entry{yolo}{article}{}
      \name{author}{2}{}{%
        {{hash=99bced2e56a5253f3fe98a5f04e6d9b2}{%
           family={Redmon},
           familyi={R\bibinitperiod},
           given={Joseph},
           giveni={J\bibinitperiod}}}%
        {{hash=396c6ddedb6f986906fc3e4994d19974}{%
           family={Farhadi},
           familyi={F\bibinitperiod},
           given={Ali},
           giveni={A\bibinitperiod}}}%
      }
      \strng{namehash}{e3b480c56f52be95ad68ce67e9708174}
      \strng{fullhash}{e3b480c56f52be95ad68ce67e9708174}
      \strng{authornamehash}{e3b480c56f52be95ad68ce67e9708174}
      \strng{authorfullhash}{e3b480c56f52be95ad68ce67e9708174}
      \field{sortinit}{R}
      \field{sortinithash}{c15bc8eb6936bc6b3c8baa9e8575af53}
      \field{labelnamesource}{author}
      \field{labeltitlesource}{title}
      \field{eprinttype}{arXiv}
      \field{journaltitle}{CoRR}
      \field{title}{{YOLO9000:} Better, Faster, Stronger}
      \field{volume}{abs/1612.08242}
      \field{year}{2016}
      \verb{eprint}
      \verb 1612.08242
      \endverb
      \verb{url}
      \verb http://arxiv.org/abs/1612.08242
      \endverb
    \endentry
    \entry{mit}{license}{}
      \list{language}{1}{%
        {english}%
      }
      \list{organization}{1}{%
        {MIT}%
      }
      \field{sortinit}{T}
      \field{sortinithash}{2e5c2f51f7fa2d957f3206819bf86dc3}
      \field{labeltitlesource}{title}
      \field{day}{20}
      \field{month}{7}
      \field{pagination}{section}
      \field{shorthand}{MIT}
      \field{title}{The MIT License}
      \field{version}{X}
      \field{year}{2017}
      \field{dateera}{ce}
      \verb{url}
      \verb https://opensource.org/licenses/MIT
      \endverb
    \endentry
    \entry{bar}{article}{}
      \name{author}{1}{}{%
        {{hash=62d6065821162c476f1ca931bb39431d}{%
           family={V.\bibnamedelimi John\bibnamedelima Ella},
           familyi={V\bibinitperiod\bibinitdelim J\bibinitperiod\bibinitdelim E\bibinitperiod},
           given={Jackson\bibnamedelima Lewis},
           giveni={J\bibinitperiod\bibinitdelim L\bibinitperiod}}}%
      }
      \strng{namehash}{62d6065821162c476f1ca931bb39431d}
      \strng{fullhash}{62d6065821162c476f1ca931bb39431d}
      \strng{authornamehash}{62d6065821162c476f1ca931bb39431d}
      \strng{authorfullhash}{62d6065821162c476f1ca931bb39431d}
      \field{sortinit}{V}
      \field{sortinithash}{555737dafdcf1396ebfeae5822e5bde2}
      \field{labelnamesource}{author}
      \field{labeltitlesource}{title}
      \field{journaltitle}{American Bar National Symposium on Technology in Labor and Employment}
      \field{title}{Employee Monitoring and Workplace Privacy Law}
      \field{year}{2016}
      \field{pages}{i\bibrangedash 14}
      \range{pages}{14}
      \verb{doi}
      \verb 4821-0501-3295
      \endverb
    \endentry
    \entry{bench}{article}{}
      \name{author}{1}{}{%
        {{hash=5a47e29d192d1da93309e96e75688ccc}{%
           family={Yi\bibnamedelima Wu},
           familyi={Y\bibinitperiod\bibinitdelim W\bibinitperiod},
           given={Ming-Hsuan\bibnamedelima Yang},
           giveni={M\bibinithyphendelim H\bibinitperiod\bibinitdelim Y\bibinitperiod},
           suffix={Jongwoo\bibnamedelima Lim},
           suffixi={J\bibinitperiod\bibinitdelim L\bibinitperiod}}}%
      }
      \strng{namehash}{5a47e29d192d1da93309e96e75688ccc}
      \strng{fullhash}{5a47e29d192d1da93309e96e75688ccc}
      \strng{authornamehash}{5a47e29d192d1da93309e96e75688ccc}
      \strng{authorfullhash}{5a47e29d192d1da93309e96e75688ccc}
      \field{sortinit}{Y}
      \field{sortinithash}{f86c10978eb0c0879609ce6a4f43da7b}
      \field{labelnamesource}{author}
      \field{labeltitlesource}{title}
      \field{journaltitle}{IEEE Conf. 23-28 June Portland}
      \field{title}{Online Object Tracking: A Benchmark}
      \field{year}{2013}
      \field{pages}{i\bibrangedash 22}
      \range{pages}{22}
      \verb{doi}
      \verb 10.1109/CVPR.2013.312
      \endverb
    \endentry
  \endsortlist
\endrefsection
\endinput

