309.604,102.058,348.987,151.959
308.629,101.923,348.617,151.906
307.441,101.545,347.985,151.632
305.25,101.61,347.111,152.014
303.05,101.168,346.176,151.648
301.639,100.534,345.549,151.26
300.198,100.259,345.213,151.543
297.603,99.0527,344.094,151.545
296.272,98.1545,343.162,150.788
295.182,97.4598,342.955,150.89
294.84,97.1752,343.051,150.654
293.35,96.4305,342.349,150.054
293,96.2701,342.162,150.184
290.829,95.0699,341.327,148.858
289.22,94.4816,340.857,148.205
287.956,94.2845,340.815,148.153
287.31,94.0699,340.615,147.894
286.199,93.6639,340.012,147.359
285.3,93.1894,339.759,146.691
283.502,92.5312,338.511,145.986
282.577,92.2163,338.338,145.714
280.903,91.6158,337.746,145.077
280.389,91.4053,337.473,144.88
278.292,90.5945,336.369,144.429
276.955,89.8846,335.952,144.117
275.268,88.9339,334.113,143.618
273.742,88.0941,332.704,143.34
271.635,87.1962,330.602,142.64
270.274,86.6933,329.335,142.248
269.092,85.8339,328.65,141.654
268.495,85.505,328.362,141.538
266.253,84.3845,326.187,140.567
264.987,83.8971,324.882,140.528
262.821,83.4503,322.76,140.394
261.346,82.7451,321.2,139.799
259.448,82.4489,319.488,140.196
257.946,81.9364,318.313,140.125
256.5,81.6466,316.557,140.244
255.234,81.4448,315.134,140.61
253.569,81.4665,313.196,140.884
252.117,81.2717,311.896,140.507
250.011,81.2201,309.732,140.427
248.459,81.2081,308.062,140.46
246.807,81.2276,305.895,140.459
245.638,81.4525,304.243,140.486
243.201,82.0478,301.745,141.015
241.944,82.3018,300.444,141.154
240.464,82.6842,299.007,141.753
240.108,83.2704,299.036,142.698
239.755,83.1152,298.691,142.256
239.425,83.0851,298.341,142.59
239.545,83.2918,298.316,143.289
240.107,83.0658,298.311,143.017
240.983,82.7595,298.569,142.682
241.579,82.6253,299.418,143.138
242.366,82.7096,300.143,144.191
243.445,82.2265,301.036,145.194
243.729,85.4343,301.613,149.625
241.052,92.8366,299.238,158.783
241.285,95.8887,299.978,161.638
241.876,96.9928,301.023,162.488
243.905,96.8706,303.434,161.798
244.261,96.8721,304.272,161.799
244.76,96.2785,305.191,161.187
244.634,95.4703,304.825,160.309
244.647,95.02,305.016,159.875
243.136,94.2514,302.774,159.527
241.145,93.2761,299.823,158.694
240.945,92.9973,299.688,158.532
238.615,92.3941,297.439,158.162
233.878,91.7264,294.012,156.853
232.152,90.9165,292.607,155.745
231.208,88.9297,292.528,152.124
231.325,87.7195,294.145,150.315
230.332,86.9696,295.022,148.671
229.36,86.1495,295.048,147.239
227.129,85.1833,292.973,146.353
225.436,84.0983,291.208,146.202
223.638,83.3037,288.74,145.735
217.315,82.4336,280.687,146.103
221.454,82.4366,283.107,147.96
223.302,85.1057,284.001,151.817
223.77,87.0401,284.308,154.169
222.499,89.1411,283.805,157.645
221.432,93.1696,283.161,162.046
221.961,97.0238,284.75,167.137
224.216,97.4484,287.31,170.707
227.782,102.202,291.698,179.571
228.775,111.221,293.448,190.829
229.564,118.602,295.735,198.914
228.047,119.295,297.13,199.029
225.792,120.023,296.208,199.452
225.317,119.216,296.154,196.592
219.445,119.254,290.717,195.357
212.235,118.204,283.741,193.281
209.711,118.342,281.381,192.799
205.664,118.348,277.083,191.593
205.008,120.064,275.154,193.211
207.378,124.183,276.346,196.657
210.824,127.627,278.109,198.704
214.118,128.541,279.427,198.965
216.252,133.827,280.792,202.641
220.501,139.311,284.388,207.313
221.745,137.089,286.194,204.9
221.746,132.85,287.672,200.044
224.898,131.026,291.468,197.774
229.185,131.002,296.159,197.68
230.451,129.951,297.145,196.888
232.999,130.363,299.88,197.454
236.829,133.426,305.205,200.582
239.215,129.751,308.684,198.299
242.612,127.827,315.09,196.783
243.937,128.641,317.755,197.257
245.048,128.276,319.406,197.034
246.923,128.28,322.173,196.652
252.477,124.243,327.804,192.66
252.963,122.771,328.892,190.759
254.483,120.289,330.228,187.906
255.292,118.994,331.389,186.449
253.118,118.817,329.432,185.745
251.606,117.941,327.777,184.346
250.562,118.71,327.154,184.683
249.492,119.432,326.57,184.955
247.729,119.227,325.442,185.112
247.241,120.377,325.689,185.793
246.575,124.342,325.424,190.598
247.35,125.779,327.186,192.929
252.297,122.947,332.871,192.011
253.458,118.725,333.805,188.81
253.501,118.315,333.763,188.941
254.267,115.634,334.392,187.139
255.824,114.829,336.084,186.68
258.201,113.404,338.415,185.322
258.872,111.307,339.139,182.835
259.342,110.245,339.503,182.043
260.038,109.681,340.321,181.429
262.592,107.35,343.041,178.464
267.642,105.91,347.662,175.86
271.202,101.89,351.144,171.412
274.056,96.48,353.27,165.919
275.346,92.9433,354.124,162.732
276.57,91.1671,354.75,161.326
276.971,89.3595,354.987,159.998
278.361,85.1542,356.435,156.367
279.658,84.1683,358.078,155.612
278.72,85.5665,356.825,157.668
277.459,86.1418,355.432,159.287
274.976,84.874,352.317,159.146
271.132,85.6666,348.429,160.238
271.048,85.5678,348.462,160.467
270.39,85.3681,347.784,160.444
269.816,84.9261,347.05,160.468
269.422,83.4257,346.015,159.861
269.821,80.3951,347.405,157.096
272.788,76.6847,349.605,153.575
278.749,74.2285,355.468,151.81
283.028,70.3409,360.684,147.522
283.87,70.3688,361.057,147.605
284.717,72.5702,360.298,150.183
284.948,72.8745,360.31,150.784
287.312,70.9123,361.421,148.228
293.037,71.7906,365.85,148.549
302.403,72.0565,374.977,147.654
307.594,72.5738,379.499,148.369
312.09,71.6176,382.426,148.287
309.699,64.2234,380.324,141.043
304.428,59.6293,374.339,137.154
303.524,53.6569,371.86,133.749
306.053,48.7344,373.162,129.918
305.453,43.4124,370.625,125.945
307.748,44.2205,370.653,127.514
311.039,43.276,370.848,127.666
312.885,42.1638,370.726,128.04
315.561,39.3518,371.165,128.576
314.383,39.5473,369.949,130.18
318.846,38.3756,373.41,132.57
319.841,38.028,374.118,133.906
320.528,36.7645,374.239,133.922
321.912,35.6846,374.165,133.363
322.753,34.5272,374.339,132.761
325.671,34.2351,376.445,132.774
328.514,33.3774,377.965,131.528
332.006,33.4739,380.374,130.5
333.825,32.0301,381.773,128.251
334.924,31.5126,382.364,127.223
335.836,30.5361,382.797,125.757
336.44,30.7994,383.085,125.052
337.563,31.7571,384.099,124.301
338.764,32.2977,385.635,124.812
343.576,33.3639,389.796,125.584
348.058,36.212,393.868,128.446
349.791,37.096,395.807,128.219
353.525,38.985,400.196,129.365
356.801,39.9032,403.387,130.082
357.212,39.6155,403.999,130.381
357.699,38.9784,404.587,130.373
357.74,38.7453,404.668,130.331
357.693,38.7947,404.639,130.9
358.185,38.8251,404.883,131.502
358.073,38.6871,404.868,131.605
358.148,38.0997,404.965,130.926
357.819,37.326,404.48,130.129
355.806,35.299,401.694,129.463
353.677,34.4793,398.566,129.306
352.064,30.3374,396.259,125.639
353.908,29.2037,398.12,123.86
358.78,29.7647,402.784,121.586
361.013,30.5745,405.24,120.605
362.04,29.957,406.354,118.718
362.25,29.358,406.528,117.64
361.67,31.1094,405.878,119.656
359.515,32.6313,403.374,121.936
359.804,34.8377,404.337,125.023
365.21,30.0347,409.907,122.71
362.061,26.4792,408.101,119.9
361.351,24.8672,406.886,118.677
358.497,23.9088,403.583,117.52
362.054,22.2039,405.814,114.898
358.61,20.4184,403.011,110.262
362.245,17.9653,405.111,106.501
362.125,15.9211,404.186,104.208
362.312,13.0248,403.892,100.309
362.555,12.3116,404.06,98.7458
362.435,11.8019,404.276,98.2995
362.135,8.69544,403.882,95.6432
362.361,7.44807,404.185,94.3564
362.413,7.46138,404.372,94.4386
362.432,7.40189,404.402,94.3205
362.038,7.30333,403.899,94.4059
362.103,7.3203,403.952,94.9939
362.392,6.52926,404.37,94.1434
362.626,6.03766,404.712,93.7516
363.153,6.5905,406.211,94.4756
363.925,8.01962,408.229,95.5117
360.558,10.3365,407.741,97.3643
358.694,12.8547,406.099,100.514
357.241,11.3274,405.702,99.4199
356.862,10.5979,408.069,99.0828
356.63,8.43926,409.903,97.1166
354.86,6.23543,411.343,94.2259
353.265,3.18465,412.661,89.7741
349.891,2.01425,412.514,86.9735
348.853,2.04412,413.231,84.897
347.823,2.27969,413.842,82.4289
346.618,2.82348,414.815,80.9192
346.02,3.91364,415.38,80.7004
344.823,3.7548,414.753,80.3074
342.675,4.21102,414.16,80.6168
343.171,4.53825,414.73,81.1043
342.657,6.22685,414.742,82.7849
343.078,8.35019,415.36,86.0273
341.653,5.99166,413.971,83.0744
340.455,5.82112,412.668,83.0638
339.209,5.11709,411.769,82.1669
338.285,5.61867,411.276,82.7704
338.184,5.63527,411.15,83.0463
340.53,4.97062,412.766,82.3794
340.741,4.57294,412.983,81.9904
340.844,4.36408,413.266,81.7716
340.477,4.38428,412.814,81.9101
340.287,4.61576,412.696,82.5984
340.224,4.60728,412.658,82.5729
340.094,4.61275,412.5,82.5949
340.123,4.61453,412.58,82.5823
340.108,4.5992,412.513,82.5641
340.23,3.79882,412.289,81.5809
339.789,3.72148,411.287,81.9075
339.236,3.26981,410.045,81.7988
338.831,2.91524,409.525,81.6531
340.564,2.03732,410.091,80.6963
341.71,1.80032,409.933,79.4712
342.36,1.3405,408.836,77.9693
342.345,1.35345,406.399,76.6571
339.931,1.033,402.678,75.0734
339.39,1.11739,401.096,74.9727
339.621,1.07113,400.965,74.9716
339.619,1.0391,400.75,75.0112
340.273,0.122284,401.11,73.6759
340.964,0,401.561,73.0404
343.009,0,402.89,71.7733
344.777,0,403.213,68.75
344.806,0.350533,402.29,66.9045
345.441,0.508321,402.322,65.3426
345.671,0.744469,402.448,64.2371
345.872,0.747633,402.465,63.5198
346.425,1.04412,402.863,62.4639
346.883,1.20306,402.669,62.0521
347.584,1.28135,402.444,61.5463
347.434,1.37857,401.527,61.0199
345.221,1.76458,399.324,61.0157
345.205,1.87849,399.451,60.7472
343.043,2.34103,398.654,59.5214
338.181,2.76357,395.503,59.6244
337.435,3.52599,395.097,60.0129
335.78,4.79896,393.644,60.6502
335.58,4.65591,394.06,60.6598
335.026,4.38589,393.168,61.8551
335.215,4.37376,393.657,61.8679
335.25,4.23066,393.743,61.7484
335.637,4.45347,394.101,62.6695
335.951,3.98121,394.652,63.3913
336.319,3.79997,395.331,63.5192
338.05,1.80652,396.418,61.861
342.274,1.69899,400.573,62.7504
344.811,1.10049,403.566,62.7413
348.143,1.21289,406.022,63.7046
351.396,1.11161,408.443,63.9708
353.611,1.02243,410.361,63.7707
354.719,2.29947,411.873,65.5524
355.928,1.81233,413.681,65.5492
358.232,0.93381,417.349,64.0102
359.502,1.96449,419.854,64.2217
359.574,2.21098,420.181,64.4295
360.083,2.68161,421.196,65.0181
359.876,3.70224,421.648,65.454
359.271,5.1561,421.658,66.5779
358.697,6.95562,421.088,68.2977
359.396,7.91678,421.72,69.3591
359.579,8.29233,422.001,69.7735
359.664,8.60312,422.012,69.9899
359.585,8.92371,422.017,70.3826
359.54,9.13502,421.84,70.8214
359.711,9.38206,422.055,71.4629
359.762,9.51666,422.012,72.5277
359.422,10.1133,421.354,73.912
358.633,9.70154,420.005,73.9461
357.692,8.54603,418.75,72.8263
355.69,7.80402,416.525,72.9573
354.221,6.8292,414.559,72.7575
350.978,6.85973,411.334,71.5465
354.036,3.17105,412.464,68.5336
350.501,3.33862,408.241,67.6692
352.924,3.37683,408.519,68.0436
353.673,5.60747,408.106,70.4377
356.66,7.92797,409.489,74.2441
354.887,7.46723,406.93,74.2174
359.4,7.88611,410.88,76.7217
353.488,2.16035,406.047,69.4043
357.855,0,410.738,66.6415
358.61,0,413.576,65.311
358.8,1.04002,414.255,67.2691
360.221,1.88236,415.018,67.4078
363.065,5.86727,416.624,71.0213
374.876,8.93248,427.494,73.3034
385.354,9.33969,436.987,73.6051
386.904,9.47791,439.129,73.8749
387.56,9.43664,440.097,73.9038
388.107,9.21363,441.081,73.7222
388.266,9.31348,441.079,74.6729
388.429,8.73739,441.179,74.414
391.229,6.55568,444.019,73.2589
395.098,4.62846,448.475,71.3565
396.47,2.08112,449.287,68.9784
397.125,1.76932,449.919,68.5362
397.106,1.77295,449.643,68.9358
399.594,2.61395,451.507,70.1893
403.886,4.49218,456.803,72.999
409.309,7.05632,462.73,76.7919
414.106,9.50671,467.489,79.8183
417.22,11.491,469.921,82.8248
418.233,10.4264,469.659,82.1868
