% $ biblatex auxiliary file $
% $ biblatex bbl format version 2.6 $
% Do not modify the above lines!
%
% This is an auxiliary file used by the 'biblatex' package.
% This file may safely be deleted. It will be recreated by
% biber as required.
%
\begingroup
\makeatletter
\@ifundefined{ver@biblatex.sty}
  {\@latex@error
     {Missing 'biblatex' package}
     {The bibliography requires the 'biblatex' package.}
      \aftergroup\endinput}
  {}
\endgroup


\refsection{0}
  \sortlist[entry]{nty/global}
    \entry{auto}{article}{}
      \name{author}{1}{}{%
        {{hash=5fb166aa1daaacbdf65eda59ffee2654}{%
           family={Hemmersbaugh},
           family_i={H\bibinitperiod},
           given={Paul\bibnamedelima A.},
           given_i={P\bibinitperiod\bibinitdelim A\bibinitperiod}}}%
      }
      \strng{namehash}{5fb166aa1daaacbdf65eda59ffee2654}
      \strng{fullhash}{5fb166aa1daaacbdf65eda59ffee2654}
      \field{sortinit}{H}
      \field{sortinithash}{82012198d5dfa657b8c4a168793268a6}
      \field{labelnamesource}{author}
      \field{labeltitlesource}{title}
      \field{journaltitle}{Docket No. NHTSA-2016-0040}
      \field{title}{Safety-Related Defects and Emerging Automotive Technologies}
      \field{year}{2016}
      \field{pages}{18935\bibrangedash 18939}
      \range{pages}{5}
      \verb{doi}
      \verb 81 FR 18935
      \endverb
    \endentry
    \entry{mit}{license}{}
      \list{language}{1}{%
        {english}%
      }
      \list{organization}{1}{%
        {MIT}%
      }
      \field{sortinit}{T}
      \field{sortinithash}{423d138a005a533b47e6475e39378bf2}
      \field{labeltitlesource}{title}
      \field{day}{20}
      \field{month}{07}
      \field{pagination}{section}
      \field{shorthand}{MIT}
      \field{title}{The MIT License}
      \field{version}{X}
      \field{year}{2017}
      \verb{url}
      \verb https://opensource.org/licenses/MIT
      \endverb
    \endentry
    \entry{bar}{article}{}
      \name{author}{1}{}{%
        {{hash=62d6065821162c476f1ca931bb39431d}{%
           family={V.\bibnamedelimi John\bibnamedelima Ella},
           family_i={V\bibinitperiod\bibinitdelim J\bibinitperiod\bibinitdelim E\bibinitperiod},
           given={Jackson\bibnamedelima Lewis},
           given_i={J\bibinitperiod\bibinitdelim L\bibinitperiod}}}%
      }
      \strng{namehash}{62d6065821162c476f1ca931bb39431d}
      \strng{fullhash}{62d6065821162c476f1ca931bb39431d}
      \field{sortinit}{V}
      \field{sortinithash}{d18f5ce25ce0b5ca7f924e3f6c04870e}
      \field{labelnamesource}{author}
      \field{labeltitlesource}{title}
      \field{journaltitle}{American Bar National Symposium on Technology in Labor and Employment}
      \field{title}{Employee Monitoring and Workplace Privacy Law}
      \field{year}{2016}
      \field{pages}{i\bibrangedash 14}
      \range{pages}{14}
      \verb{doi}
      \verb 4821-0501-3295
      \endverb
    \endentry
  \endsortlist
\endrefsection
\endinput

