69.9975,51.0002,176.945,137.963
70.0239,51.0229,176.969,137.989
70.0185,50.951,176.992,138.024
70.0317,51.1498,176.981,138.64
70.0232,51.0075,176.954,138.692
70.0507,51.1435,176.987,139.126
70.0627,51.11,177.001,139.113
69.8581,51.3327,176.816,139.989
69.7453,51.4605,176.688,140.461
69.4701,51.6434,176.467,141.222
69.334,51.8248,176.288,141.819
69.2035,51.8422,176.188,141.802
69.1911,51.8584,176.14,141.82
69.1522,51.8795,176.094,141.828
69.0905,51.8726,176.024,141.848
68.9022,51.8215,175.855,141.741
68.6584,51.7928,175.684,141.813
68.0645,51.9876,175.697,142.439
67.785,51.8361,175.718,142.245
67.7348,51.8498,175.691,142.317
67.4446,51.6625,175.403,142.085
67.1736,51.5465,175.059,141.95
66.3963,51.1155,174.449,141.399
66.1366,50.9832,174.502,141.38
65.8391,50.858,174.204,141.235
65.3839,50.4748,173.648,140.822
64.1599,50.0869,172.391,140.41
63.9528,49.9388,172.389,140.299
63.5145,49.6309,171.924,140.116
63.3037,49.4875,171.701,139.871
63.1708,49.4533,171.546,139.87
63.045,49.37,171.451,139.736
62.9288,49.3522,171.318,139.78
62.7043,49.0494,171.053,139.435
62.6519,48.8224,171.01,139.284
62.4438,48.5442,170.844,138.932
62.3333,48.2611,170.647,138.7
62.3716,48.1744,170.79,138.539
62.1833,48.0483,170.548,138.314
62.233,48.0756,170.612,138.435
62.2059,48.0613,170.571,138.459
62.2419,48.0751,170.688,138.467
62.1129,48.0371,170.462,138.421
62.115,48.0742,170.551,138.502
62.1216,48.0971,170.559,138.558
62.138,48.11,170.579,138.567
62.1549,48.1229,170.598,138.577
62.18,48.143,170.622,138.606
62.2002,48.1549,170.645,138.605
62.2289,48.1209,170.653,138.568
62.2663,48.1449,170.713,138.601
62.2918,48.1651,170.739,138.623
62.3276,48.1842,170.715,138.629
62.3873,48.2024,170.808,138.636
62.4196,48.2308,170.868,138.681
62.4429,48.2559,170.889,138.717
62.4691,48.2669,170.919,138.708
62.4917,48.2967,170.938,138.758
62.5454,48.2997,170.986,138.717
62.6021,48.3244,171.042,138.742
62.6394,48.3777,171.083,138.81
62.6668,48.4143,171.111,138.876
62.6921,48.4333,171.139,138.894
62.812,48.4584,171.219,138.795
62.9101,48.5815,171.33,138.965
63.1197,48.7184,171.49,138.976
63.8633,49.5367,171.755,138.653
64.1488,50.0599,171.977,139.061
64.2813,50.3596,172.211,139.703
64.4056,50.5626,172.284,139.784
64.6769,50.8104,172.457,139.987
64.9203,51.0831,172.802,140.232
65.0613,51.3711,172.977,140.572
65.1364,51.4911,173.063,140.812
65.2789,51.637,173.14,140.698
65.6493,52.0851,173.254,140.425
65.8867,52.2374,173.803,140.473
66.0282,52.3716,173.861,140.523
66.1875,52.7439,173.851,140.48
66.36,52.9835,174.24,140.684
66.3628,53.3683,173.91,140.88
66.4438,53.7301,174.217,141.45
66.4573,53.9729,174.233,141.673
66.47,54.2022,174.265,141.807
66.6185,54.579,174.361,142.046
66.7708,54.9261,174.559,141.964
66.9316,55.6073,174.533,142.133
66.8349,55.9964,174.581,142.074
66.8822,56.3172,174.697,142.435
66.8887,56.6204,174.705,142.779
66.9084,56.8542,174.755,143.103
66.7793,56.8575,174.409,142.701
66.9308,57.0552,174.605,142.529
66.9896,57.2883,174.724,142.054
66.9837,57.7352,174.668,141.411
67.1532,58.0741,174.719,141.05
67.379,58.1431,174.706,140.096
67.6078,58.2647,174.556,139.438
67.7821,58.8435,174.256,139.17
67.8129,59.401,173.681,138.613
67.8997,59.6086,173.58,138.575
67.8477,59.8303,173.177,137.631
67.9396,59.9063,173.324,137.814
68.046,60.0414,173.382,137.796
68.2791,60.3971,173.475,137.732
68.5434,60.5295,173.833,137.733
68.6867,60.6737,174.099,138.076
69.1337,60.6772,174.08,137.452
69.1938,60.7753,174.13,137.692
69.2591,60.8028,174.195,137.719
69.4411,60.811,174.251,137.642
69.8003,61.0728,174.289,137.284
69.9651,61.3656,174.2,137.425
70.4736,61.5603,174.507,137.509
70.861,61.687,175.061,137.3
71.0834,61.9491,175.42,137.705
71.3537,62.0439,175.573,137.809
71.603,62.2622,175.84,137.936
71.8556,62.4798,176.039,138.238
72.2053,62.6705,176.263,138.381
72.5905,63.0899,176.728,138.611
72.8407,63.3391,177.223,139.246
73.0162,63.4674,177.332,139.273
73.5002,63.7675,177.49,139.378
74.0956,64.3975,177.28,139.696
74.6038,64.5932,177.498,139.706
75.2481,65.117,177.186,140.001
76.1445,65.3597,176.915,139.734
76.911,65.7253,176.925,139.715
77.476,65.9469,177.41,139.764
77.8572,65.9772,177.253,139.921
78.3831,65.867,177.119,139.721
78.9311,65.8145,177.255,139.433
79.5705,65.8395,177.315,139.571
80.3144,65.7311,177.689,139.507
81.081,65.5901,177.841,139.173
82.3107,65.5103,178.05,138.741
83.5195,64.8295,177.903,137.54
84.2278,64.056,177.674,136.452
84.3907,63.9929,177.671,136.266
85.1308,63.1186,177.897,135.093
85.4267,62.7101,178.217,134.283
86.2911,62.1921,178.586,133.614
86.8775,61.7691,178.755,132.445
88.7805,60.3705,179.321,130.439
89.4829,60.0623,180.029,130.04
89.9212,60.21,180.487,129.304
91.2749,60.2196,181.428,129.154
91.7826,59.9617,181.741,128.092
92.3971,59.7114,181.857,127.589
93.1428,59.221,182.175,126.649
93.9828,59.0995,183.096,126.232
94.6654,59.1483,183.844,126.153
95.2336,59.2025,184.399,126.142
96.2168,59.9877,184.568,125.586
96.6425,60.2901,184.658,125.695
97.2655,60.7346,185.439,125.673
97.6713,61.0785,185.914,125.838
98.4638,61.8145,186.292,126.167
99.2425,62.5452,186.455,126.304
99.4819,62.8868,186.812,126.79
99.7991,63.0486,187.059,127.028
100.38,63.5435,187.208,127.278
101.463,63.9825,187.871,127.68
102.006,64.1933,188.245,128.08
102.785,64.3248,189.057,128.197
103.299,64.4938,189.698,128.364
103.692,64.6231,190.021,128.588
104.13,65.0161,190.417,128.821
104.87,65.1066,191.141,128.994
105.348,65.1654,191.728,129.104
105.801,65.2214,192.145,129.192
106.201,65.3239,192.504,129.246
106.503,65.5832,192.879,129.427
106.784,65.9173,193.106,129.662
107.214,66.1304,193.483,129.99
107.398,66.1877,193.845,130.111
107.717,66.3816,194.029,129.942
108.223,66.634,194.458,130.38
108.762,66.8549,195.049,130.537
109.498,67.0331,195.73,130.489
109.927,66.9599,196.234,130.234
110.82,66.636,196.841,129.741
111.79,66.1694,197.911,129.115
112.552,65.9505,198.729,128.765
113.12,65.7496,199.37,128.067
114.072,65.2522,200.342,127.303
114.764,64.8428,200.931,127.024
115.623,64.7233,201.646,126.934
116.677,64.4914,202.715,126.869
118.255,63.6469,203.935,126.134
119.698,63.1243,204.504,125.486
120.958,62.6994,205.079,125.129
121.773,62.4328,205.745,124.912
122.163,62.3479,205.794,124.824
122.83,62.185,206.288,124.718
123.087,62.332,206.35,125.309
123.865,62.0172,206.624,124.837
125.294,61.697,206.888,124.681
126.603,61.4256,207.257,124.02
127.368,61.4572,207.77,124.215
127.807,61.8249,207.62,124.393
129.374,62.4417,208.188,125.018
130.348,63.0637,208.712,125.693
130.46,63.2642,208.9,126.217
130.881,63.3979,209.109,126.183
131.206,63.5555,209.561,126.488
131.742,63.7531,209.97,126.571
133.055,64.0688,210.966,126.903
133.456,64.268,211.238,127.103
133.942,64.3927,211.824,127.354
134.052,64.5221,211.97,127.376
134.598,64.7388,212.468,127.528
136.018,65.1733,213.747,127.682
136.667,65.6447,214.406,128.231
137.188,65.9246,215.027,128.788
137.47,66.0983,215.391,128.948
138.24,66.2776,216.08,129.076
139.318,66.3382,217.104,129.155
140.447,66.5146,218.263,129.397
141.761,66.4678,219.776,129.266
142.389,66.5656,220.907,129.429
143.03,66.6087,221.89,129.537
143.363,66.6828,222.351,129.568
143.752,66.6973,222.638,129.613
144.126,66.7276,223.045,129.703
144.642,66.6913,223.625,129.584
145.037,66.6291,224.229,129.425
145.913,66.7465,225.565,129.414
147.12,66.8675,226.94,129.716
148.26,66.8766,228.138,129.795
149.135,66.9129,228.818,129.712
149.778,67.1816,229.644,129.829
150.435,67.3198,230.364,130.109
150.694,67.4378,230.677,130.317
150.88,67.5386,230.862,130.397
152.664,67.7388,232.411,130.155
153.528,67.6411,233.53,129.859
154.258,67.7239,234.733,130.055
155.248,67.7369,235.546,130.005
155.698,67.7076,236.153,130.096
156.083,67.7222,236.494,130.154
156.972,67.7317,237.28,130.168
157.896,67.7341,238.17,130.103
158.608,67.6216,238.949,129.888
159.279,67.6086,239.576,129.906
159.634,67.6412,240.082,130.043
160.373,67.5996,240.774,129.851
161.446,67.4528,241.576,129.556
161.675,67.6545,242.128,130.082
162.232,67.5378,242.644,129.786
162.738,67.326,243.006,129.359
163.571,67.1542,244.003,129.269
165.037,66.6058,245.439,128.541
166.599,65.5825,246.837,127.028
166.934,65.4634,247.439,126.702
167.436,65.4623,248.523,126.647
167.79,65.4328,249.33,126.641
168.214,65.4108,250.119,126.663
168.455,65.3667,250.36,126.619
168.692,64.9841,250.77,126.008
169.056,64.7972,251.614,126.042
169.568,64.4982,252.636,125.727
169.792,64.5735,253.248,125.977
169.829,64.5992,253.285,126.017
170.064,64.2597,253.58,125.375
170.313,64.4348,254.276,125.863
170.408,64.3484,254.433,125.603
170.701,64.4567,255.158,125.86
170.726,64.5045,255.194,125.966
170.796,64.5294,255.27,125.97
170.996,64.8403,255.349,125.93
171.37,65.1895,255.765,126.437
171.6,65.3574,255.999,126.713
171.854,65.4799,256.272,126.766
172.511,65.6026,256.908,126.569
173.581,65.1822,257.772,125.161
174.618,65.1212,258.749,124.935
175.785,64.804,259.868,124.248
176.744,64.6178,260.855,123.744
177.863,64.6008,261.697,123.523
178.618,64.5004,262.133,123.176
179.457,64.6594,262.935,123.054
179.684,64.9245,262.923,123.012
179.847,65.2504,263.267,123.589
179.949,65.4006,263.333,123.757
180.334,65.5883,263.489,123.794
181.114,65.7211,264.103,123.502
181.405,65.9459,264.089,123.421
181.638,65.9234,264.52,123.269
182.092,65.8915,264.591,123.156
182.528,65.9267,264.594,122.763
182.838,65.9926,265.185,122.844
183.399,66.2244,265.468,122.643
183.768,66.3288,265.951,122.334
184.399,66.9503,266.222,122.503
184.58,67.2149,266.313,122.846
184.903,67.5345,266.45,123.032
185.662,67.7117,266.718,122.429
186.563,67.8505,267.016,121.651
186.792,67.9316,266.931,121.712
187.408,67.7793,267.276,121.392
187.617,67.7798,267.408,121.614
188.188,67.7608,267.59,121.324
188.826,67.6641,267.675,121.327
188.927,67.8006,267.875,121.72
188.973,67.8404,267.932,121.777
188.99,67.8718,267.951,121.846
189.012,67.8998,267.969,121.864
189.037,67.933,267.993,121.897
189.058,67.9565,268.016,121.929
189.087,67.9973,268.039,121.957
189.12,68.0718,268.064,122.009
189.151,68.1048,268.125,122.076
189.233,68.1873,268.206,122.089
189.398,68.2581,268.412,122.174
189.844,68.4172,269.315,122.163
189.882,68.5928,269.394,122.408
190.27,68.7948,270.166,122.289
190.532,68.796,270.472,122.127
190.733,68.8933,270.715,122.287
191.156,68.9347,271.022,122.281
191.564,69.0233,271.463,122.375
191.834,69.1238,271.792,122.506
192.289,69.3338,272.281,122.604
192.602,69.6645,272.494,122.854
192.773,69.875,272.756,123.297
193.027,69.998,272.974,123.305
193.465,70.3075,273.332,123.454
194.258,70.7209,273.957,123.639
194.854,70.8354,274.84,123.608
195.74,70.9259,275.741,123.599
196.55,71.111,277.029,123.753
197.415,71.3148,277.532,123.56
198.303,71.2633,278.624,123.43
198.794,71.3421,279.162,123.563
199.055,71.5128,279.529,123.612
199.358,71.7047,279.807,123.683
199.548,71.7358,280.019,123.57
199.813,71.7793,280.307,123.639
200.518,71.6932,280.872,123.368
200.971,71.6907,281.464,123.359
201.342,71.7318,282.023,122.934
202.58,71.0466,283.118,121.749
203.856,70.6088,284.108,121.066
205.037,70.4275,285.168,120.636
205.757,70.4654,285.911,120.618
206.036,70.6865,286.373,121.135
206.327,70.9221,286.502,121.345
206.609,71.2043,286.912,121.63
206.841,71.6133,287.219,122.015
206.922,71.741,287.357,122.181
207.162,71.9,287.459,122.304
207.343,71.9547,287.759,122.426
207.791,71.803,287.965,122.101
208.809,70.6384,288.439,120.823
210.587,69.1655,289.676,119.014
211.441,66.8717,290.212,115.614
212.215,66.3309,290.535,114.802
213.044,65.3883,290.633,113.377
213.359,65.3134,291.208,113.283
213.444,65.3285,291.385,113.304
213.573,65.3911,291.407,113.388
213.692,65.4253,291.611,113.412
213.857,65.6363,291.642,113.612
214.619,66.4383,291.887,114.335
214.831,66.7176,292.093,114.687
214.989,66.8978,292.338,114.84
215.098,67.1084,292.517,115.101
215.192,67.1729,292.592,115.155
215.284,67.2301,292.708,115.212
215.339,67.2591,292.785,115.241
215.383,67.2969,292.834,115.273
215.607,67.3625,292.967,115.375
215.678,67.6092,293.143,116.087
215.703,67.6311,293.166,116.106
215.772,67.6536,293.246,116.126
215.788,67.6686,293.258,116.148
215.835,67.6948,293.285,116.167
215.86,67.7188,293.32,116.193
215.958,67.8903,293.419,116.29
216.624,68.1282,293.886,116.465
216.963,68.2645,294.31,116.748
217.134,68.3299,294.483,116.819
217.239,68.5446,294.681,116.986
217.269,68.587,294.727,117.064
217.321,68.6777,294.757,117.147
217.375,69.362,294.716,117.633
217.459,70.7315,294.65,118.882
217.661,71.509,294.943,119.69
218.147,72.9571,294.915,121.097
218.262,73.1434,295.223,121.62
218.293,73.1506,295.251,121.616
218.377,73.1371,295.29,121.598
218.59,73.0721,295.412,121.526
218.815,73.04,295.677,121.48
218.886,73.0897,295.839,121.561
218.912,73.17,295.807,121.638
218.971,73.5666,295.653,121.917
219.127,73.6594,296.078,122.134
219.144,73.7045,296.093,122.176
219.169,73.7189,296.131,122.198
219.186,73.7291,296.148,122.208
219.236,73.6523,296.064,122.152
219.431,73.5647,296.27,122.011
219.665,73.3314,296.429,121.586
219.942,73.3049,296.792,121.648
220.376,72.8749,296.897,121.019
220.724,72.3085,297.197,120.662
220.864,71.7734,296.999,120.15
221.099,71.7597,297.502,120.192
221.161,71.7726,297.589,120.258
221.196,71.7715,297.637,120.251
221.223,71.7821,297.686,120.261
221.242,71.8014,297.7,120.274
221.216,71.6177,297.481,120.19
221.303,71.7915,297.684,120.785
221.393,71.4029,297.487,120.588
221.542,71.2057,297.672,120.86
221.317,70.8149,297.257,120.885
221.071,70.1314,296.604,120.731
221.175,70.0874,296.973,121.043
221.067,70.0328,296.977,120.95
220.954,70.0327,296.891,120.942
220.928,70.0686,296.878,121.026
220.838,70.0349,296.749,120.929
220.576,69.9677,296.354,120.853
220.049,69.7903,295.077,120.665
219.742,69.5738,294.643,120.496
218.984,69.3892,293.31,120.156
218.643,69.2688,292.848,120.057
218.688,69.3534,293.062,120.315
218.61,69.3426,292.927,120.302
218.303,69.2821,292.38,120.173
217.666,69.3099,291.647,120.134
217.622,69.4006,291.5,120.361
216.82,69.4069,290.568,120.274
216.912,69.4896,290.875,120.458
216.36,69.5446,290.223,120.466
215.947,69.605,289.832,120.541
214.876,69.6833,288.68,120.576
214.06,69.7402,287.807,120.61
213.332,69.8385,287.053,120.681
212.855,69.9731,286.778,120.84
212.504,70.0993,286.5,120.957
211.829,70.1689,285.831,121.034
212.039,70.2419,286.513,121.203
211.561,70.3879,286.021,121.242
211.247,70.4895,285.712,121.4
210.179,70.5303,284.519,121.384
209.908,70.5903,284.29,121.5
209.793,70.5885,284.217,121.541
209.64,70.5586,283.989,121.483
209.351,70.5749,283.747,121.464
208.793,70.6401,283.14,121.52
208.806,70.6941,283.25,121.66
207.611,70.7771,282.025,121.548
206.816,70.8606,281.126,121.696
206.869,70.9315,281.292,121.898
206.865,70.9371,281.288,121.903
206.881,70.942,281.293,121.917
206.764,70.8816,281.005,121.865
206.617,70.7674,280.742,121.736
206.697,70.7482,281.105,121.706
206.568,70.6797,280.808,121.585
206.48,70.574,280.871,121.454
206.209,70.3854,280.457,121.248
205.055,70.1501,279.218,121.038
205.217,70.2047,279.68,121.173
205.242,70.2042,279.688,121.152
204.917,70.1815,279.168,121.097
205.03,70.2228,279.483,121.186
204.805,70.1994,279.049,121.073
204.918,70.2565,279.365,121.228
204.823,70.312,279.153,121.24
204.552,70.2712,278.603,121.077
204.492,70.4158,278.661,121.259
204.444,70.5224,278.686,121.401
204.329,70.5017,278.588,121.33
204.109,70.5337,278.337,121.314
203.913,70.489,278.091,121.317
203.905,70.3285,278.083,121.093
203.45,70.1855,277.368,120.942
202.994,70.1119,276.53,120.924
202.712,69.9735,276.408,120.844
202.726,69.9902,276.556,120.945
202.588,69.9027,276.449,120.818
202.328,69.7812,276.067,120.743
202.225,69.6464,276.053,120.561
202.182,69.6481,276.058,120.603
202.175,69.6348,276.088,120.586
201.874,69.5991,275.663,120.57
201.713,69.5843,275.517,120.546
201.685,69.6054,275.531,120.562
201.521,69.62,275.354,120.571
201.574,69.627,275.493,120.615
201.546,69.6055,275.396,120.577
201.612,69.619,275.533,120.591
201.374,69.6057,274.98,120.536
201.053,69.5126,274.212,120.463
200.993,69.4889,274.32,120.431
200.384,69.4407,273.452,120.346
200.473,69.5315,273.867,120.47
200.295,69.5315,273.555,120.479
200.069,69.5044,273.292,120.445
199.561,69.4089,272.791,120.332
199.611,69.4125,272.975,120.384
199.606,69.3664,272.984,120.33
199.058,69.1157,272.273,120.081
198.592,68.864,271.807,119.829
198.509,68.6873,271.866,119.647
198.436,68.5777,271.814,119.561
198.341,68.3712,271.729,119.358
198.142,68.3187,271.533,119.329
198.064,68.486,271.402,119.984
198.096,68.4386,271.512,119.932
198.007,68.3184,271.36,119.83
197.831,68.3509,271.215,120.329
197.788,68.1566,271.227,120.006
197.805,68.2283,271.272,120.202
197.794,68.1899,271.263,120.126
197.765,68.2041,271.238,120.166
197.763,68.2175,271.225,120.176
197.737,68.182,271.216,120.111
197.587,68.1066,271.111,120.067
197.77,67.9809,271.739,119.915
197.784,68.0139,271.747,119.992
197.768,68.015,271.712,119.979
197.718,67.9949,271.539,119.968
197.786,67.9882,271.707,119.975
197.744,68.0884,271.64,120.003
197.74,68.1104,271.639,120.092
197.738,68.0843,271.597,120.078
197.792,68.0745,271.728,120.06
197.818,68.0749,271.768,120.057
197.841,68.084,271.804,120.062
197.851,68.0883,271.807,120.072
197.872,68.0966,271.835,120.074
197.887,68.1071,271.85,120.086
197.906,68.1195,271.866,120.098
197.918,68.1289,271.891,120.11
197.926,68.1366,271.923,120.123
197.913,68.1343,271.928,120.127
198.144,68.1571,272.653,120.146
198.386,68.1529,273.381,120.151
198.39,68.1542,273.357,120.133
198.416,68.1624,273.39,120.151
198.432,68.1691,273.403,120.149
198.416,68.1368,273.476,120.194
198.65,68.346,274.105,120.825
198.715,67.985,274.202,120.832
198.748,68.0295,274.228,121.043
198.777,68.2508,274.219,121.726
198.926,68.1994,274.336,121.716
199.416,68.1051,274.703,122.207
200.274,67.3875,275.745,121.969
200.636,67.2706,275.988,122.232
201.207,66.8287,276.612,121.897
201.315,67.0011,276.769,122.455
201.398,66.9809,276.852,122.434
201.882,66.494,277.296,121.948
202.007,66.4789,277.432,121.913
202.145,66.4107,277.589,121.856
202.622,66.2154,278.072,121.54
203.713,65.5713,279.366,120.952
204.302,65.4773,280.301,120.818
204.782,65.4127,280.72,120.783
205.42,65.2775,281.493,120.515
205.803,65.3715,282.335,120.791
206.061,65.4097,283.065,120.887
206.347,65.42,283.844,120.897
206.735,65.4237,284.272,120.889
207.677,65.5734,285.824,120.985
208.31,65.6877,286.775,121.039
208.379,65.7893,286.867,121.228
208.563,65.8315,287.16,121.198
208.93,66.0853,287.98,121.31
209.321,66.2586,288.862,121.67
209.766,66.2846,289.761,121.729
210.137,66.3153,290.029,121.738
210.387,66.3266,290.348,121.707
211.255,66.4219,291.207,121.676
211.985,66.8019,291.977,122.005
212.545,67.0826,292.464,122.402
213.731,67.4763,293.734,122.692
214.291,67.7788,294.72,123.18
215.002,67.9139,295.467,123.326
216.541,68.6033,296.941,123.69
217.024,68.8862,297.651,124.386
217.934,69.0037,298.831,124.463
218.414,69.0976,299.451,124.547
219.047,69.1134,300.648,124.563
219.503,69.2086,301.639,124.678
219.798,69.2187,302.344,124.687
220.41,69.3303,303.674,124.797
221.525,69.4248,305.189,124.887
222.636,69.5673,307.175,125.163
223.285,69.7212,308.449,125.727
224.402,69.9553,309.897,126.356
224.746,69.9908,310.261,126.364
225.441,70.0022,311.46,126.408
226.08,69.9646,312.445,126.375
227.126,69.7836,313.478,126.189
228.063,69.6816,314.472,126.048
229.103,69.3611,315.404,125.893
230.01,69.3584,316.583,126.236
230.695,69.3388,317.758,126.218
231.254,69.294,318.72,126.22
233.449,68.3576,320.838,125.715
234.146,68.0324,321.638,125.577
234.623,67.8102,321.965,125.846
235.235,67.727,322.831,126.2
235.662,67.5655,323.727,126.122
235.949,67.6323,324.474,126.643
236.604,67.6024,325.731,127.075
236.855,67.4082,326.338,127.017
237.051,67.3855,326.697,127.484
237.677,67.3734,328.004,127.767
238.763,66.8741,329.557,127.445
238.955,67.0069,330.011,128.029
239.261,67.1367,330.75,128.594
239.354,67.1064,330.871,128.586
239.73,67.1014,331.734,128.587
239.978,67.1094,332.441,128.583
240.399,67.0971,332.867,128.566
240.503,67.1169,333.001,128.6
240.556,67.1296,333.08,128.612
241.566,67.1388,334.802,128.572
242.167,67.1632,335.811,128.643
242.473,67.1681,336.521,128.635
242.972,67.2034,337.582,128.651
243.329,67.2291,338.452,128.709
243.814,67.2445,339.398,128.702
244.085,67.2657,340.091,128.746
244.404,67.281,340.951,128.745
244.675,67.2966,341.658,128.776
244.685,67.3147,341.67,128.791
244.755,67.4253,341.935,128.924
245.089,67.5523,342.91,129.016
245.415,67.7399,343.713,129.315
245.749,67.8898,344.414,130.075
246.09,68.0475,345.407,130.656
247.344,67.9723,347.094,131.091
247.818,68.0746,347.888,131.661
248.856,67.7067,349.588,131.929
249.094,67.7539,350.116,132.276
249.461,67.9062,351.051,132.934
250.416,67.6224,352.568,133.156
250.645,67.8057,353.116,133.819
250.678,68.0337,353.123,134.479
250.734,68.0371,353.197,134.467
250.77,68.071,353.226,134.537
250.795,68.087,353.249,134.558
250.816,68.101,353.267,134.572
250.839,68.1154,353.288,134.587
250.885,68.1265,353.357,134.609
250.896,68.1355,353.346,134.607
250.947,68.148,353.411,134.634
