196.998,86.9976,234.977,104.993
197.008,86.991,234.982,104.996
197.02,87.2376,235,105.731
196.997,87.2395,234.955,105.738
196.993,87.2216,234.964,105.731
197.006,87.4668,234.987,106.458
196.96,87.4613,234.959,106.442
196.934,87.4516,234.917,106.447
196.931,87.4505,234.875,106.435
196.932,87.4503,234.864,106.436
196.939,87.4472,234.891,106.443
196.774,87.4142,234.693,106.384
196.813,87.406,234.764,106.381
196.834,87.4142,234.816,106.409
196.846,87.4186,234.823,106.412
196.853,87.4199,234.833,106.413
196.862,87.4231,234.843,106.415
196.867,87.4273,234.846,106.419
196.763,87.424,234.705,106.404
196.385,87.3885,234.268,106.373
196.435,87.3968,234.394,106.382
196.448,87.4035,234.42,106.39
196.461,87.4104,234.442,106.402
196.469,87.4145,234.45,106.406
196.434,87.4202,234.411,106.411
196.442,87.4245,234.414,106.414
196.451,87.4292,234.43,106.421
196.458,87.4333,234.428,106.424
196.023,87.4258,233.997,106.393
196.001,87.435,233.976,106.419
195.815,87.3947,233.609,106.386
195.842,87.3912,233.785,106.386
195.825,87.3899,233.784,106.381
195.845,87.3941,233.826,106.386
195.693,87.3653,233.535,106.34
195.77,87.3775,233.748,106.369
195.78,87.3821,233.76,106.374
195.765,87.383,233.694,106.369
195.788,87.3918,233.757,106.379
195.784,87.3976,233.728,106.377
195.798,87.4095,233.77,106.398
195.756,87.4069,233.685,106.398
195.594,87.3517,233.497,106.349
195.552,87.3366,233.546,106.319
195.502,87.341,233.476,106.315
195.33,87.2762,233.316,106.266
195.306,87.2832,233.282,106.274
195.307,87.2852,233.282,106.277
195.266,87.2855,233.234,106.262
194.902,87.2764,232.8,106.289
194.562,87.5134,232.494,106.966
194.152,87.4484,232.123,106.873
193.849,87.4952,231.861,106.945
194.04,87.5163,232.528,107.001
193.826,87.529,232.297,106.932
193.729,87.5861,232.195,107.037
193.372,87.659,231.801,107.038
192.149,87.7432,230.578,107.007
192.046,87.722,230.368,107.212
191.975,87.6979,230.36,107.198
191.773,87.9336,230.261,107.921
190.903,87.712,229.033,107.771
190.248,87.8488,228.619,108.271
189.352,87.7508,227.619,108.157
187.877,87.7813,226.375,108.192
186.972,87.8307,225.597,108.256
186.681,87.8182,225.694,108.29
186.918,87.8242,226.402,108.319
186.9,87.8217,226.384,108.31
186.89,87.8278,226.38,108.306
186.771,87.8217,226.242,108.292
186.687,87.8411,226.154,108.332
186.361,87.8242,225.781,108.33
186.023,88.051,225.322,108.987
185.847,88.0805,225.298,109.009
185.724,88.1379,225.266,109.094
185.42,88.1863,225.626,109.045
185.445,88.2587,225.947,109.227
185.69,88.2748,226.667,109.265
185.04,88.23,225.829,109.294
185.1,88.441,226.072,109.938
185.082,88.4599,226.075,109.941
185.088,88.4925,226.068,109.975
184.548,88.986,225.903,110.368
184.478,89.1923,226.087,110.643
184.415,89.3932,226.588,110.786
184.41,89.8337,226.991,111.211
184.464,89.9357,227.508,111.392
184.499,90.0232,228.211,111.442
184.639,90.0639,228.618,111.555
184.643,90.071,228.621,111.562
184.645,90.1191,228.602,111.606
184.676,90.1375,228.645,111.633
184.692,90.1405,228.669,111.632
184.708,90.1461,228.682,111.639
184.715,90.148,228.704,111.64
184.674,90.2972,228.861,111.905
184.837,90.5144,229.334,112.493
184.852,90.5473,229.332,112.528
184.847,90.5727,229.343,112.551
184.81,90.6116,229.292,112.59
184.82,90.6742,229.337,112.646
185.044,90.6903,230.027,112.681
184.785,90.7181,229.762,112.717
184.754,90.7124,229.663,112.703
184.761,90.7092,229.675,112.695
184.746,90.7106,229.718,112.695
184.518,90.7265,229.445,112.702
184.484,90.7547,229.359,112.668
184.535,90.7982,229.498,112.777
184.552,90.8076,229.507,112.783
184.559,90.8193,229.524,112.801
184.519,90.8046,229.429,112.759
184.465,90.8129,229.35,112.747
184.513,90.8319,229.473,112.802
184.436,90.7936,229.412,112.734
184.375,90.6759,229.213,112.61
184.386,90.374,228.944,112.254
184.479,90.3854,229.334,112.298
184.457,90.4993,229.372,112.091
184.379,90.6006,229.075,112.475
184.31,90.5997,229.012,112.533
184.458,90.6293,229.419,112.609
184.468,90.6297,229.442,112.614
184.257,90.6014,229,112.547
184.388,90.6265,229.355,112.612
184.399,90.612,229.279,112.605
184.416,90.5797,229.351,112.574
184.448,90.582,229.424,112.573
184.367,90.5893,229.337,112.556
184.331,90.6048,229.248,112.584
184.114,90.5994,228.96,112.548
184.067,90.5763,229.003,112.563
183.999,90.5748,228.953,112.556
183.57,90.5471,228.209,112.508
183.621,90.5647,228.455,112.545
183.695,90.5755,228.657,112.558
183.539,90.6253,228.433,112.47
183.4,90.683,228.274,112.626
183.344,90.6914,228.264,112.665
183.279,90.6771,228.127,112.638
183.327,90.6741,228.262,112.659
183.315,90.6772,228.277,112.658
183.267,90.6646,228.093,112.646
183.147,90.6276,227.927,112.585
182.75,90.4802,227.183,112.305
182.683,90.5652,227.089,112.524
182.223,90.37,226.26,112.098
182.291,90.4333,226.553,112.32
182.4,90.4822,226.856,112.444
182.362,90.4983,226.758,112.466
182.152,90.4664,226.328,112.453
182.156,90.4153,226.165,112.36
182.07,90.3447,226.184,112.327
182.099,90.2041,226.336,112.137
182.194,90.2403,226.618,112.213
181.965,90.1073,226.174,111.979
181.892,90.0662,226.207,111.698
181.92,90.1574,226.235,111.783
181.844,90.3039,226.28,112.043
181.596,90.3788,226.064,112.255
180.968,90.3072,225.3,112.159
180.667,90.2244,225.078,112.108
180.493,90.2324,224.85,112.225
179.974,90.0811,224.103,112.002
180.113,90.0835,224.578,112.08
180.112,90.0649,224.572,112.053
180.06,89.9703,224.438,111.9
179.89,89.8451,224.148,111.718
179.882,89.8739,224.259,111.827
179.873,89.8842,224.3,111.867
179.842,89.8772,224.267,111.861
179.909,89.851,224.322,111.825
179.949,89.8591,224.424,111.849
179.922,89.8123,224.358,111.833
179.974,90.0374,224.439,112.53
180.01,90.0191,224.484,112.511
180.046,89.8733,224.511,112.336
180.148,89.6624,224.472,112.114
180.346,89.585,224.699,112.025
180.462,89.5741,224.912,112.019
180.926,89.2422,225.005,111.668
181.359,89.1148,225.475,111.597
181.549,89.1234,226.027,111.614
181.56,89.1261,226.021,111.61
181.574,89.116,226.01,111.581
181.667,89.0573,226.068,111.532
181.749,89.0407,226.206,111.518
181.839,88.9867,226.286,111.452
182.109,88.7742,226.483,111.242
182.29,88.5239,226.724,110.962
182.441,88.3637,226.832,110.836
182.463,88.2165,226.841,110.697
182.558,88.0217,226.969,110.506
182.645,87.7811,227.068,110.37
182.637,87.8262,227.029,110.893
182.683,87.9837,227.151,111.463
182.75,87.8842,227.169,111.413
183.003,87.673,227.275,111.856
183.346,87.1593,227.493,111.949
183.582,87.0721,227.902,112.121
183.694,87.1808,228.089,112.719
183.773,87.359,228.212,113.323
183.794,87.3188,228.239,113.223
183.8,87.1494,228.14,113.051
183.636,87.0307,227.851,112.896
183.402,86.8836,227.706,112.567
183.274,86.6388,227.632,112.386
183.411,86.5402,227.628,112.431
183.849,86.2874,227.803,111.942
184.028,86.3193,227.837,112.162
184.135,86.3014,227.997,112.164
184.335,86.2372,228.075,112.08
184.206,86.0351,228.065,111.543
184.274,85.8713,228.146,111.531
184.221,86.0405,228.239,110.945
183.815,85.4739,228.269,109.747
183.808,85.5722,228.275,109.985
183.811,85.5914,228.136,109.75
183.88,85.688,228.212,110.033
183.917,85.714,228.194,109.901
184.044,85.8079,228.402,110.197
184.126,85.7727,228.568,110.213
184.118,85.5927,228.397,109.911
184.183,85.3578,228.397,109.686
184.329,85.4178,228.803,109.883
184.312,85.3721,228.747,109.774
184.046,85.0452,228.371,109.216
184.034,84.908,228.501,109.247
184.023,84.9429,228.454,109.429
184.047,84.801,228.414,109.238
184.117,84.809,228.579,109.293
184.142,84.7951,228.609,109.291
184.172,84.7348,228.603,109.251
184.206,84.9765,228.684,109.966
184.219,84.9801,228.694,109.967
184.235,84.9697,228.707,109.96
184.374,84.7049,228.747,109.717
184.436,84.8651,228.879,110.339
184.576,84.6617,228.977,110.047
184.711,84.4649,229.252,109.83
184.97,84.0578,229.795,109.656
184.874,84.0014,229.735,110.078
184.942,84.0293,229.933,110.505
185.01,83.7751,229.898,110.013
184.529,83.5997,229.422,110.11
184.238,83.5131,229.053,110.602
184.366,83.6689,229.326,111.108
184.395,83.4862,229.307,110.995
184.47,83.3847,229.34,111.394
184.538,83.6177,229.517,112.091
184.537,83.4998,229.53,111.947
184.532,83.4435,229.51,111.871
184.526,83.464,229.497,111.94
184.512,83.3061,229.426,111.69
184.482,83.207,229.511,111.588
184.689,83.2325,230.165,111.688
184.578,83.1673,230.127,111.475
184.863,83.1746,230.849,111.601
184.998,83.1259,230.957,111.535
185.198,82.8719,231.159,111.347
186.264,82.2145,232.259,110.494
186.975,81.989,233.073,110.374
187.17,81.9462,233.829,110.175
187.648,81.9799,234.697,110.306
188.225,81.6916,235.842,110.203
190.308,81.0353,237.844,109.757
191.757,80.481,239.371,109.297
192.492,79.3614,239.819,108.519
193.078,79.3369,240.516,108.665
193.26,79.306,240.859,108.722
193.618,79.1852,241.663,108.494
194.464,79.156,242.821,108.393
194.755,79.0596,243.301,108.424
195.935,78.4229,244.788,107.394
196.288,78.2016,245.174,107.059
196.562,78.2344,245.545,107.063
196.9,78.1209,245.852,107.043
197.085,77.7624,245.985,106.709
197.297,77.2844,246.247,106.235
197.239,76.9088,246.091,105.896
197.134,76.7278,246.019,105.774
197.216,76.8305,246.151,106.351
197.109,76.256,245.91,106.384
196.925,75.9714,245.716,106.467
197.014,75.4776,245.98,105.947
197.443,74.8796,246.294,105.433
197.431,75.0463,246.378,106.031
197.589,74.6682,246.397,105.542
197.834,74.2355,246.711,105.094
197.951,74.1933,246.943,105.14
198.021,74.0827,246.985,105.054
198.296,73.856,247.185,104.814
198.329,73.6545,247.218,104.698
198.393,73.797,247.287,105.285
198.43,73.7774,247.4,105.268
198.44,73.7681,247.404,105.257
198.456,73.7735,247.431,105.26
198.448,73.7428,247.405,105.229
197.933,73.4881,246.777,104.943
198.011,73.5047,246.983,104.99
198.03,73.5075,247.003,104.997
198.105,73.4681,247.006,104.927
198.191,73.4046,247.114,104.831
198.262,73.1345,247.112,104.54
197.915,72.4733,246.777,103.868
197.923,72.4437,246.883,103.91
197.75,72.2361,246.744,103.696
197.674,71.9243,246.54,103.471
197.719,71.9839,246.695,103.983
197.742,71.8343,246.726,103.863
197.817,71.692,246.832,104.178
198.166,71.2639,247.498,103.809
198.33,71.0776,247.815,104.085
198.362,71.1437,247.735,104.545
198.53,69.955,247.713,103.303
198.759,69.8379,248.217,103.277
198.874,69.6525,248.255,103.039
198.854,69.606,248.257,103.023
198.907,69.5174,248.242,103.068
199.135,69.6228,248.464,103.633
199.21,69.7407,248.667,104.247
199.122,69.5388,248.46,104.467
199.239,69.2071,248.67,103.952
199.368,69.0745,248.825,104.066
199.559,68.5595,249.003,103.478
199.771,68.2209,249.173,103.233
199.91,68.2315,249.345,103.787
199.951,68.4021,249.406,104.403
200.012,68.594,249.469,105.045
200.034,68.6157,249.506,105.101
200.081,68.336,249.509,104.71
200.047,68.1966,249.543,104.593
199.491,67.5064,249.25,103.636
199.643,67.448,249.573,103.845
199.735,67.3187,249.692,103.672
199.792,66.9654,249.803,103.521
200.05,67.163,250.517,104.148
200.062,67.1663,250.54,104.149
200.024,67.1719,250.527,104.126
200.213,67.0068,251.161,103.924
200.238,67.0484,251.213,104.032
200.253,67.0528,251.233,104.038
200.266,67.0368,251.248,104.027
200.285,67.0182,251.252,104.009
200.322,66.9804,251.283,103.986
200.341,67.2278,251.316,104.712
200.353,67.2299,251.329,104.713
200.425,67.1247,251.344,104.61
200.463,67.1321,251.438,104.616
200.475,67.1403,251.45,104.624
200.48,67.1471,251.453,104.631
200.38,66.994,251.202,104.467
200.398,66.9926,251.37,104.461
200.365,67.0021,251.338,104.488
200.173,66.9434,251.101,104.496
200.073,67.1523,251.084,105.139
200.18,67.1316,251.725,105.078
200.1,67.1625,252.147,105.115
199.85,67.254,252.459,105.156
199.978,67.3066,252.957,105.285
199.427,67.3112,252.424,105.237
198.955,67.3938,251.928,105.343
198.546,67.4223,251.591,105.408
198.668,67.4458,252.134,105.399
198.647,67.4666,252.133,105.439
198.595,67.482,252.086,105.463
198.153,67.4367,251.653,105.407
198.339,67.4458,252.404,105.363
198.296,67.4959,252.808,105.443
198.445,67.5208,253.475,105.443
198.215,67.5822,253.692,105.554
198.188,67.5888,253.647,105.578
198.053,67.6337,253.498,105.609
197.976,67.6589,253.467,105.668
197.543,67.866,252.973,106.459
197.336,68.0729,252.825,107.057
197.021,68.105,252.576,107.02
197.077,68.1607,253.047,107.127
196.879,68.2556,252.835,107.229
196.558,68.3534,252.53,107.255
196.298,68.4751,252.25,107.377
196.318,68.5241,252.29,107.507
196.176,68.5773,252.182,107.444
196.394,68.7144,252.866,107.606
196.371,68.8065,252.865,107.701
196.304,68.8443,252.843,107.703
196.284,68.9902,253.315,107.9
195.629,69.4649,253.245,107.918
194.895,70.0136,252.676,108.01
194.668,70.0996,252.633,108.003
194.4,70.2505,252.346,108.185
193.914,70.6072,251.896,108.5
192.831,70.9048,250.947,108.907
192.836,71.1956,251.336,109.775
192.807,71.3842,251.279,110.426
192.446,71.7886,250.986,111.254
192.657,71.8325,251.652,111.3
192.658,71.8488,251.629,111.332
192.664,71.8517,251.627,111.338
192.638,71.9091,251.637,111.373
192.583,71.9468,251.693,111.405
192.782,71.994,252.267,111.481
192.747,72.111,252.265,111.572
192.987,72.1408,252.962,111.619
192.967,72.1764,252.96,111.652
192.969,72.1888,252.94,111.672
192.976,72.1984,252.948,111.682
192.956,72.2124,252.936,111.695
192.924,72.2264,252.903,111.712
192.904,72.2495,252.892,111.723
192.696,72.3414,252.905,111.771
192.597,72.5155,253.22,111.94
192.753,72.5614,253.734,112.043
192.756,72.5736,253.729,112.055
192.746,72.6022,253.729,112.079
192.727,72.6352,253.715,112.101
192.728,72.6532,253.698,112.137
192.732,72.6624,253.704,112.147
192.73,72.671,253.702,112.151
192.665,72.6784,253.749,112.135
192.703,72.7289,254.23,112.147
192.739,72.7516,254.693,112.246
192.514,72.7382,254.532,112.217
192.577,72.7348,255.106,112.26
192.764,72.9762,255.75,112.956
192.688,73.0169,255.689,113.002
192.909,73.0442,256.393,113.021
192.882,73.0683,256.365,113.046
192.598,73.2038,256.216,113.14
192.708,73.2696,256.715,113.256
192.814,73.407,257.426,113.293
192.913,73.5248,257.9,113.472
192.841,73.6003,257.831,113.557
192.692,73.6869,257.649,113.643
192.686,73.722,257.65,113.695
192.346,74.0271,257.296,113.894
192.196,74.2163,257.231,114.107
192.174,74.3552,257.703,114.3
192.085,74.5448,258.066,114.447
191.459,74.9149,257.412,114.793
190.524,75.3092,256.498,115.084
190.084,75.4774,255.982,115.397
188.897,75.5811,254.967,115.402
188.611,75.678,255.003,115.665
187.095,75.7094,253.49,115.67
185.335,75.7253,251.898,115.63
185.366,75.7654,252.354,115.74
184.553,75.8666,251.739,115.827
184.632,75.898,252.121,115.877
184.636,75.9086,252.103,115.891
184.644,75.9174,252.113,115.901
184.659,75.9258,252.125,115.909
184.65,75.941,252.127,115.92
184.578,76.0107,252.083,115.968
184.817,76.0448,252.783,116.024
184.838,76.0895,252.799,116.046
184.859,76.1131,252.821,116.097
184.881,76.1234,252.842,116.108
184.902,76.1336,252.865,116.117
184.918,76.146,252.887,116.12
184.936,76.1581,252.895,116.134
184.955,76.1705,252.921,116.153
184.97,76.1793,252.936,116.162
184.985,76.188,252.951,116.171
185,76.1967,252.967,116.179
184.978,76.1783,252.858,116.177
184.978,76.1732,252.911,116.163
184.988,76.1785,252.954,116.16
185.003,76.1875,252.96,116.169
185.024,76.1964,252.989,116.179
185.025,76.1608,252.965,116.161
185.039,76.1364,252.998,116.134
185.029,76.0903,252.976,116.087
184.948,75.9014,252.83,115.99
184.997,76.1072,252.958,116.589
184.929,76.0894,252.863,116.569
184.96,76.0999,252.927,116.582
184.909,76.0735,252.794,116.562
184.641,76.0798,252.651,116.522
184.539,76.1118,253.103,116.401
184.473,76.1237,253.479,116.409
184.358,76.1935,253.858,116.477
182.263,76.1109,251.951,116.236
181.531,76.2672,251.493,116.499
180.74,76.2081,250.67,116.565
180.388,76.2359,250.367,116.642
179.916,76.2235,249.846,116.633
178.814,76.1813,248.578,116.482
178.402,76.2155,248.135,116.563
178.344,76.2029,248.278,116.602
177.882,76.152,247.829,116.229
177.632,76.311,247.692,116.637
177.692,76.3634,248.258,116.751
177.452,76.3787,248.841,116.583
177.471,76.499,248.974,116.939
177.7,76.5222,249.685,117.002
177.578,76.5108,249.622,116.908
177.69,76.3927,250.251,116.644
177.605,76.3119,250.548,116.43
177.531,76.3865,250.487,116.669
177.269,76.3525,249.986,115.796
177.185,76.1736,250.087,115.356
177.053,76.0261,249.822,115.253
176.661,75.8392,249.524,114.86
176.677,76.0324,249.589,115.487
176.687,76.0429,249.575,115.489
176.167,75.9314,249.017,115.117
175.168,75.9483,248.308,115.127
173.859,75.4105,246.992,114.241
173.927,75.4706,247.34,114.418
173.594,75.3538,246.794,114.19
173.193,75.2751,246.753,113.963
173.019,75.1787,247.017,114.078
172.135,75.1252,245.919,114.051
171.611,75.1017,245.316,113.99
171.756,75.1575,245.72,114.141
171.724,75.1675,245.695,114.119
171.736,75.192,245.699,114.175
171.752,75.2004,245.715,114.183
171.769,75.2094,245.732,114.193
171.778,75.2169,245.744,114.199
171.76,75.2163,245.73,114.189
171.773,75.2301,245.736,114.213
171.784,75.2289,245.735,114.211
171.681,75.1392,245.621,114.069
171.564,74.8569,245.497,113.611
171.609,74.32,245.052,112.271
171.84,73.3953,245.106,111.055
171.904,73.2425,245.233,111.037
172.016,72.9179,245.376,110.696
172.014,72.7077,245.461,110.581
171.648,72.5766,245.03,110.463
171.821,71.8869,244.985,109.745
171.581,71.3107,244.865,109.097
171.602,70.9963,244.952,108.82
171.804,70.6441,245.09,108.437
171.803,70.556,245.17,108.508
171.818,70.1773,245.121,107.968
171.841,70.0999,245.328,108.025
171.916,69.9902,245.288,107.947
172.015,69.14,244.931,106.546
172.074,68.9921,245.022,106.284
172.055,68.646,244.873,105.779
171.965,68.0722,244.599,104.798
172.293,67.5619,244.864,104.057
172.515,67.5233,245.393,103.927
172.626,67.5425,245.514,103.99
172.529,67.3082,245.503,103.549
172.754,66.9196,245.518,103.522
172.875,66.9334,245.796,103.929
172.901,66.8624,245.853,103.83
172.937,66.8693,245.902,103.843
172.975,66.8728,245.931,103.843
173.008,66.8775,245.989,103.858
172.979,66.789,246.015,103.749
173.266,66.7529,246.715,103.737
173.319,66.746,246.77,103.737
173.801,66.7081,247.244,103.682
173.861,66.713,247.311,103.705
174.035,66.7003,247.424,103.697
174.1,66.6947,247.558,103.684
174.215,66.7093,247.654,103.702
174.455,66.7327,247.859,103.745
174.524,66.9726,247.97,104.465
174.558,66.9703,248.017,104.458
174.601,66.9701,248.044,104.463
174.623,66.9446,248.071,104.463
174.647,67.1854,248.111,105.169
174.566,67.193,248.043,105.187
174.583,67.1768,248.031,105.178
174.619,67.408,248.074,105.891
174.644,67.4075,248.103,105.893
174.674,67.4048,248.13,105.893
174.702,67.4049,248.161,105.892
174.73,67.4057,248.189,105.893
174.91,67.3831,248.275,105.93
174.989,67.6119,248.44,106.6
175.017,67.6183,248.478,106.602
175.084,67.6138,248.512,106.608
175.12,67.6143,248.582,106.599
175.15,67.5975,248.563,106.593
175.198,67.5697,248.637,106.565
175.252,67.5338,248.659,106.537
175.305,67.7754,248.763,107.263
175.301,67.7204,248.665,107.211
175.374,67.7102,248.808,107.201
175.258,67.6353,248.556,107.143
174.533,67.7015,247.297,107.62
174.07,67.4791,246.632,107.309
174.285,67.5585,247.229,107.54
174.192,67.4389,246.883,107.42
174.365,67.3068,246.932,107.308
174.624,67.4901,247.319,107.978
174.771,67.4542,247.617,107.947
174.825,67.4467,247.76,107.93
174.774,67.3841,247.598,107.796
174.643,67.3341,247.443,107.688
174.269,67.3129,247.011,107.707
174.204,67.2913,247.019,107.701
174.138,67.1454,246.511,107.556
174.033,67.0208,246.125,107.495
173.993,66.8593,246.161,107.35
174.093,66.758,246.36,107.248
174.091,66.6419,246.241,107.106
174.061,66.4033,245.896,106.923
174.126,66.5751,246.044,107.578
174.161,66.8142,246.13,108.295
174.157,66.7876,246.091,108.279
174.212,66.7625,246.143,108.259
174.27,66.6096,246.009,108.053
174.383,66.6113,246.309,108.099
173.351,66.3672,245.02,107.859
173.128,66.2326,244.94,107.738
173.14,66.3248,244.95,108.347
172.815,66.1324,244.496,108.62
172.761,66.1096,244.536,108.561
172.871,66.1299,244.827,108.614
172.856,66.1364,244.802,108.617
172.889,66.1432,244.842,108.613
172.901,66.155,244.848,108.638
172.807,66.1449,244.69,108.616
172.746,66.1258,244.626,108.629
172.698,66.3601,244.624,109.351
172.726,66.365,244.686,109.346
172.741,66.3743,244.702,109.356
172.746,66.3911,244.728,109.356
172.741,66.4123,244.719,109.384
172.715,66.4283,244.682,109.403
172.548,66.4519,244.544,109.439
172.387,66.4906,244.366,109.448
172.227,66.4862,244.219,109.433
172.183,66.5251,244.189,109.496
171.671,66.654,244.192,109.476
171.321,66.801,244.432,109.71
171.123,67.02,244.425,109.939
170.921,67.4182,244.389,110.114
170.832,67.5534,244.205,110.461
170.494,67.6895,243.873,110.519
170.153,68.0163,243.468,110.882
169.9,68.2315,243.427,111.117
168.745,68.6459,242.794,111.371
167.772,69.1657,242.009,112.097
167.307,69.3057,241.651,112.237
166.621,69.3935,240.958,112.331
166.138,69.7174,240.43,112.659
165.621,71.2495,239.408,113.737
165.462,71.6633,239.223,114.016
164.861,73.2727,238.671,114.935
163.783,74.7882,237.307,116.054
162.329,76.635,236.233,117.367
159.867,79.1481,233.183,119.006
159.05,80.2471,232.483,119.546
159.016,80.4252,232.498,119.858
158.173,81.0095,231.189,120.068
157.363,82.8704,229.891,121.72
157.519,83.5844,230.226,122.262
157.979,83.9739,230.603,122.743
158.286,84.4922,230.226,123.116
156.977,85.7631,228.24,124.122
157.212,86.2521,228.248,124.607
157.444,86.9112,228.609,125.122
157.679,87.4614,228.972,125.722
157.944,88.6631,228.867,126.688
157.83,89.8374,228.451,127.74
157.467,90.8552,228.501,128.251
157.671,90.9376,229.113,128.406
157.694,90.9535,229.158,128.436
157.467,91.7323,228.667,128.762
156.963,92.2979,228.548,129.408
156.475,93.7411,228.368,130.506
156.368,94.6309,228.508,131.233
155.589,96.1709,227.775,132.324
155.11,96.669,227.788,132.841
154.495,97.8311,227.432,133.776
153.778,98.9563,226.192,134.319
153.622,99.8485,224.893,134.84
153.698,100.747,224.444,135.219
153.249,101.212,223.681,135.407
152.407,102.02,222.519,136.225
152.521,102.281,222.763,136.74
152.348,102.302,222.628,136.744
151.983,102.374,222.118,136.765
152.144,102.499,222.46,136.975
152.104,102.735,222.372,137.159
151.725,102.955,222.032,137.33
151.557,103.079,221.675,137.485
151.194,103.122,221.421,137.387
150.755,103.95,220.367,137.919
150.384,104.887,219.806,138.532
150.629,105.738,219.857,139.384
150.823,106.557,219.924,140.148
150.625,108.299,219.542,141.562
150.433,109.128,219.234,142.269
151.008,109.809,219.362,143.208
151.211,109.86,219.494,143.327
151.488,110.005,219.674,143.477
152.129,110.266,220.171,143.668
153.088,110.571,220.894,143.867
153.445,110.764,221.094,144.144
153.587,110.887,221.431,144.356
153.755,110.896,221.634,144.334
153.803,111.065,221.697,144.48
154.279,111.869,222.139,144.964
154.597,112.359,222.343,145.538
154.417,113.066,222.188,146.227
154.083,113.318,221.769,146.757
153.801,113.782,220.748,146.933
153.862,115.155,220.157,147.891
154.023,115.766,220.415,148.308
153.666,116.606,219.7,149.334
153.791,116.893,220.165,149.831
153.316,117.37,219.004,150.161
153.453,117.672,219.235,150.565
153.556,117.775,219.381,150.721
153.592,117.974,219.444,150.906
152.675,118.06,218.311,151.007
152.764,118.192,218.699,151.142
152.671,118.245,218.542,151.226
152.435,118.221,218.165,151.271
152.078,118.528,217.781,151.939
152.192,118.595,218.116,152.057
152.069,118.627,217.926,152.112
152.114,118.56,217.8,152.028
152.029,118.627,218.028,152.038
151.029,118.818,216.881,152.093
151.069,119.108,217.032,152.483
151.097,119.175,217.057,152.658
151.112,119.186,217.072,152.672
151.194,119.257,217.159,152.749
151.4,119.337,217.296,152.804
152.152,119.47,217.616,152.949
152.317,119.481,217.466,152.979
152.666,119.369,218.056,152.86
152.869,119.293,217.816,152.816
153.052,119.534,217.755,153.596
153.34,119.727,218.236,154.214
153.704,119.646,218.484,154.141
153.986,119.822,218.716,154.242
155.456,120.257,219.528,154.675
156.934,120.636,220.537,154.886
157.552,120.834,221.253,155.255
159.568,120.931,222.72,155.226
160.819,120.88,223.797,155.353
161.443,120.797,224.02,155.383
162.412,120.915,225.206,155.883
162.92,120.814,225.711,155.794
163.788,120.85,226.312,155.586
165.019,121.138,227.745,155.908
165.958,121.248,228.322,156.251
166.777,121.428,228.637,156.946
167.805,121.613,228.753,157.647
168.286,121.779,228.844,158.297
168.879,121.995,229.571,158.981
169.317,122.023,230.092,158.983
169.526,122.067,230.379,158.998
169.641,122.114,230.543,159.073
169.764,122.123,230.613,159.078
169.968,122.132,230.761,159.021
170.315,122.199,231.059,159.07
170.528,122.266,231.375,159.186
171.025,122.243,231.414,159.05
171.339,121.982,231.437,158.824
171.752,121.972,231.937,158.93
172.174,121.932,232.347,158.816
172.616,121.632,232.77,158.622
173.325,121.328,233.035,158.329
173.729,121.381,233.51,158.789
174.005,121.358,233.838,158.812
174.296,121.206,234.083,158.646
174.729,120.853,234.447,158.32
175.981,120.744,235.187,158.113
176.606,120.413,235.727,157.851
177.058,120.268,236.362,157.737
177.763,119.947,236.664,157.49
178.27,119.964,236.884,157.985
178.738,119.965,237.461,158.502
179.107,119.993,237.927,158.998
179.885,119.801,238.238,159.282
180.117,119.685,238.458,159.135
180.44,119.426,238.646,158.838
182.212,118.561,239.632,157.949
183.262,118.269,240.363,157.665
184.84,118.497,241.64,157.669
186.336,119.103,242.856,157.957
188.02,119.247,244.519,157.777
188.535,119.573,244.869,158.323
189.364,119.948,245.4,158.647
190.188,120.217,246.339,159.043
191.083,120.601,247.06,159.189
191.33,121.133,247.016,159.804
192.036,121.818,247.681,160.623
192.956,122.4,248.312,161.185
193.311,122.657,248.275,161.532
193.768,122.74,248.491,161.485
193.992,122.907,248.896,161.868
194.08,122.997,249.002,161.955
194.399,123.195,249.128,162.12
195.109,123.458,249.604,162.409
196.187,124.053,250.199,162.765
196.807,124.263,251.03,163.201
197.484,124.46,251.624,163.408
198.052,124.398,252.152,163.334
199.016,124.157,252.204,163.085
199.65,124.51,253.05,163.213
200.48,125.35,253.467,163.968
201.076,125.608,253.815,164.505
201.794,125.577,254.521,164.516
203.28,125.343,255.164,164.607
203.743,125.474,255.487,164.902
204.924,126.085,255.63,165.542
206.355,126.738,256.075,166.239
207.109,127.583,256.615,167.485
207.625,128.101,257.289,168.003
208.512,128.679,258.113,168.373
209.066,129.187,258.787,168.986
209.31,129.227,259.208,169.188
209.558,129.124,259.397,169.099
209.813,129.07,259.688,168.968
210.041,129.043,259.962,168.909
210.11,128.967,260.048,168.748
210.132,129.012,260.096,168.943
210.206,128.945,260.117,168.791
210.478,129.013,260.354,168.987
210.615,129.044,260.549,168.916
210.786,129.041,260.704,168.96
210.869,129.06,260.82,169.034
210.915,129.056,260.882,169.026
211.08,128.974,260.973,168.972
211.191,128.919,261.156,168.874
211.221,128.908,261.191,168.864
211.344,128.862,261.247,168.818
211.393,128.882,261.364,168.859
211.406,128.891,261.377,168.867
211.543,128.878,261.465,168.856
211.648,128.863,261.596,168.857
212.144,128.592,262.009,168.525
212.365,128.383,262.173,168.433
212.86,128.409,262.864,168.868
213.704,128.174,264.129,168.478
214.219,128.14,264.676,168.482
214.915,128.166,265.339,168.559
215.291,127.881,265.617,168.135
215.801,127.748,266.118,168.179
216.515,127.157,266.802,167.545
217.67,127.041,267.978,167.198
218.514,127.184,269.009,167.405
219.212,127.093,269.655,167.351
219.625,126.849,270.013,167.053
219.906,126.906,270.34,167.323
220.106,126.728,270.522,167.106
220.548,125.962,270.994,166.071
220.763,125.917,271.203,166.256
220.897,125.601,271.309,165.981
220.938,124.68,271.224,164.412
221.1,124.601,271.533,164.569
221.573,124.216,271.857,164.099
222.231,123.78,272.588,163.722
223.255,123.128,273.58,162.91
224.19,122.901,274.669,162.615
227.085,122.357,277.301,161.904
228.598,122.403,278.857,162.04
229.333,122.343,279.574,162.173
229.53,122.16,279.935,162.04
230.083,122.025,280.293,161.851
230.501,121.778,280.793,161.491
231.052,121.75,281.262,161.646
232.082,121.465,282.007,161.241
232.603,121.145,282.254,160.988
233.464,120.901,283.195,160.688
233.687,120.885,283.642,160.734
234.058,120.973,283.899,160.845
234.433,120.846,284.264,160.698
236.022,120.457,285.41,160.28
237.805,120.129,286.307,159.282
239.998,120.444,288.431,159.293
240.555,120.433,288.806,159.406
241.151,120.365,289.237,159.288
241.6,120.374,289.871,159.285
241.732,120.419,290.195,159.385
241.778,120.445,290.243,159.399
241.797,120.472,290.274,159.452
241.82,120.48,290.293,159.46
241.852,120.471,290.332,159.443
241.876,120.465,290.351,159.44
241.89,120.459,290.388,159.394
241.916,120.498,290.443,159.421
242.313,120.201,291.341,158.789
242.608,120.156,292.011,159.041
242.709,120.16,292.157,159.089
242.84,119.694,292.249,158.403
242.884,119.753,292.357,158.677
242.951,119.323,292.441,158.167
242.982,119.38,292.446,158.345
242.997,119.393,292.473,158.373
243.021,119.389,292.484,158.35
243.058,119.361,292.495,158.267
243.09,119.401,292.557,158.368
243.106,119.398,292.582,158.367
243.118,119.402,292.588,158.375
243.084,119.386,292.481,158.314
242.893,119.323,292.172,158.042
242.746,119.264,292.071,158.173
242.403,119.006,291.678,157.726
242.381,118.775,291.803,157.513
242.344,118.827,291.73,157.726
242.276,118.922,291.668,157.77
241.805,118.883,290.879,157.769
241.513,118.901,290.751,157.743
241.166,118.392,290.208,157.04
240.914,118.339,290.314,156.785
240.695,118.298,290.046,156.5
239.646,118.335,289.041,155.847
238.976,118.064,288.405,155.558
238.614,117.952,287.956,154.898
237.661,117.646,286.916,154.322
237.34,117.487,286.526,154.241
237.487,117.536,286.89,154.476
237.569,117.116,286.737,153.955
237.732,116.939,286.979,153.804
237.841,116.624,287.093,153.645
237.844,116.602,287.206,154.076
237.914,116.597,287.387,154.076
237.941,116.503,287.37,153.971
237.977,116.507,287.446,153.99
237.995,116.526,287.442,153.971
237.575,116.561,286.848,153.982
237.228,116.58,286.434,153.866
237.038,116.567,285.474,153.692
237.045,116.694,285.418,154.059
236.788,116.634,284.23,153.984
236.017,117.186,283.225,154.053
235.678,117.507,282.943,154.09
235.429,117.92,282.591,154.297
235.676,117.883,283.059,154.286
235.818,117.338,283.082,153.899
235.645,117.432,283.053,154.222
235.42,117.489,282.897,154.177
235.36,117.561,282.804,154.453
235.337,117.505,282.808,154.383
235.327,117.213,282.821,154.206
235.38,117.029,282.808,154.048
235.238,116.975,282.652,154.433
234.425,116.18,281.611,153.934
233.927,115.634,280.865,153.804
233.072,115.453,279.792,153.727
232.716,115.411,279.385,153.62
231.843,115.316,278.471,153.442
230.743,115.445,277.743,153.479
229.815,115.659,277.262,153.932
229.811,115.772,277.3,154.226
229.667,115.757,277.148,154.169
229.662,115.792,277.149,154.253
229.667,115.812,277.144,154.295
229.643,115.813,277.154,154.242
229.613,115.967,277.665,154.233
229.79,116.062,278.288,154.485
229.637,116.055,278.115,154.328
229.036,116.4,277.618,154.092
228.993,116.208,277.963,153.63
228.823,115.723,277.674,152.878
228.841,115.542,277.862,152.712
229.085,115.634,278.509,152.848
229.022,115.621,278.543,152.896
229.241,115.723,279.221,153.176
229.233,115.73,279.213,153.187
229.21,115.73,279.192,153.178
229.177,115.721,279.164,153.159
228.045,115.793,277.626,153.194
228.036,115.873,278.086,153.212
228.097,116.002,278.573,153.396
228.097,116.05,278.575,153.528
227.725,116.496,278.158,153.735
227.756,116.692,278.226,154.115
227.592,116.846,278.034,154.13
227.582,116.979,278.039,154.439
227.572,117.214,278.03,154.498
227.404,117.725,277.763,154.713
227.461,117.74,277.943,154.698
227.35,117.851,277.848,154.763
227.318,117.979,277.716,154.873
227.094,118.419,277.615,155.047
227.234,118.552,278.188,155.502
227.086,118.527,278.306,154.993
227.062,118.769,278.608,154.995
227.146,119.137,279.168,155.446
227.366,119.386,279.826,155.763
226.851,120.974,278.912,156.357
226.997,121.217,279.46,156.56
227.157,121.861,279.544,156.888
226.988,122.25,279.556,157.549
227.048,122.429,280.135,157.79
227.126,122.659,280.767,157.861
227.466,123.036,281.39,158.403
227.474,123.195,281.427,158.628
227.681,123.852,281.544,158.975
227.743,124.141,281.749,159.492
227.821,124.58,282.226,159.946
227.683,124.913,282.141,160.207
227.55,125.32,281.932,160.694
227.614,125.365,282.114,160.805
227.618,125.387,282.122,160.783
227.579,125.793,282.584,160.969
227.816,126.198,283.261,161.104
227.585,126.37,282.73,160.893
227.672,126.856,283.092,161.469
227.677,127.176,283.14,162.027
227.698,127.319,283.135,162.249
227.726,127.363,283.196,162.324
227.73,127.442,283.187,162.406
227.738,127.489,283.227,162.439
227.692,127.471,283.197,162.386
227.655,127.434,283.693,162.374
227.975,127.493,284.3,162.501
228.104,127.743,284.564,163.226
228.262,127.446,284.664,163.085
228.405,127.446,284.871,163.502
228.452,127.479,284.904,164.007
228.411,126.61,284.697,163.895
228.647,126.63,285.021,164.064
229.221,126.204,284.883,163.614
229.823,125.847,285.61,163.091
230.563,125.827,286.17,163.19
230.859,125.809,286.775,163.248
230.907,125.853,286.852,163.298
230.967,125.846,286.854,163.334
230.614,125.899,286.35,163.237
230.628,125.697,286.571,163.256
230.763,125.145,286.636,163.655
230.888,125.153,286.897,164.169
231.137,125.382,287.608,164.868
231.121,125.296,287.626,164.757
231.339,124.866,288.271,164.285
230.723,124.145,287.577,163.407
230.889,123.719,287.836,163.176
230.875,123.212,287.662,162.83
230.903,123.398,287.713,163.346
231.052,123.311,287.812,163.231
231.086,123.428,288.039,163.323
231.094,123.487,288.056,163.47
231.127,123.477,288.058,163.457
231.263,123.508,288.142,163.474
231.341,123.496,287.799,163.447
231.273,123.593,287.774,163.387
231.438,123.942,288.144,163.765
231.584,124.354,288.441,163.909
231.742,124.851,288.709,164.357
231.643,125.427,288.312,164.944
231.561,125.878,288.597,165.442
231.881,126.194,289.301,166.06
231.963,126.557,289.443,166.265
231.915,127.02,289.174,166.375
232.195,127.345,289.6,166.435
232.396,127.75,289.777,166.96
232.414,128.063,289.891,167.276
232.427,128.219,289.895,167.694
232.509,128.365,289.971,167.739
232.706,128.703,290.064,167.853
232.926,129.388,290.297,168.093
233.085,129.805,290.397,168.447
233.093,130.058,290.486,168.868
233.257,130.241,290.579,169.035
233.309,130.386,290.742,169.314
233.433,130.529,290.522,169.238
233.649,130.668,291.111,169.654
233.692,130.658,291.142,169.648
233.727,130.65,291.188,169.631
233.743,130.66,291.214,169.643
233.746,130.668,291.215,169.65
233.773,130.67,291.231,169.652
233.795,130.671,291.257,169.648
233.815,130.705,291.289,169.652
233.809,130.789,291.277,169.732
233.824,130.817,291.296,169.799
233.846,130.825,291.312,169.808
233.864,130.835,291.334,169.818
233.931,130.894,291.362,169.841
234.29,131.177,291.58,169.903
234.616,131.22,291.822,170.272
234.819,131.417,292.262,170.911
234.876,131.451,292.316,170.938
234.896,131.457,292.363,170.937
234.912,131.466,292.382,170.947
235.082,131.456,292.281,170.943
236.345,131.604,292.825,170.893
236.462,131.829,292.785,171.157
237.263,132.345,292.746,171.518
237.633,132.556,292.958,171.912
238.41,132.615,293.908,171.977
238.695,132.731,294.037,172.155
238.758,132.798,294.251,172.209
238.838,133.271,294.233,172.241
238.997,133.554,294.404,172.395
238.738,133.92,294.168,172.545
238.45,134.533,293.715,173.032
238.553,134.797,293.845,172.997
238.629,134.975,294.072,173.439
238.708,135.058,294.119,173.486
238.755,135.112,294.218,173.583
239.328,135.518,294.546,173.666
239.835,135.791,294.943,174.331
240.108,136.023,295.506,175.015
240.165,136.042,295.633,175.014
240.345,136.247,295.773,175.123
240.608,136.372,296.001,175.299
240.682,136.414,296.127,175.395
240.697,136.466,296.19,175.389
241.067,136.533,296.498,175.453
241.132,136.566,296.589,175.546
241.357,136.626,296.698,175.598
241.447,136.704,296.912,175.638
241.674,137.306,297.221,175.822
241.978,137.591,297.95,176.542
242.152,137.681,298.13,176.662
242.249,137.842,298.217,176.694
242.248,137.986,298.191,176.927
242.325,138.021,298.279,177.004
242.377,138.09,298.311,177.057
242.394,138.208,298.365,177.145
242.985,138.576,298.452,177.628
243.149,138.909,298.554,178.395
243.771,139.571,298.766,179.1
243.828,139.85,298.772,179.818
243.878,139.895,298.841,179.867
243.889,139.915,298.858,179.896
243.923,139.92,298.897,179.887
243.988,139.948,298.944,179.934
244.072,140.041,299.01,179.999
244.474,140.108,299.236,180.113
244.767,140.403,299.646,180.884
244.992,140.627,299.955,180.987
245.02,140.694,299.989,181.176
245.205,140.755,300.134,181.214
245.318,140.822,300.252,181.29
245.93,140.974,300.55,181.616
246.495,141.414,301.417,182.306
247.295,141.932,302.025,182.829
248.257,142.069,302.97,182.992
249.586,142.947,304.627,183.493
250.304,143.295,305.639,184.157
250.726,143.372,306.08,184.348
251.032,143.494,306.572,184.405
252.299,143.667,308.139,184.587
253.155,143.846,309.085,184.746
253.797,143.996,309.755,184.87
254.403,144.143,310.355,185.103
255.064,144.229,310.906,185.188
255.847,144.182,311.821,185.055
256.999,144.329,312.929,185.057
257.501,144.756,313.456,185.55
258.259,144.933,314.749,185.607
258.378,144.924,314.906,185.735
258.988,144.828,315.735,185.722
259.534,144.94,316.623,185.802
259.995,145.093,317.484,185.903
260.644,145.278,317.955,186.147
260.931,145.388,318.369,186.311
261.094,145.459,318.529,186.411
261.417,145.612,318.815,186.55
261.7,145.655,319.1,186.644
261.82,145.671,319.271,186.647
261.918,145.691,319.388,186.65
262.027,145.646,319.49,186.622
262.12,145.67,319.942,186.434
262.295,145.792,320.279,186.738
262.317,145.831,320.28,186.807
262.11,145.909,320.258,186.788
262.45,145.917,320.942,186.912
262.59,145.898,321.03,186.883
262.758,145.776,321.218,186.708
263.234,145.731,321.566,186.638
263.76,146.081,322.126,186.862
264.919,146.374,323.196,187.258
266.305,146.812,324.567,187.555
267.767,146.924,326.039,187.784
268.898,146.669,327.292,187.531
269.888,146.214,328.07,187.284
270.552,146.004,328.994,187.588
271.536,145.829,329.5,187.835
271.879,145.811,329.79,188.282
272.749,145.123,330.347,187.615
273.444,145.064,331.313,187.463
274.67,145.096,332.268,187.604
276.535,144.906,333.974,188.11
277.447,144.379,334.829,188.113
278.678,143.721,335.925,187.934
279.064,143.927,336.629,188.347
280.092,143.824,337.96,188.17
280.93,143.788,338.796,188.171
282.163,143.525,340.051,187.808
282.577,143.76,340.605,188.025
283.778,143.557,342.281,187.834
283.966,143.903,343.031,188.17
284.131,144.181,343.629,188.555
284.237,144.389,343.675,188.822
284.929,144.785,344.482,189.015
285.339,145.592,345.291,189.574
285.489,145.487,345.37,189.554
285.558,145.714,345.523,190.188
285.832,145.724,345.636,190.38
286.079,145.877,345.981,190.859
286.278,145.73,346.14,190.767
286.375,145.933,346.318,191.42
286.402,145.591,346.248,191.026
286.561,145.57,346.49,191.053
286.6,145.6,346.561,191.025
286.604,145.504,346.566,190.853
286.64,145.39,346.588,190.854
286.762,145.17,346.607,190.639
286.877,144.977,346.821,190.263
286.803,145.069,346.889,190.187
286.879,144.543,347.448,189.697
287.235,144.383,347.94,189.688
287.394,144.185,348.303,189.451
287.441,144.118,348.34,189.467
287.347,144.003,348.368,189.173
287.439,144.254,348.933,189.248
287.355,143.954,348.713,188.711
287.406,143.699,348.714,188.328
287.14,144.07,348.631,188.463
287.194,144.03,348.315,187.785
287.272,143.61,348.425,186.919
287.294,143.131,348.535,186.052
287.456,142.792,348.61,185.443
287.443,142.213,348.712,184.645
287.282,142.032,348.779,183.73
287.352,142.138,348.51,183.421
287.124,142.233,348.139,182.936
287.335,142.195,348.299,182.4
287.102,142.135,347.773,181.508
286.833,142.3,347.697,181.237
286.829,142.345,347.559,181.02
287.205,142.053,347.571,180.399
287.171,142.273,347.365,180.244
287.134,142.508,347.331,179.794
287.182,142.762,347.486,179.359
287.276,143.056,347.644,179.84
287.142,143.294,347.505,179.763
287.206,143.312,347.667,179.781
287.181,143.363,347.669,179.797
287.106,143.561,347.572,179.762
287.109,143.736,347.571,180.162
286.978,143.914,347.358,180.146
286.301,144.325,346.68,180.191
285.685,143.756,345.886,179.585
284.996,143.743,345.562,179.079
284.134,144.138,344.238,179.159
282.459,144.573,342.643,179.279
281.435,144.498,341.794,178.828
280.126,144.66,340.623,178.336
279.059,145.347,339.796,178.723
278.788,145.765,339.989,179.019
278.011,145.608,339.585,178.876
277.029,145.497,338.791,178.353
275.686,144.664,338.053,177.122
275.192,145.09,337.78,176.816
274.703,145.028,337.759,176.578
273.549,145.24,337.662,176.995
272.841,145.466,337.53,177.487
270.02,145.183,335.186,177.587
268.931,145.431,334.781,178.035
268.044,145.371,334.441,178.214
266.26,144.905,333.987,178.297
265.476,146.365,333.439,180.472
262.443,146.048,330.905,181.173
261.355,145.814,329.71,181.517
257.96,142.166,327.381,178.498
255.209,141.106,326.158,177.415
255.082,141.377,326.223,177.918
256.263,141.81,327.634,178.456
252.704,138.805,326.944,175.656
250.262,137.199,325.586,174.243
247.22,136.154,323.184,172.969
246.878,136.392,322.956,172.611
245.625,136.386,320.499,172.732
244.13,136.589,318.32,172.229
239.66,136.646,314.961,171.584
238.24,136.866,313.627,171.266
236.605,136.684,311.531,170.656
232.975,135.985,307.296,169.279
231.7,135.387,304.853,168.15
230.877,135.283,303.078,167.792
229.826,134.722,301.331,167.283
229.125,134.445,300.23,166.887
229.401,134.324,299.975,166.048
229.708,134.606,300.653,165.421
228.873,134.989,299.355,165.061
227.738,136.005,298.056,165.65
226.973,136.395,297.318,165.921
226.408,136.996,296.99,166.479
225.593,137.886,296.463,166.897
225.941,138.373,296.805,167.634
226.003,138.524,296.98,167.837
225.707,138.679,296.451,167.992
224.646,138.814,294.928,168.058
224.48,139.119,295.183,168.401
224.669,139.458,295.877,168.572
224.475,139.83,295.961,168.972
222.161,139.727,293.427,168.708
220.976,139.781,292.12,168.369
221.178,139.853,291.977,168.472
219.219,139.733,289.796,168.478
217.477,139.402,287.481,168.196
215.512,138.515,284.877,167.197
212.914,137.855,281.47,166.626
211.05,137.787,279.908,166.187
210.109,138.005,278.824,165.873
210.82,137.841,278.592,165.097
211.36,137.841,279.006,164.498
210.334,137.808,278.331,163.92
209.063,137.661,275.605,163.649
209.616,137.253,276.412,162.425
207.065,135.61,272.726,160.293
206.073,135.02,271.544,159.175
206.97,134.73,271.544,158.663
208.221,134.723,272.956,158.033
206.586,134.099,271.167,157.184
205.454,133.31,270.174,156.333
205.682,133.35,270.35,156.194
206.181,133.402,271.536,155.747
203.33,133.069,268.893,154.863
202.744,133.006,268.164,154.354
199.389,132.796,264.649,153.629
195.778,131.926,260.724,152.398
191.198,131.569,255.209,151.652
187.657,131.16,251.333,151.463
183.614,130.63,246.757,151.09
180.572,130.344,243.67,150.844
179.294,130.375,242.329,151.397
177.434,130.301,240.209,151.84
177.699,130.268,239.605,152.32
177.699,130.158,239.118,152.709
177.174,129.908,238.361,152.843
176.722,129.426,237.665,152.397
174.533,128.805,234.359,151.751
174.868,128.476,234.181,151.687
174.343,128.386,233.511,151.991
174.826,128.198,233.726,152.288
175.557,127.677,233.702,152.185
176.248,127.611,234.123,152.597
176.799,127.171,233.986,152.223
176.984,127.19,234.11,152.716
177.283,127.125,234.475,153.109
177.677,126.918,234.77,152.985
178.044,127.013,235.283,153.538
178.474,126.984,235.527,153.965
178.95,126.816,236.118,153.761
179.099,126.773,236.464,153.731
179.402,126.58,236.578,153.519
179.806,126.475,237.109,153.438
179.991,126.445,237.433,153.393
180.119,126.327,237.377,153.297
180.121,126.116,237.377,153.062
180.316,126.056,237.588,153.035
180.428,125.988,237.67,152.978
180.57,125.976,238.016,152.949
180.651,125.947,237.951,152.926
180.779,125.847,238.121,152.804
180.978,125.674,238.264,152.628
181.086,125.65,238.452,152.647
181.545,125.172,238.548,152.104
181.666,124.828,238.915,151.705
181.912,124.407,239.038,151.295
182.658,124.116,239.555,150.966
182.649,124.126,239.492,151.071
183.472,123.694,239.278,150.688
184.383,122.453,239.525,149.431
186.275,121.32,240.565,148.243
186.96,120.837,240.874,147.684
187.526,120.432,240.572,147.304
188.146,119.944,241.088,146.971
188.452,119.669,240.97,147.14
189.514,119.171,241.249,146.717
190.612,118.586,241.4,146.521
191.34,118.039,241.49,145.948
191.894,117.327,241.522,145.234
192.209,116.492,241.215,144.433
192.893,116.056,241.841,143.952
194.455,113.342,241.816,141.391
195.072,111.993,241.611,140.399
195.19,111.281,241.586,139.908
195.59,110.516,241.022,139.452
196.7,109.218,241.184,138.206
196.261,108.364,240.31,137.142
196.735,107.473,240.753,136.43
197.293,106.223,240.826,135.249
198.133,105.027,241.256,134.518
198.484,103.901,241.448,133.257
199.168,103.573,241.249,133.127
200.172,102.25,242.07,132.069
200.925,101.035,242.36,130.942
201.211,100.449,242.352,130.599
202.025,99.7201,242.978,130.368
202.222,99.5209,243.021,130.549
202.656,98.9411,243.254,130.554
203.421,98.1856,244.071,130.216
203.774,97.6426,244.59,130.262
204.199,97.0455,245.042,130.081
204.756,95.746,245.398,129.417
204.807,94.9352,245.464,129.015
204.472,93.5415,245.018,128.202
204.377,92.6112,245.145,127.663
205.089,90.5778,245.489,126.671
205.38,90.6119,245.783,127.047
205.564,90.2574,245.856,126.747
205.947,89.3564,246.015,125.876
205.978,88.9049,246.272,125.982
205.923,88.36,246.18,125.877
205.819,88.1668,246.171,126.202
205.929,88.2768,246.344,126.737
205.959,88.0215,246.305,126.472
206.041,88.0227,246.5,126.489
206.093,87.9861,246.534,126.457
206.193,87.8043,246.603,126.325
206.406,87.8014,246.758,126.726
206.549,87.7864,246.973,126.785
206.6,87.7298,247.065,126.708
206.711,87.6195,247.151,126.626
206.767,87.8056,247.251,127.273
206.778,87.7547,247.274,127.223
206.782,87.7319,247.266,127.214
206.838,87.6981,247.303,127.192
207.056,87.5139,247.471,127.069
207.135,87.713,247.598,127.704
207.196,87.5071,247.643,127.396
207.225,87.5597,247.703,127.544
207.376,87.3335,247.809,127.286
207.456,87.3364,247.924,127.325
207.481,87.3374,247.957,127.32
207.511,87.3776,248.007,127.342
207.537,87.3873,248.012,127.369
207.564,87.3682,248.037,127.352
207.775,87.1648,248.039,127.08
207.988,87.1152,248.352,127.062
208.068,87.072,248.526,127.024
208.087,87.0951,248.567,127.073
208.126,87.1007,248.583,127.056
208.158,87.1107,248.631,127.081
208.182,87.1613,248.648,127.101
208.994,86.6651,249.373,126.39
209.526,86.8152,249.771,126.446
210.274,86.8473,250.617,126.591
210.937,86.8566,251.277,126.615
211.154,87.1519,250.95,126.461
211.254,87.2887,251.242,126.589
211.406,87.6238,250.904,126.689
211.595,88.1977,250.994,127.264
211.098,89.1314,250.243,128.086
210.644,89.6388,249.491,128.15
210.358,89.9417,248.524,128.859
210.205,89.9181,248.527,128.857
210.183,90.0127,248.603,128.892
209.965,90.0494,248.408,128.977
209.033,90.8395,247.323,129.075
209.044,91.2738,247.177,129.483
208.983,91.5882,247.365,129.719
208.832,91.8459,247.294,130.24
208.704,91.9276,247.137,130.368
208.496,92.0528,246.914,130.355
207.361,92.121,245.643,130.307
207.309,92.2303,245.741,130.454
207.169,91.8179,245.569,130.265
206.974,91.8062,245.289,130.041
206.596,91.3331,244.571,129.777
206.417,91.1012,244.431,129.343
206.501,90.9359,244.984,129.248
206.131,90.8052,244.516,129.062
206.062,90.736,244.565,129.15
206.199,90.6535,245.166,128.983
206.112,90.5059,245.065,128.968
205.868,90.4247,244.813,128.871
205.488,89.6128,244.457,128.121
205.501,89.8559,244.483,128.837
205.537,89.7305,244.47,128.705
205.318,89.6712,244.384,128.483
205.535,89.7513,245.016,128.729
205.53,89.6637,245.009,128.616
205.427,89.5511,245.064,128.346
205.526,89.5044,245.515,128.412
204.724,89.2896,244.452,128.296
204.6,89.0802,244.196,128.597
204.123,88.5313,243.461,128.785
203.897,88.4491,243.24,128.899
203.916,88.144,243.326,128.679
203.852,88.2247,243.245,129.207
203.856,88.0978,243.29,129.119
203.916,88.2115,243.339,129.678
204.031,88.1296,243.445,129.557
204.085,87.5772,243.454,129.468
203.345,87.8089,242.833,129.468
203.251,87.9226,242.707,129.917
202.912,87.8502,242.285,129.863
202.089,88.1975,241.641,130.486
200.499,88.5871,240.518,130.948
200.723,88.6657,241.211,131.139
200.65,88.751,241.14,131.195
200.453,88.8881,240.978,131.296
199.911,89.4553,240.931,131.589
199.417,89.7895,240.794,132.162
199.438,89.8506,240.912,132.328
199.443,89.9581,240.918,132.297
199.454,90.0388,240.933,132.52
199.473,90.0766,240.929,132.514
199.5,90.1705,240.961,132.527
199.562,90.3006,241.014,132.715
199.578,90.3461,241.059,132.825
199.585,90.3544,241.065,132.835
199.594,90.3643,241.072,132.843
199.577,90.3821,241.066,132.847
199.582,90.3851,241.059,132.876
199.59,90.3959,241.075,132.879
199.587,90.4059,241.066,132.886
199.591,90.4172,241.072,132.897
199.596,90.4376,241.09,132.916
199.599,90.4091,241.079,132.894
199.652,90.352,241.132,132.847
199.659,90.3627,241.164,132.831
199.906,90.3786,241.885,132.86
199.922,90.3839,241.904,132.867
199.935,90.3907,241.915,132.873
200.245,90.335,242.196,132.673
200.294,90.4052,242.265,132.88
200.356,88.4786,241.821,130.546
200.314,88.3634,241.649,130.844
200.39,87.9886,241.767,130.298
200.451,88.0835,241.931,130.564
200.426,88.1282,241.911,130.585
200.435,88.501,242.073,130.804
200.618,88.601,242.61,131.082
200.654,88.6243,242.668,131.096
200.902,88.6252,243.387,131.11
200.914,88.6323,243.398,131.115
201.013,88.8487,243.655,131.288
201.682,89.2952,245.037,131.642
202.107,89.5145,245.893,131.913
202.54,89.5877,246.658,132.083
203.334,90.0735,248.007,132.478
204.348,90.303,249.583,132.757
205.393,90.343,250.844,132.862
205.952,90.8268,251.684,134.096
206.268,90.9113,252.269,134.438
207.676,90.2319,253.9,134.763
208.982,90.6915,255.278,135.953
209.318,90.7346,255.865,136.266
209.553,90.9514,256.529,136.941
209.584,90.9464,256.566,136.937
209.599,90.9481,256.577,136.931
209.61,90.8892,256.61,136.875
209.899,90.8546,257.415,136.884
210.284,91.1557,258.662,137.493
210.342,91.2275,258.825,137.704
210.384,91.0742,258.887,137.514
210.59,91.1431,259.655,137.609
210.772,91.1593,260.259,137.641
210.739,91.1756,260.218,137.663
210.725,91.1892,260.22,137.673
210.714,91.171,260.213,137.661
210.759,91.0978,260.285,137.632
210.998,91.3241,260.977,138.321
210.966,91.1625,260.956,138.226
210.988,91.3792,260.969,138.86
210.996,91.3885,260.971,138.868
210.999,91.371,260.998,138.9
210.984,91.62,260.97,139.593
211.015,91.4925,261.012,139.495
211.022,91.7387,260.997,140.22
210.963,91.6923,260.98,140.217
211.09,91.5283,261.741,140.494
211.191,91.1167,262.283,140.103
211.395,90.8734,263.041,140.3
211.049,90.8176,263.051,140.376
210.924,90.8462,263.486,140.796
210.601,91.1097,263.661,141.266
210.497,91.5259,264.092,141.992
210.633,91.6207,264.636,142.087
210.584,92.0073,265.275,142.436
210.494,92.5039,265.576,142.988
210.485,93.1356,266.109,143.521
210.547,93.6932,266.576,144.144
210.781,93.7233,267.25,144.201
210.631,93.7378,267.079,144.271
210.627,93.9822,267.083,144.96
210.584,94.0057,267.049,144.988
210.558,94.0776,267.04,145.03
210.52,94.0982,266.987,145.073
210.329,94.1094,266.789,145.096
210.194,93.8213,266.478,144.799
210.039,93.686,266.436,144.645
209.975,93.3182,266.224,144.46
209.964,93.3603,266.429,144.806
209.117,92.7824,265.825,144.13
209.057,92.6134,266.049,144.066
209.056,92.4456,265.986,143.99
208.902,92.7142,265.956,144.592
208.994,92.9807,266.636,144.76
209.163,93.086,267.136,145.061
209.176,93.0934,267.146,145.07
209.187,93.1087,267.153,145.084
209.201,93.1213,267.173,145.099
209.222,93.1547,267.175,145.138
209.256,93.2078,267.254,145.154
209.256,93.2347,267.227,145.212
209.272,93.247,267.242,145.224
209.298,93.4372,267.334,145.311
209.657,93.6198,268.011,145.517
209.732,93.6713,268.202,145.648
209.831,93.7625,268.29,145.689
210.035,93.8942,268.487,145.761
210.291,93.9954,268.658,145.922
210.362,94.0392,268.829,146.012
210.377,94.0531,268.849,146.031
210.406,94.0801,268.895,146.03
210.704,94.2368,269.093,145.901
210.856,94.4207,269.512,146.301
211.481,94.439,270.35,145.844
211.596,94.4394,270.601,145.881
212.205,94.3865,271.893,145.474
212.973,94.7075,273.05,145.9
214.372,94.3927,274.708,145.405
214.539,94.4777,275.034,145.888
214.975,94.1941,275.382,145.37
215.23,94.4286,276.034,145.752
216.275,93.2177,277.06,144.862
216.987,92.8977,277.943,144.768
217.238,92.569,278.166,144.404
217.589,92.3552,278.524,144.226
218.209,91.9382,279.201,143.614
218.32,91.9895,279.269,143.927
218.431,91.8673,279.38,143.732
218.774,91.7658,279.722,143.696
219.267,91.6341,280.25,143.596
219.288,91.6107,280.265,143.591
219.429,91.5448,280.383,143.476
219.748,91.2125,280.706,143.084
219.892,90.8883,280.879,142.823
219.985,90.771,281.078,142.742
220.524,90.2375,282.001,142.063
221.032,89.2199,282.481,140.929
221.286,89.01,282.891,140.925
221.745,88.8193,283.991,140.768
221.973,88.7835,284.514,140.738
222.319,88.7009,285.334,140.675
222.655,88.6069,286.125,140.552
223.186,88.1576,286.644,139.738
223.212,88.3634,286.683,140.341
223.353,88.4299,286.897,140.276
223.557,88.6516,287.622,140.399
223.776,88.7724,288.254,140.755
223.735,88.699,288.323,140.7
223.889,88.8793,288.987,141.395
224.053,89.039,289.634,142.066
224.238,89.2181,290.259,142.717
224.477,89.2184,290.945,142.696
224.468,89.1913,290.953,142.672
224.352,89.1088,291.007,142.624
224.499,89.3193,291.496,143.333
224.37,89.3283,291.421,143.799
224.529,89.2614,292.048,143.721
224.399,87.5867,292.379,142.201
224.256,86.9507,292.286,141.918
224.49,86.964,292.955,141.94
224.518,86.7047,292.958,141.751
224.497,86.3516,292.995,141.828
224.474,86.2146,292.924,141.721
224.272,86.3878,292.811,142.32
222.429,86.4429,291.36,141.97
220.406,87.1661,289.166,142.948
217.628,86.0457,286.734,142.411
215.966,85.5493,284.923,142.371
211.854,84.0528,280.701,141.17
209.945,80.6137,278.339,139
208.463,79.3737,276.856,138.344
207.564,78.8775,276.217,138.231
205.785,78.5361,274.628,138.792
205.858,78.5958,274.672,139.263
205.813,78.4479,274.697,139.515
205.786,78.2831,274.743,139.961
205.629,78.3884,274.668,140.385
205.751,78.3399,275.224,140.329
204.723,77.3233,274.116,139.696
203.852,76.0127,273.225,139.168
203.118,75.8122,272.622,139.59
202.211,73.6435,271.413,138.887
200.83,71.5912,269.155,138.751
200.299,69.2967,268.109,138.764
199.975,68.9428,267.905,138.44
198.031,68.4615,265.485,138.675
197.569,68.705,265.052,139.734
197.491,67.9367,264.981,140.057
197.426,67.0243,264.983,140.323
197.472,65.6977,265.319,139.785
197.579,65.5675,265.466,140.294
197.018,64.6728,264.59,140.374
196.084,63.3703,263.623,139.972
195.059,61.4292,262.472,139.007
194.429,60.6107,261.795,138.668
192.607,59.7635,259.609,138.282
191.821,59.1732,258.824,138.07
189.54,56.2887,256.397,135.151
189.282,56.007,256.264,134.863
188.914,55.4005,255.89,134.072
188.215,53.6787,255.069,132.154
187.66,52.5615,254.202,130.987
187.505,52.2823,254.337,130.767
187.208,51.9498,253.787,130.348
187.396,51.3235,254.29,129.729
187.511,51.0904,254.503,129.385
187.769,51.1184,254.947,129.504
188.002,51.2688,255.48,129.69
188.41,51.678,255.949,129.79
189.654,52.6161,257.833,130.792
190.066,52.8956,258.656,131.368
190.444,52.8625,259.413,131.381
191.234,53.0075,260.476,131.625
191.666,52.9969,261.211,131.675
191.973,53.0461,261.914,131.912
192.196,52.3514,262.083,131.087
193.548,51.1787,263.266,129.173
194.113,50.3992,264.01,127.543
194.32,50.266,264.344,127.568
195.51,49.6776,265.839,125.941
196.775,47.9432,267.326,123.843
198.22,46.8864,268.771,122.888
198.578,46.8031,269.667,123.258
198.798,46.4755,270.231,122.704
198.842,46.5526,270.311,123.015
198.834,46.5642,270.274,122.997
198.816,46.6335,270.265,123.095
198.754,46.669,270.205,123.144
198.43,46.8045,269.819,123.251
198.263,47.001,269.677,123.46
198.159,47.1734,269.594,123.719
198.076,47.4352,269.53,124.438
198.094,47.6826,269.556,125.15
198.111,47.6993,269.575,125.166
198.084,47.6322,269.609,125.15
197.89,46.8539,269.883,124.988
197.681,46.4006,269.734,124.676
197.829,45.8149,270.223,124.188
197.867,45.7736,270.34,124.227
197.752,45.5494,270.215,123.684
197.665,45.3912,270.115,123.714
197.376,45.3035,269.728,123.633
197.095,45.0647,269.581,123.549
196.984,44.9352,269.405,123.447
196.967,45.1225,269.405,124.093
196.656,45.1668,269.077,124.099
195.304,46.2074,267.884,124.793
195.037,46.5781,268.037,125.505
195.252,46.6366,268.726,125.591
195.262,46.6657,268.728,125.63
195.246,46.8138,268.729,125.79
195.252,46.8333,268.719,125.796
195.242,46.9637,268.787,125.87
195.449,47.0579,269.461,126.008
195.506,48.0526,270.189,127.015
195.661,48.2237,270.678,127.255
195.917,48.4979,271.405,128.06
195.974,49.6761,271.413,129.92
196.017,50.1868,271.512,130.763
195.998,51.5276,271.397,132.312
196.059,52.6081,271.487,133.341
196.108,52.8072,271.617,133.741
196.34,52.8841,272.311,133.828
196.254,53.5093,272.242,134.291
196.259,53.625,272.223,134.59
196.275,53.643,272.237,134.608
196.293,53.6679,272.254,134.638
196.313,53.6912,272.274,134.663
196.831,53.1293,272.48,134.509
197.244,53.0939,273.102,134.642
198.965,52.99,274.668,135.222
200.506,53.0779,276.479,135.534
202.509,53.204,278.398,135.368
204.434,53.2841,280.326,135.542
206.809,53.205,283.208,134.82
209.8,53.094,286.073,134.556
212.104,52.4771,288.36,133.636
213.574,52.3378,289.937,133.437
215.12,52.2319,291.399,133.582
216.915,52.0638,292.785,133.446
217.932,52.1817,293.495,133.612
219.335,52.2439,294.81,133.629
220.528,52.9364,295.587,134.084
222.677,53.9817,297.076,134.898
223.108,54.1558,297.193,135.044
223.937,54.379,297.683,135.278
224.917,54.7193,298.382,135.475
226.454,55.2674,298.928,135.991
228.265,55.7735,299.461,136.372
228.945,56.0228,299.898,136.929
229.446,56.1935,299.873,137.085
229.821,56.3766,299.984,137.236
230.351,56.5024,300.419,137.322
230.716,56.6069,300.941,137.504
231.398,56.8328,300.835,137.33
231.607,57.0217,300.802,137.381
231.859,57.226,301.058,137.576
232,57.6688,301.052,138.074
232.338,57.7728,301.488,138.133
232.556,57.8428,301.842,138.261
232.631,58.0684,301.532,138.457
232.722,58.228,301.339,138.42
233.122,58.518,301.851,138.252
233.313,58.6476,302.204,138.512
233.794,58.7887,302.403,138.079
234.244,58.8038,302.976,137.967
234.928,58.8195,303.735,137.899
235.328,58.9059,304.113,138.196
236.041,58.868,304.779,138.09
237.223,58.4504,305.896,137.127
237.508,58.5243,306.487,137.365
237.691,58.6249,306.635,137.175
238.147,58.228,306.928,136.492
238.463,58.0457,307.38,135.885
238.871,57.4436,307.717,134.098
238.974,57.5506,307.954,134.24
239.021,57.4502,307.987,134.134
239.051,57.3232,308.058,133.796
239.683,57.392,309.167,133.147
239.776,57.533,309.248,133.122
240.004,57.5055,309.457,133.125
240.041,57.6006,309.516,133.473
240.451,57.5773,309.83,133.067
240.694,57.4078,310.154,132.606
241.157,57.4389,310.577,132.635
242.36,56.6393,311.586,131.541
242.627,56.5364,312.135,131.38
243.127,56.2686,313.178,130.795
243.351,56.4534,313.816,131.394
243.364,56.4311,313.829,131.365
243.357,56.3508,313.823,131.309
243.382,56.3468,313.854,131.292
243.395,56.3128,313.865,131.256
243.418,56.3115,313.894,131.256
243.427,56.1878,313.898,131.085
243.448,56.2002,313.922,131.143
243.407,56.0589,313.847,130.939
243.451,55.9702,313.908,130.851
243.451,56.0106,313.899,130.97
243.444,56.0201,313.901,130.944
243.455,56.0468,313.908,131.008
243.493,55.9601,313.954,130.836
244.205,55.8943,314.583,130.538
245.356,56.2762,315.658,130.38
245.594,56.3839,316.061,130.581
245.589,56.5016,316.037,130.935
245.63,56.4907,316.099,130.911
245.214,56.1247,315.592,130.478
245.55,55.8078,315.972,129.993
246.49,55.9062,316.932,130.226
246.278,55.5852,316.735,129.953
246.14,55.3814,316.611,129.772
246.652,53.5348,316.896,127.419
246.883,53.0929,317.278,126.695
247.761,52.1144,318.211,125.628
248.755,51.1116,318.563,124.442
249.676,49.6965,319.153,122.441
250.287,49.4253,319.529,122.038
252.849,49.1561,321.318,121.303
254.114,48.8637,322.124,120.889
256.49,48.0422,324.284,119.814
258.319,47.1025,325.676,118.273
259.42,46.6158,326.204,117.484
259.537,46.6608,326.495,117.599
260.272,46.6155,326.866,117.424
260.595,46.4527,327.462,117.154
260.939,46.9701,327.724,117.795
262.257,48.0326,328.479,118.523
263.427,49.1135,329.208,118.551
263.755,49.5547,329.599,118.28
263.78,49.8512,329.736,118.626
263.758,49.9655,329.736,118.723
264.432,51.045,330.033,119.346
264.665,51.2027,330.62,119.575
264.803,51.5198,330.712,119.748
265.63,52.9275,331.259,120.539
265.84,53.2019,331.784,120.966
266.148,53.7163,331.946,120.702
266.966,54.0962,332.698,120.393
268.027,55.2511,333.323,120.27
268.249,55.5197,333.665,120.793
269.346,57.8206,334.553,121.345
269.642,58.1633,335.038,121.946
269.96,59.3455,335.396,122.878
270.092,60.1793,335.509,123.562
270.133,60.2929,335.588,123.734
269.95,60.5207,335.519,123.297
270.417,60.6621,336.488,123.091
270.758,60.6637,337.21,122.613
270.798,60.6836,337.233,122.591
270.925,60.9001,337.43,122.369
271.155,60.9438,338.153,122.3
271.156,61.0248,338.12,122.492
271.177,61.0598,338.118,122.447
271.245,61.1233,338.168,122.524
271.361,61.3223,338.257,122.271
271.408,61.3454,338.374,122.299
271.445,60.9559,338.384,121.576
271.508,61.0164,338.399,121.371
271.517,60.6904,338.52,120.813
271.661,60.2729,339.126,120.326
271.501,59.415,338.995,119.571
271.497,58.5784,338.941,118.539
271.565,58.2216,338.894,117.811
271.722,57.2373,338.968,116.612
271.812,57.0926,339.288,116.407
271.782,56.6127,339.176,115.782
271.903,55.6695,339.106,114.785
272.059,53.4046,339.442,112.021
272.246,51.6886,339.399,109.871
272.688,50.2615,339.908,108.503
272.69,49.5322,340.078,107.75
272.674,49.0752,340.057,107.218
272.711,48.5581,340.094,106.92
272.641,48.0808,340.104,106.395
272.734,47.7033,340.157,105.664
