152.965,103.906,179.028,147.065
153.015,103.979,179.557,147.449
153.11,103.433,179.957,148.327
152.837,104.915,179.251,149.922
152.764,106.22,179.156,151.707
152.716,106.19,179.183,151.709
152.431,106.866,178.991,152.718
152.563,107.158,179.575,153.023
151.239,109.151,179.369,153.192
149.413,109.755,178.227,153.505
148.062,109.947,177.211,153.312
147.503,110.481,177.405,152.658
147.792,112.314,177.762,153.85
147.869,111.867,177.959,153.488
147.994,110.464,178.266,151.858
147.341,108.609,177.821,149.061
146.693,107.092,177.139,147.254
146.866,107.235,177.334,147.633
146.867,107.493,177.344,147.867
146.682,107.145,177.06,147.568
145.495,107.847,176.167,147.981
144.25,108.355,175.405,148.814
142.759,106.545,174.492,146.447
143.136,106.346,174.833,146.322
143.416,103.236,174.762,142.857
144.688,103.339,176.113,142.904
142.618,104.543,173.444,144.436
139.968,101.357,170.022,141.235
140.193,101.415,170.678,141.395
140.178,101.423,170.671,141.371
139.608,102.176,170.194,141.385
139.801,102.281,170.528,141.947
140.633,100.811,171.592,141.079
142.666,99.437,173.639,139.906
144.743,98.8058,175.922,138.407
148.207,100.006,179.867,138.522
148.306,101.301,180.265,139.955
148.84,99.9944,180.781,138.384
148.584,101.131,180.717,138.645
148.925,101.376,181.371,139.405
149.018,101.226,181.392,139.715
149.931,100.257,182.121,139.025
149.991,99.9142,182.361,139.076
150.302,99.6969,182.652,139.253
150.52,99.5742,182.97,139.582
150.422,99.5274,182.983,139.939
150.669,99.58,183.642,140.152
150.171,101.798,183.338,142.711
147.387,104.864,182.209,145.421
149.361,103.702,184.321,144.647
153.868,99.8055,187.723,141.806
150.882,97.8131,184.799,139.618
146.909,94.5929,180.391,136.665
146.713,93.3416,180.105,135.696
147.929,91.7892,181.264,134.421
149.01,91.5352,182.871,134.852
148.995,91.3238,183.288,135.504
148.868,90.5514,183.547,135.218
145.491,90.7855,180.826,135.415
144.288,90.7682,179.284,135.212
143.89,89.9806,178.061,133.691
143.902,89.5327,177.629,133.36
143.97,89.4596,177.908,133.443
143.738,89.7664,177.491,133.693
143.788,90.2455,177.956,134.059
143.648,93.1328,178.048,137.89
143.239,96.321,177.934,141.81
142.245,97.0948,176.868,142.797
140.529,99.5252,174.682,145.146
138.997,100.073,173.449,145.683
141.484,100.084,176.583,147.548
146.025,98.8615,182.515,148.479
144.876,90.9575,181.264,144.205
140.651,91.5811,176.7,144.889
130.703,95.2061,166.411,148.784
132.521,96.8965,167.857,150.822
131.821,98.4431,167.627,152.093
126.936,103.594,163.672,155.098
116.544,113.309,156.417,163.319
119.481,121.257,160.555,170.621
