318.998,185,385.965,240.976
318.855,184.995,385.903,240.977
318.165,184.774,385.737,240.841
317.596,184.87,385.656,241.392
314.216,184.442,382.787,241.378
312.185,184.035,381.308,240.946
309.549,183.018,378.996,240.025
307.762,182.176,377.07,239.675
304.899,180.014,373.825,237.561
303.799,179.103,372.558,237.388
302.851,176.754,371.218,235.832
301.758,174.389,369.876,234.45
300.229,172.154,368.195,233.085
299.192,170.459,366.94,232.02
298.308,168.77,365.862,231.209
297.66,166.927,365.005,230.044
296.814,165.153,363.822,229.247
294.921,163.137,362.018,227.635
293.983,162.317,361.353,226.447
293.575,159.77,360.159,224.006
292.875,157.576,359.283,222.19
292.017,155.835,357.824,220.853
291.546,153.208,356.698,218.55
291.484,153.149,356.672,218.622
290.447,152.856,355.331,218.29
288.422,151.592,352.41,216.921
287.665,150.441,350.94,215.822
286.797,149.369,349.603,214.684
285.68,146.787,347.709,212.638
284.915,145.92,347.267,211.711
284.412,144.485,346.717,210.135
284.037,144.027,346.538,209.889
283,142.858,345.716,208.74
282.01,141.926,344.952,207.853
281.544,140.26,344.709,206
281.683,138.574,345.118,204.008
282.201,137.265,345.76,201.905
282.342,137.372,346.289,202.231
282.244,137.312,346.199,202.18
281.57,136.02,345.105,200.322
281.701,134.939,345.451,198.802
281.394,134.152,345.124,197.289
281.432,132.909,345.024,195.797
281.777,132.416,345.499,195.193
281.868,130.134,345.194,192.195
282.458,126.43,344.666,188.241
282.799,123.526,343.746,185.236
282.567,120.309,342.93,182.352
282.833,117.228,342.206,179.797
282.93,116.956,342.181,179.993
282.551,117.156,342.041,180.504
280.281,118.149,340.758,181.384
278.671,119.578,339.681,182.847
277.235,119.824,339.983,183.478
276.638,120.191,340.248,184.306
276.679,120.358,340.741,184.889
276.895,120.452,341.439,185.765
277.123,120.453,342.114,186.01
277.255,120.526,342.27,186.607
278.879,119.12,344.234,186.074
280.155,117.594,345.32,184.543
281.823,114.049,346.686,180.818
282.078,110.511,347.182,177.669
282.404,107.662,347.988,174.562
283.164,104.875,349.278,171.387
283.217,101.858,349.694,167.444
283.973,98.594,349.78,163.905
284.17,98.2764,350.192,163.652
284.637,97.3047,351.009,162.795
285.154,94.5856,351.287,160.359
285.483,93.3188,351.656,159.69
286.145,91.7825,352.209,158.358
286.363,90.9424,352.592,158.275
286.501,90.9686,352.963,158.446
286.587,90.6727,352.975,158.083
286.645,90.7097,353.112,158.18
286.813,90.3049,353.276,157.801
286.946,89.7769,353.478,157.471
287.586,89.4242,354.541,157.442
288.214,88.6865,355.083,157.191
289.485,87.1853,356.218,156.424
290.047,86.9685,356.71,156.446
291.168,86.1712,357.589,155.811
291.723,85.9517,357.785,156.05
292.541,85.9821,358.689,156.328
294.322,84.3525,359.88,154.658
295.665,83.7735,361.488,153.82
296.616,83.2082,362.142,153.303
297.994,82.5374,363.49,152.782
298.708,81.9365,363.736,152.162
299.979,81.2678,364.679,151.638
301.039,80.7026,365.391,151.237
302.082,79.9086,365.799,151.153
302.554,79.8682,366.165,151.332
303.403,79.2745,366.699,150.879
304.264,78.723,366.922,150.644
305.023,78.1642,367.545,150.329
305.555,77.571,368.194,150.12
305.967,77.2706,368.623,150.32
306.87,76.5968,368.976,150.098
307.667,75.691,369.048,149.731
308.325,75.654,368.923,150.254
308.678,75.7408,369.269,150.763
309.085,75.8402,369.591,151.385
309.501,75.8318,370.033,151.87
309.76,76.0208,370.641,152.484
309.902,75.7335,370.66,152.132
310.202,75.6109,371.032,152.03
310.516,75.5798,371.191,152.088
310.81,75.7753,371.708,152.673
310.857,75.8272,371.819,152.792
310.848,75.8349,371.798,152.796
310.883,75.8663,371.841,152.833
310.894,75.883,371.842,152.843
310.916,75.9037,371.877,152.868
310.933,75.9217,371.903,152.889
310.94,75.9433,371.908,152.908
310.936,75.9578,371.892,152.919
310.474,75.5051,371.394,152.458
310.457,75.4465,371.445,152.388
310.56,75.5452,371.534,152.463
310.281,75.476,371.25,152.349
308.839,75.8392,369.754,152.063
308.196,76.0844,369.093,152.324
308.24,76.3125,369.159,152.708
308.327,76.5651,369.295,152.893
308.213,76.7198,369.141,153.139
308.088,77.1542,368.978,153.544
308.114,77.3656,369.099,153.8
308.108,77.6235,369.031,154.02
308.13,77.8593,369.066,154.312
308.061,79.0397,368.87,155.462
308.072,79.4547,369.055,155.885
307.981,80.0723,368.946,156.504
307.689,80.9396,368.762,156.926
307.433,82.0674,369.035,157.029
307.528,82.6984,369.446,157.079
307.222,83.5577,369.218,157.499
307.154,83.763,369.161,157.64
307.401,83.9041,369.858,157.86
307.441,84.3199,369.855,158.219
307.23,84.694,369.792,158.567
307.306,84.9365,370.372,158.855
307.249,85.1641,370.792,159.087
307.001,85.5709,371.001,159.4
306.133,86.3887,370.174,160.139
305.823,87.2182,370.202,160.966
304.483,88.5125,369.352,162.181
304.49,88.8341,369.373,162.839
304.523,89.1436,369.46,163.638
304.578,89.1803,369.44,163.818
304.498,90.258,369.236,165.17
304.399,90.7064,368.967,165.765
304.378,91.0989,369.171,166.621
304.069,91.9836,368.834,167.756
303.18,92.8175,367.905,168.533
302.078,93.3032,367.122,169.213
301.823,93.4255,367.293,169.363
300.85,93.4841,366.301,169.4
299.146,93.594,364.825,169.918
297.794,94.3162,364.049,171.029
296.815,95.2576,363.488,172.168
294.648,95.7777,361.52,172.76
294.056,96.1418,361.059,173.536
293.851,96.1245,361.343,173.889
293.377,96.3396,360.763,174.305
293.284,96.3915,360.657,174.4
292.811,96.9516,359.929,175.57
292.616,97.5195,359.709,176.873
292.646,97.9652,360.045,177.353
292.698,98.0603,360.15,177.515
292.183,98.4722,359.677,177.812
291.145,100.075,358.757,179.228
290.152,102.07,358.286,181.42
289.784,103.13,357.955,182.784
289.272,104.328,357.63,184.384
289.084,104.867,357.578,185.394
288.848,105.173,357.341,186.149
288.692,105.273,357.167,186.345
288.662,105.485,357.129,186.962
288.5,105.502,356.908,186.986
287.969,105.673,356.322,187.351
286.906,105.624,355.035,187.989
286.636,105.78,354.998,188.208
285.538,106.409,353.751,188.664
284.937,106.949,353.2,189.296
281.597,109.448,348.715,191.529
279.221,109.815,346.427,192.211
278.906,109.789,346.438,192.128
277.554,109.635,345.686,191.534
277.69,109.663,346.204,191.556
277.767,109.881,346.851,191.702
278.176,112.862,347.704,192.759
278.074,117.081,348.251,194.766
277.457,120.746,347.411,196.11
276.971,122.559,347.077,196.474
277.02,123.258,347.021,196.134
277.441,123.58,347.489,195.945
277.796,124.496,347.821,195.954
278.535,126.572,347.227,196.026
278.881,128.378,346.693,196.004
278.366,131.396,344.583,197.012
278.112,133.988,342.808,197.84
277.725,136.411,341.129,198.355
277.016,138.646,339.126,198.864
276.035,141.547,337.333,200.329
274.128,142.114,335.017,200.282
272.953,142.322,333.201,200.402
272.063,142.205,331.921,200.244
270.833,141.604,330.149,199.614
269.907,141.705,329.022,199.359
269.807,142.171,328.915,199.812
269.385,142.086,327.284,199.826
268.883,143.925,325.581,201.374
270.858,145.437,325.796,202.264
271.929,146.842,325.302,203.245
272.39,147.71,324.523,203.738
272.514,151.421,323.264,207.139
272.582,153.665,322.417,208.558
272.667,154.015,322.386,208.851
272.577,154.547,322.306,209.308
272.375,155.313,322.309,209.827
272.219,156.575,322.167,211.048
272.172,157.069,322.059,211.372
271.761,157.688,321.409,211.693
271.372,158.051,321.075,212.176
270.839,158.848,320.274,212.682
