307.638,6.02321,402.275,71.5191
315.064,8.03835,406.92,74.1901
316.315,14.7539,409.832,80.6652
322.358,26.0597,421.594,92.3012
313.375,36.0526,413.625,102.371
305.296,32.7801,402.628,100.593
292.572,32.1027,388.419,100.156
290.472,33.227,386.262,101.784
289.991,32.7858,385.652,101.724
291.607,34.8955,387.935,104.516
291.664,35.387,388.381,105.478
291.265,31.27,387.349,100.752
281.129,30.9496,380.809,99.5617
276.349,33.4594,378.663,100.58
275.275,32.2298,374.126,101.181
284.557,33.7047,382.66,104.667
297.943,28.9601,394.274,100.052
313.687,28.7704,410.26,101.258
330.131,25.1532,429.126,99.2901
349.484,25.1959,451.778,99.845
370.795,32.4845,479.668,109.27
377.152,42.2698,490.896,121.157
380.195,54.9178,500.836,137.066
387.235,53.3064,507.84,135.801
392.924,50.4072,513.166,134.917
392.878,49.97,512.668,135.452
395.184,62.9906,515.711,149.808
395.092,65.0192,516.121,152.034
393.313,61.7153,515.365,149.282
390.817,59.4162,512.24,150.405
397.361,55.0032,519.133,148.01
397.062,52.9808,519.91,148.558
388.162,52.8732,510.77,153.571
387.871,50.9143,510.085,151.908
391.23,43.62,517.752,144.065
393.058,42.1853,519.082,145.815
406.01,44.0109,531.838,149.017
408.77,41.8824,535.703,146.929
414.588,56.9039,555.242,159.653
415.29,68.9098,555.856,169.532
417.148,85.298,558.227,185.171
418.111,90.4391,559.799,189.426
416.036,92.0427,558.729,191.015
396.018,93.7514,539.449,192.435
382.026,92.5322,526.676,191.524
374.646,85.201,519.444,184.808
363.116,84.4858,508.251,183.946
349.655,82.0631,494.123,182.893
337.391,79.3678,480.274,180.536
331.346,79.8417,472.96,181.757
328.803,80.5265,470.924,183.018
327.629,82.4571,470.471,184.455
326.845,86.8425,469.384,187.861
327.255,88.4386,470.437,189.434
328.797,90.0118,472.181,190.686
332.055,91.1519,475.963,191.425
345.573,95.0868,488.796,195.303
351.963,94.2112,494.447,194.868
368.741,86.5605,510.38,198.52
374.593,77.8945,515.343,196.499
373.716,51.3433,513.124,176.47
374.528,40.6585,514.141,168.268
369.318,20.66,507.324,148.833
365.274,12.8839,503.731,140.58
365.272,12.5584,504.371,140.523
364.67,10.3381,504.97,137.842
364.223,9.24772,504.6,137.846
363.789,8.99152,504.189,138.203
359.617,9.86976,501.04,139.431
359.598,10.3617,500.982,140.159
