301.804,134.837,368.632,215.957
299.345,136.141,366.269,217.939
299.071,136.823,366,219.587
298.845,138.006,365.971,221.762
300.117,138.934,366.799,223.225
302.184,139.06,369.415,223.28
305.448,137.988,373.001,222.767
306.261,138.334,374.132,223.186
305.546,142.383,373.037,227.438
305.421,144.088,372.935,229.342
306.468,150.4,374.777,234.679
306.922,151.529,375.473,235.928
307.253,151.706,376.13,236.226
306.993,151.476,375.957,236.507
307.473,148.37,375.717,234.049
307.483,148.424,375.803,234.422
307.628,148.284,376.045,234.368
307.991,147.977,376.604,234.938
308.949,147.924,378.035,234.954
310.312,143.981,379.335,232.05
311.919,143.107,381.265,231.809
312.674,141.255,381.945,229.797
313.45,141.139,382.929,230.357
314.056,140.68,383.512,230.275
314.821,141.624,384.066,232.124
314.361,141.089,383.112,232.907
316.246,141.248,385.131,233.103
316.273,141.031,385.248,232.995
316.012,140.41,384.989,232.224
321.834,134.746,389.678,227.235
324.84,123.736,391.506,217.617
328.586,113.11,393.936,207.636
332.771,104.781,397.052,200.356
337.979,100.169,402.884,196.807
340.922,105.497,406.644,201.385
344.791,102.806,410.783,197.276
348.234,101.08,414.442,193.57
349.476,101.664,415.89,193.682
355.039,103.432,422.445,195.173
361.178,101.904,428.941,194.091
362.394,95.4885,431.333,189.056
362.435,89.4272,433.496,183.66
362.317,85.828,436.188,180.398
359.112,85.9469,433,180.522
359.697,90.7977,433.504,185.782
358.075,98.3554,432.161,193.718
356.08,105.531,430.333,201.079
352.516,111.776,428.569,207.069
349.749,111.622,426.836,206.759
347.217,112.68,423.615,208.904
357.767,116.378,433.789,213.9
360.692,109.358,436.279,208.887
360.94,109.231,437.039,209.282
358.132,108.362,435.583,208.146
354.368,108.531,432.2,208.638
354.186,112.879,431.789,214.052
354.541,124.989,431.376,226.52
350.885,132.355,427.298,233.295
347.581,144.911,423.035,248.417
345.263,151,420.572,255.302
339.343,148.266,414.199,251.507
335.09,145.061,409.612,247.098
323.596,134.514,398.991,234.551
316.017,124.978,391.676,223.634
309.735,118.988,385.243,216.68
308.234,118.939,384.132,216.192
306.98,119.399,382.543,216.43
306.903,121.755,382.846,218.884
305.468,129.472,380.859,227.992
304.869,133.343,380.531,233.2
298.83,106.74,376.153,205.033
295.971,101.072,375.671,199.846
295.856,97.1188,375.947,194.989
293.454,88.8164,373.565,186.62
287.897,96.9281,367.174,193.246
279.373,110.825,356.516,205.23
267.324,117.565,344.363,211.029
263.594,119.229,340.543,211.013
261.855,122.646,337.973,213.826
259.676,128.232,335.527,219.232
258.889,131.36,334.29,223.036
256.786,134.68,332.095,228.946
251.269,151.831,326.302,246.129
249.051,167.352,323.682,259.114
249.123,171.342,323.996,262.082
247.91,172.811,322.863,262.856
244.698,173.551,319.208,262.97
242.231,174.44,317.217,263.252
240.769,175.64,315.616,264.07
240.8,175.685,315.753,264.157
239.38,177.167,313.165,266.554
239.374,177.342,313.322,266.797
239.521,178.086,313.138,267.514
238.577,181.106,311.961,268.807
234.347,182.552,307.087,269.356
232.114,181.929,304.084,268.673
231.318,182.719,303.299,268.944
224.207,181.2,295.487,266.013
209.82,179.153,279.996,262.779
195.372,179.07,264.402,262.375
195.181,179.157,264.449,262.635
195.371,178.79,264.934,262.215
198.614,192.851,269.19,277.379
192.7,185.72,262.99,270.979
188.604,186.027,259.301,271.088
183.566,183.706,254.799,268.997
181.133,182.123,252.413,267.876
174.694,178.19,245.516,263.912
170.681,177.753,241.376,263.701
171.521,171.257,241.952,257.311
170.988,170.179,241.384,256.572
167.566,164.894,237.48,252.073
162.443,169.632,231.25,257.847
157.978,174.103,227.031,260.735
150.509,180.031,218.412,266.777
150.536,178.877,218.127,265.583
149.7,180.9,217.701,267.06
145.547,183.133,213.642,269.258
144.914,182.686,213.411,269.004
144.387,183.707,212.773,269.855
140.469,182.483,209.157,268.997
138.864,187.941,208.074,272.58
136.116,187.553,204.747,272.363
133.084,188.554,201.704,273.346
133.319,188.726,202.269,273.658
133.536,187.941,203.115,272.832
132.24,185.525,202.375,270.178
134.337,196.23,204.903,280.682
135.086,195.045,207.183,279.937
140.371,191.331,213.901,275.974
142.402,187.981,216.763,272.296
142.198,184.466,216.119,268.818
144.762,177.307,218.368,262.667
148.233,172.606,221.855,258.539
147.83,169.55,221.901,256.313
148.563,158.484,223.98,245.979
145.896,154.641,221.443,241.609
145.812,153.51,221.709,240.463
144.752,152.504,220.512,239.37
144.894,152.131,220.868,238.981
144.73,152.408,220.678,238.767
149.256,153.122,224.83,238.891
148.735,152.593,224.551,238.528
148.325,151.81,224.139,237.479
148.216,151.65,224.035,237.28
149.506,149.526,225.259,235.477
144.768,147.88,220.046,232.887
140.456,147.676,214.961,231.012
135.075,146.307,208.877,229.668
134.731,148.796,208.995,230.157
125.059,139.891,198.992,221.627
121.768,139.132,195.142,219.953
117.552,139.698,190.321,219.397
105.041,136.68,176.175,216.467
101.444,136.737,171.172,217.257
96.3787,136.721,165.753,217.325
93.9659,136.291,162.349,217.517
88.1819,138.136,154.997,219.246
84.6704,134.908,151.138,217.13
84.9507,135.047,151.265,217.539
85.0785,135.052,151.505,217.5
83.5129,137.759,150.396,219.44
78.7854,140.155,145.86,221.481
71.4573,144.834,139.08,225.333
73.3633,145.374,141.889,224.904
80.6063,144.251,150.051,223.774
88.8431,143.66,158.965,221.925
82.4042,142.395,157.175,221.937
75.0552,146.614,152.186,224.454
64.5527,145.517,141.507,222.804
42.5351,147.313,118.699,223.686
33.0464,148.977,108.376,225.369
33.3901,149.775,108.279,226.872
33.0147,149.753,108.02,227.133
33.1567,149.7,108.629,227.22
32.3556,152.159,108.493,228.854
32.2921,152.357,108.845,228.615
32.0045,154.127,108.754,229.883
31.8137,153.78,108.422,229.805
32.4979,154.03,109.695,230.235
32.574,154.031,110.022,230.455
32.6116,153.999,110.059,230.455
32.6368,154.01,110.093,230.458
25.4831,152.105,100.743,229.509
21.0689,150.645,93.8964,228.251
16.9014,148.394,88.3818,226.744
16.2662,148.15,87.4978,226.501
14.563,151.594,85.8912,229.145
14.7536,152.006,86.1338,230.103
15.0463,151.985,87.0101,230.137
16.4294,154.533,88.6493,232.529
16.5079,154.782,89.0117,232.676
17.3305,155.427,90.3836,232.415
20.5672,157.351,94.2086,234.799
20.9362,157.587,95.2118,234.703
21.9646,154.805,96.3558,231.668
21.324,155.189,95.0125,233.621
20.787,154.954,94.6702,233.2
22.5101,163.064,95.9238,240.723
26.0037,156.505,98.9244,233.164
26.8115,155.634,99.637,232.202
28.2509,152.284,100.645,229.238
31.6665,150.732,103.481,226.84
33.7048,151.641,104.681,227.572
34.3523,151.53,104.896,227.675
34.9504,151.777,105.703,228.332
37.6525,148.492,107.847,224.121
39.6762,146.539,109.632,222.205
47.6718,141.381,116.65,217.522
49.1675,140.255,117.717,216.191
48.2864,141.629,116.187,216.83
53.3721,153.054,120.468,226.504
63.0434,156.783,130.834,229.747
71.8606,159.242,139.927,230.956
81.3204,167.338,149.531,238.148
86.8533,176.534,155.559,246.152
89.4652,178.306,158.011,248.004
92.633,179.514,162.115,249.503
96.7942,182.106,165.672,251.866
105.282,185.553,173.55,255.191
113.729,186.675,180.357,257.636
117.581,187.173,183.902,258.123
124.031,188.215,189.445,258.734
132.171,184.697,196.168,255.365
133.285,184.646,196.959,255.616
133.421,182.784,197.082,253.73
133.534,182.184,197.509,253.168
132.048,180.698,195.933,251.631
137.647,179.396,201.726,250.37
140.093,179.334,204.58,250.152
140.987,179.163,205.804,250.095
141.011,179.173,206.11,250.138
141.253,178.43,206.667,249.539
141.348,178.331,206.698,249.909
141.422,178.542,206.889,250.511
141.262,178.199,206.888,250.18
141.426,178.087,207.415,250.136
139.786,175.955,205.551,248.137
138.454,173.35,204.211,245.811
138.579,173.377,204.537,245.85
138.849,173.2,204.68,245.796
139.245,172.999,205.053,245.857
141.183,168.319,206.077,240.97
145.284,160.125,209.186,232.433
144.899,154.809,208.435,226.794
142.957,151.975,208.009,223.046
143.244,151.416,208.851,222.747
144.453,149.816,209.846,221.688
144.542,149.829,209.972,221.84
144.635,149.951,210.108,222.435
144.691,149.5,210.129,222.199
147.501,145.196,212.6,219.256
147.078,143.374,212.229,217.713
147.513,139.323,211.122,214.568
151.035,127.756,212.926,204.656
152.655,126.046,214.732,203.545
153.117,125.778,215.583,203.157
153.136,125.823,215.62,203.287
153.137,125.84,215.616,203.297
153.145,125.861,215.614,203.328
153.159,125.878,215.628,203.345
153.199,125.892,215.692,203.339
153.866,125.238,216.281,202.831
153.929,125.3,216.402,203.174
153.795,125.293,216.144,203.213
164.444,121.107,227.453,199.04
165.928,124.213,229.105,201.878
166.334,127.519,229.379,205.569
164.661,131.246,227.1,209.918
158.782,132.295,220.806,210.731
159.881,132.605,222.509,210.699
162.723,136.75,225.806,214.486
166.175,139.076,229.195,216.683
173.565,145.277,236.583,223.128
181.891,162.798,244.441,241.561
189.97,167.588,253.544,246.536
190.426,167.562,254.245,247.003
191.424,166.977,255.805,247.383
191.053,164.121,255.451,245.436
191.318,160.781,255.683,242.355
191.271,160.686,255.798,242.641
191.558,160.659,256.424,242.674
192.489,161.457,257.515,243.959
192.03,163.914,257.298,246.941
190.497,170.632,254.93,256.064
190.808,170.752,255.251,256.148
190.537,172.554,255.385,258.832
190.019,176.099,255.145,262.775
189.409,176.911,254.939,264.341
191.673,175.624,257.151,264.838
195.327,175.821,260.188,266.856
195.827,177.72,260.504,269.908
197.531,181.294,261.796,273.969
197.884,183.631,262.095,276.462
199.172,184.197,263.456,277.292
199.545,184.283,263.875,278.423
200.218,185.751,264.597,280.87
200.616,185.731,264.954,281.393
202.52,183.242,266.488,278.915
202.978,182.772,266.356,278.456
203.741,182.529,266.851,278.644
204.449,182.09,267.762,278.695
206.29,182.237,269.799,279.854
208.022,185.527,272.188,284.473
210.107,189.669,274.655,290.597
212.109,190.31,277.331,292.553
212.408,190.268,277.952,293.154
213.635,187.444,279.18,290.805
214.737,183.309,280.886,285.98
215.085,180.348,281.336,283.758
217.534,177.676,283.379,281.9
218.403,178.145,284.684,282.21
219.484,179.183,286.283,283.789
219.444,181.143,286.375,286.833
218.673,186.11,285.346,294.623
218.429,186.462,285.21,295.315
218.689,186.582,285.33,295.474
218.909,186.566,285.856,295.343
218.794,181.939,285.284,289.08
218.86,178.018,284.843,284.97
218.976,176.148,284.201,282.704
218.901,176.417,283.935,283.062
218.968,176.537,284.017,283.454
217.49,178.667,281.669,285.67
217.355,179.31,281.705,286.781
217.181,181.219,281.562,288.578
217.226,181.274,281.759,288.613
217.302,178.438,282.51,285.119
216.781,175.94,282.798,282.24
216.647,174.164,283.079,280.124
216.606,173.994,283.111,279.875
216.711,174.011,283.679,279.927
216.485,174.197,283.479,279.958
215.299,175.165,281.966,280.882
215.398,175.992,282.314,281.827
215.868,176.324,282.867,282.112
216.15,176.16,283.133,281.973
218.642,174.354,285.151,280.069
220.606,168.74,287.327,273.532
220.944,168.514,287.906,273.031
221.594,168.87,288.696,273.579
222.468,168.644,289.794,274.153
222.534,168.996,289.998,274.912
222.49,169.158,289.934,275.082
223.397,170.571,290.593,275.975
225.031,168.188,291.835,273.538
229.891,156.389,294.848,265.495
231.259,154.6,296.097,263.73
231.778,153.564,296.704,262.679
232.094,154.054,296.926,263.769
232.264,154.187,297.127,264.185
232.338,154.231,297.259,264.188
232.39,154.175,297.359,264.182
232.372,154.242,297.357,264.994
233.135,152.935,297.721,264.427
234.242,149.48,298.934,261.438
234.39,149.472,299.36,261.479
234.749,149.638,299.706,262.715
236.47,150.362,301.086,265.548
237.034,151.032,301.844,266.771
236.855,152.776,301.645,268.994
236.302,159.754,301.102,275.683
235.231,160.94,300.212,276.097
234.128,162.38,299.099,277.28
233.24,161.374,298.094,275.581
233.58,161.489,297.739,274.313
233.725,162.162,297.246,275.884
234.087,163.763,298.114,278.006
232.715,167.453,296.936,280.987
232.872,167.037,296.262,281.495
232.686,164.119,294.059,281.825
232.577,160.345,293.886,278.373
232.474,153.402,294.339,271.08
228.647,149.174,291.369,268.817
225.967,146.686,288.646,267.11
225.517,146.933,288.497,267.138
224.078,153.009,286.411,271.994
221.932,158.011,285.041,273.88
220.542,160.995,284.821,274.858
218.291,163.135,282.759,276.071
219.588,160.815,283.289,273.994
220.487,164.703,285.134,275.002
223.878,166.918,291.208,278.779
227.819,171.723,298.543,283.858
228.812,174.797,299.817,285.937
230.313,176.312,301.99,285.594
237.18,175.335,308.223,283.902
241.962,175.623,313.18,284.44
242.844,175.599,314.041,285.036
244.936,170.137,314.958,283
246.611,165.808,316.645,281.056
