125.559,85.63,140.381,101.552
126.248,85.3359,141.085,101.312
127.844,84.5595,142.512,100.637
128.92,84.1079,143.709,100.472
130.655,83.397,145.453,99.8077
132.331,82.38,147.062,98.814
134.04,81.8707,148.626,98.6264
135.06,82.0606,150.006,99.1509
136.494,82.3037,151.287,99.7278
137.837,82.391,152.595,99.9809
139.204,82.5096,154.004,100.686
140.7,82.4107,155.533,101.015
142.477,82.2557,157.035,101.246
144.345,82.2285,159.249,101.296
145.52,82.0778,160.315,101.513
146.524,81.8782,161.327,101.298
147.992,81.029,162.667,100.448
148.969,80.4412,163.814,99.8794
150.389,79.8303,165.164,99.2858
150.791,79.6799,165.651,99.1878
151.404,79.704,165.989,100.037
151.755,79.651,166.433,100.358
152.796,78.8555,167.543,100.169
156.737,76.6386,171.685,98.4614
157.56,75.7746,172.43,97.6055
157.79,75.6437,172.693,97.6162
158.912,75.1255,173.89,97.2519
159.919,75.1611,174.925,97.6263
160.549,75.1091,175.959,97.5522
160.943,75.0932,176.474,97.4567
161.577,75.1667,177.624,97.5206
162.784,75.1999,179.084,97.2112
164.076,74.2057,180.295,96.8686
164.241,73.887,180.883,96.8679
164.924,72.9741,181.823,95.3465
165.078,72.9688,182.09,95.38
165.643,73.1776,183.316,95.2549
165.887,73.352,184.02,95.6234
166.189,73.5302,184.717,95.6381
166.505,73.8425,185.573,96.0512
167.104,74.5361,187.206,96.2756
167.164,74.9568,187.644,96.6473
167.173,75.1118,187.656,97.0996
166.379,74.8046,187.015,96.7129
165.663,72.6261,186.793,94.1434
165.757,73.0741,187.253,94.8561
166.295,73.8544,187.876,95.536
165.955,74.2331,188.215,96.1352
165.209,73.7556,188.086,95.231
165.683,73.2881,190.177,95.1427
166.084,73.7679,190.62,95.2295
166.543,73.9696,191.493,95.1947
167.065,74.346,191.953,95.5324
167.245,74.5613,192.211,95.9456
167.417,74.8843,192.45,96.1568
168.525,75.5341,193.904,96.6906
169.117,76.1674,194.4,97.4731
170.116,76.6299,195.523,97.7084
171.807,77.2126,196.833,98.6578
171.328,77.1596,196.856,98.5815
169.846,77.2881,195.734,98.75
169.076,77.9747,195.01,99.5281
168.974,78.3262,194.913,100.306
168.72,78.4781,194.658,100.46
168.618,78.5315,194.627,100.525
168.538,78.9075,195.525,100.923
168.325,78.9705,196.047,101.712
168.397,78.9594,196.312,101.972
167.793,77.7222,196.519,101.156
166.582,77.5195,195.869,101.727
166.684,77.5996,196.163,102.105
166.683,77.7395,196.203,102.709
166.92,77.6735,196.887,102.69
166.317,77.6988,196.336,103.14
164.881,77.8208,195.272,102.924
164.799,77.9007,195.466,103.449
164.906,78.1394,195.926,104.086
163.902,78.0106,195.589,104.464
163.676,78.0112,195.699,104.422
163.615,78.0966,196.009,104.549
163.193,78.1847,195.715,104.665
161.678,78.6146,194.301,105.142
161.821,78.4402,194.628,105.666
161.626,78.306,194.709,105.857
161.57,78.4727,194.883,106.427
160.625,78.2125,193.937,105.947
160.598,78.3025,194.108,106.147
160.775,77.5798,194.701,104.843
161.034,77.6346,194.901,105.086
161.302,77.6276,195.233,104.321
161.386,77.7782,195.276,104.68
161.456,77.867,195.414,104.673
161.548,77.9319,195.477,104.777
161.597,78.0025,195.539,104.953
161.63,78.0199,195.573,104.985
161.5,77.8736,195.44,104.677
161.358,77.5818,195.304,104.518
161.184,76.5988,195.029,103.474
160.948,76.5216,194.964,103.467
160.568,76.0818,194.972,102.992
159.804,75.8857,194.138,102.813
159.981,75.3525,194.554,102.715
158.153,74.9532,192.479,103.767
158.261,74.5053,192.567,103.58
157.371,74.6665,191.998,104.417
156.682,74.4212,191.442,104.435
155.354,73.9275,189.962,104.468
153.955,72.7779,188.439,103.985
152.584,72.4196,186.755,103.829
152.03,72.4023,186.13,103.791
151.182,72.3992,185.28,103.732
150.74,72.6073,185.027,103.856
149.195,73.3577,183.29,104.287
148.064,73.932,182.025,104.377
147.542,73.7612,180.752,103.889
146.59,74.2371,179.354,104.436
145.665,75.3222,177.346,105.611
144.155,77.7397,174.605,106.933
140.179,81.0309,169.34,109.226
136.014,85.0979,164.749,113.154
132.836,89.0112,161.273,116.761
130.573,93.2536,159.15,120.519
128.59,96.4911,157.09,123.632
126.99,99.5086,154.951,126.481
125.408,103.049,153.189,129.414
124.626,106.76,152.433,133.073
121.88,108.975,149.176,135.804
119.928,111.342,146.783,138.461
119.361,112.968,145.647,140.733
118.332,115.67,144.487,143.552
118.205,117.82,144.515,145.704
117.756,119.012,143.978,146.852
117.256,119.099,143.637,147.116
116.922,118.561,143.213,147.349
115.09,116.04,141.238,145.277
112.844,113.945,138.917,143.462
111.694,112.09,137.955,142.181
111.261,108.547,137.254,138.917
110.591,106.761,136.096,137.34
109.19,105.604,135.315,136.467
107.831,104.736,135.11,135.42
106.478,104.421,134.827,135.102
103.233,105.08,132.213,136.037
100.282,105.413,129.31,136.167
97.2469,106.801,126.512,137.911
95.2232,107.003,124.385,138.813
93.8242,105.849,122.972,138.487
93.712,103.827,122.664,137.299
93.8394,101.254,122.229,135.982
94.3295,97.7852,123.142,133.076
94.5874,97.4343,123.791,132.737
94.951,97.495,124.668,132.807
95.0205,97.4175,125.429,132.751
94.246,96.5125,125.241,131.767
93.7769,96.3185,125.35,131.607
93.3618,95.6177,126.369,131.528
92.7594,93.8136,126.977,130.717
91.8494,93.4165,126.304,131.14
89.2663,94.8023,123.686,133.727
86.2433,95.1489,120.511,135.318
85.1756,93.7138,121.58,135.374
84.6113,93.2608,121.741,135.9
83.6832,91.7584,121.256,135.388
78.1182,92.0938,116.231,136.767
73.4216,90.2661,111.536,137.251
73.9471,89.8715,112.048,137.31
75.901,92.5479,114.548,139.908
77.7808,93.4435,117.42,140.821
77.4171,94.0022,118.623,141.279
75.8172,93.9293,119.078,141.336
71.0719,94.2317,115.226,141.326
67.6579,90.9231,112.43,137.904
62.319,87.7652,106.415,135.274
61.4461,91.6465,104.148,139.765
68.4488,102.393,110.182,150.537
65.5624,106.574,106.366,154.372
61.5758,107.086,102.117,153.839
60.6045,108.852,101.035,155.484
60.6957,109.084,101.158,156.01
59.7245,108.75,100.036,155.709
58.9605,108.104,99.2842,155.233
58.9207,108.215,99.3909,155.69
58.3012,107.77,98.6554,155.184
58.2717,107.516,98.7754,154.862
57.4748,107.398,98.4042,154.707
57.1616,107.325,98.1627,154.741
57.2565,107.317,98.7189,154.804
57.0872,107.479,98.5342,154.958
56.2222,107.583,97.5946,155.073
56.1555,107.639,97.5968,155.123
55.4617,107.743,96.7109,154.864
54.2375,108.415,95.3952,155.301
52.228,108.1,93.4688,154.3
51.7669,107.993,93.1531,154.31
50.1191,107.534,91.5636,153.546
49.3325,106.541,90.6354,152.775
45.5212,103.362,87.0614,149.653
43.8104,101.984,85.8365,148.327
43.7016,101.864,86.1917,148.352
43.5572,101.853,85.9954,148.341
42.3512,101.392,84.6949,147.778
40.7661,101.571,83.0751,147.863
40.3385,101.644,82.6874,147.878
40.2542,101.8,82.6834,148.21
40.2501,101.822,82.6949,148.207
41.2716,101.632,83.9422,147.432
41.9997,102.263,84.5485,147.017
42.494,108.656,85.9411,155.834
39.254,112.156,83.7036,160.459
38.7349,112.147,83.1162,160.689
38.8057,112.178,83.2384,161.037
38.8293,112.241,83.3087,161.187
38.968,112.343,83.3183,161.289
38.9003,112.118,83.2486,161.043
38.8871,111.983,83.1884,160.941
38.7341,111.963,83.0963,160.787
38.9741,111.861,83.3027,160.77
39.1378,111.944,83.504,160.79
38.787,112.299,82.8815,160.929
38.684,112.915,83.0372,161.74
38.49,113.051,82.8509,161.715
38.0885,113.161,82.3793,161.809
37.2872,112.896,81.3142,161.135
36.848,111.573,81.0691,159.468
36.7712,111.491,81.1989,159.351
36.4484,111.25,80.7663,159.011
35.5864,110.991,79.9243,158.71
33.4207,110.089,77.715,157.516
32.6929,109.73,76.8067,157.302
30.8589,110.087,75.0198,158.021
26.852,110.343,70.7602,158.036
25.5764,110.519,68.8579,158.605
24.9184,109.703,68.0125,158.182
24.0568,108.713,66.6791,157.044
23.3708,108.282,65.638,156.135
20.7438,108.837,62.2183,156.581
18.3581,109.928,60.1135,159.271
17.9839,110.775,59.9835,160.614
17.844,111.01,59.7207,160.976
17.8744,110.761,59.8166,160.725
17.8579,111.087,59.6752,161.103
17.9906,111.403,59.9428,161.81
18.4193,112.853,60.165,163.112
19.0317,113.761,60.9345,164.142
20.87,117.03,62.9454,167.033
23.2552,118.843,65.6018,169.837
24.3591,120.821,67.6046,172.067
25.3226,122.025,69.1854,173.397
25.3635,122.123,69.375,173.611
23.7921,122.632,68.4551,173.945
20.7022,123.372,65.918,175.014
17.0345,123.107,62.9698,175.49
13.7329,123.124,60.4834,175.807
11.2543,122.239,58.1444,175.37
9.06887,121.155,55.7854,174.749
6.14138,120.472,52.8129,174.276
5.12709,119.759,51.7255,173.859
4.31708,119.282,50.8945,173.924
3.81214,118.382,50.4508,173.919
3.03936,117.375,49.5648,173.737
2.83171,115.311,49.1819,172.704
1.7275,112.265,47.1212,170.857
1.21663,107.958,46.0054,167.386
1.40224,102.755,45.835,163.608
1.20594,98.7645,45.4358,160.246
1.25171,95.9028,45.5048,157.523
1.14686,94.1609,45.4216,155.214
1.05092,91.6092,45.1938,152.26
1.12308,91.215,45.7269,151.855
1.26849,91.2461,46.3011,152.174
1.4786,91.2334,46.9919,152.179
1.71341,91.2528,47.7011,152.219
1.59682,91.3475,47.8375,152.392
1.76998,92.199,48.6928,153.507
2.54146,93.1929,50.4481,154.593
4.06876,94.2755,54.2171,155.708
4.98503,94.8597,56.7393,156.352
6.75457,95.7679,59.3859,156.975
8.67317,96.8109,62.3276,158.301
10.639,97.8897,65.2102,159.37
12.5725,99.5175,67.5304,161.043
13.6471,100.723,68.6334,162.982
14.1309,101.704,68.9091,164.108
14.7457,103.303,68.9708,165.443
17.3677,104.296,70.7432,166.38
19.7496,103.213,72.7769,166.762
24.5558,104.117,77.538,168.724
27.9703,107.24,79.4991,172.781
30.3808,110.291,81.5112,177.824
31.4678,113.501,82.9109,183.984
29.9901,116.945,81.9881,188.901
29.5741,119.519,81.2909,191.143
28.0607,123.863,79.992,194.6
25.2426,126.627,76.8422,196.386
21.3502,128.664,73.9451,197.407
19.071,130.045,72.0631,198.262
