205.49,85.4796,254.575,142.231
204.73,86.5434,253.962,143.227
204.895,87.1639,254.219,143.883
205.685,87.0818,255.136,143.676
204.857,86.3797,253.866,142.838
203.212,83.7498,252.564,140.197
200.246,82.7552,249.601,139.665
200.893,82.4598,250.13,139.712
201.164,82.5682,250.498,140.184
205.677,83.1497,254.183,140.997
208.864,82.7714,257.528,140.236
210.37,82.874,259.067,139.973
211.535,83.9139,260.091,140.831
213.023,84.1801,261.724,140.803
213.391,84.3923,262.315,141.291
213.4,84.4453,262.348,141.424
213.527,84.4666,262.172,141.388
213.551,84.453,262.521,141.424
213.391,84.5057,262.334,141.464
213.34,84.5265,262.311,141.486
213.028,84.5951,261.89,141.697
212.606,82.7505,261.066,142.343
212.249,83.7809,260.444,143.999
219.45,85.9493,268.349,145.281
220.901,88.1755,269.924,146.948
223.308,88.9166,272.594,146.455
223.258,84.5388,272.957,141.673
224.918,80.5904,274.273,137.49
224.25,78.4987,273.61,133.94
223.133,78.8555,273.267,132.943
223.651,77.9147,274.131,131.506
220.216,72.9784,272.92,125.231
208.425,71.4185,264.203,121.623
198.807,66.0945,256.733,115.172
185.255,47.0008,244.067,95.9594
183.232,41.8632,242.876,91.0175
183.559,41.9301,243.384,91.4089
191.333,39.1868,249.224,88.4491
192.125,39.1834,249.39,88.2451
196.164,42.5982,253.325,89.6854
198.183,46.572,255.145,93.2486
200.438,54.137,256.833,100.22
204.518,57.8025,260.805,102.963
208.713,60.8608,264.514,104.09
212.527,62.1261,266.485,104.869
213.711,63.0574,267.047,106.072
214.411,62.2167,267.313,105.151
216.99,55.6237,268.688,98.468
217.82,53.4127,269.323,96.1174
218.882,52.5695,269.701,96.3535
213.683,51.4721,263.466,96.3358
218.473,55.0418,267.2,100.649
218.169,54.0319,266.617,99.9478
215.39,58.1211,262.76,103.187
214.292,63.0936,261.748,107.502
219.776,58.0277,268.703,105.174
224.953,57.0344,275.299,106.088
223.786,61.932,276.242,110.508
224.323,61.279,276.933,109.95
224.553,60.5384,277.591,109.409
227.189,57.515,281.296,105.981
226.086,63.7653,280.167,110.924
223.73,65.4959,278.169,111.928
226.708,63.6319,280.427,109.867
227.616,60.5997,281.382,107.3
233.283,56.6011,288.399,103.49
236.263,49.9001,293.063,96.2514
234.835,47.0959,290.861,94.2742
233.887,46.8148,290.283,94.2692
231.1,46.1183,288.283,92.9376
225.886,44.3296,283.894,90.5267
222.496,46.6716,280.309,92.5182
214.052,47.515,273.178,93.078
207.456,49.6273,266.787,94.995
208.39,54.2412,267.161,99.5781
207.318,56.3197,266.669,101.569
211.31,56.8002,268.828,102.963
211.874,55.8074,269.854,102.658
209.55,58.9446,266.5,105.749
205.547,60.187,261.289,107.068
202.345,60.8257,257.371,107.431
198.548,60.8987,253.266,107.352
196.393,61.9021,251.248,107.954
194.164,62.3467,248.751,108.642
194.821,63.9614,250.14,109.773
196.408,65.014,251.573,109.057
194.935,61.3416,249.543,105.827
189.775,59.4129,244.767,104.02
182.751,58.5996,237.805,103.733
175.057,52.8566,229.452,99.0713
169.334,48.0716,222.227,94.1083
163.616,46.5887,215.092,93.1938
157.662,46.1038,208.184,93.0339
148.78,47.4442,199.393,93.9472
138.798,43.4626,189.286,90.4773
131.62,30.8603,182.005,77.6108
130.659,29.541,180.351,75.6016
126.82,33.5371,176.522,79.4311
129.154,42.2762,178.009,87.7633
118.923,40.438,166.373,86.1884
111.949,36.8095,159.484,82.5407
114.442,35.082,161.715,81.0458
116.212,34.8377,163.162,81.0657
110.542,39.2109,157.777,85.7729
109.907,38.4008,156.952,84.8329
109.652,39.7298,156.1,85.8549
107.238,34.7147,153.151,82.6075
107.14,34.3845,152.457,82.621
107.843,31.45,152.382,81.6746
105.959,32.3073,151.335,82.4781
103.993,33.2081,150.641,82.5252
104.523,34.9977,151.561,83.3787
105.395,36.8037,152.21,84.3925
99.1813,35.6774,147.257,82.9789
89.5538,38.9661,138.148,87.2107
87.6347,43.1868,136.858,92.1104
87.3071,41.9578,136.909,91.1804
89.5613,41.9539,139.359,91.4817
87.8072,42.3947,137.756,91.5283
82.5486,41.4364,132.66,91.4615
78.2506,38.4067,129.277,86.8635
78.4666,36.0335,130.752,83.6068
87.9462,37.0876,140.499,86.9213
87.5387,42.2201,139.793,91.9488
89.1882,39.3039,144.431,91.6172
90.7836,41.7806,145.458,96.2449
90.0348,42.396,144.827,96.6481
91.9855,39.2694,147.57,95.8452
94.9959,34.6353,151.554,91.1921
89.002,30.5879,146.574,87.033
90.0734,30.3031,148.046,86.6197
91.9802,29.2684,147.544,83.7382
93.8512,24.4327,148.818,77.4815
91.2076,24.2947,148.663,75.7028
88.4224,27.4608,149.852,78.8241
83.8787,31.176,149.183,81.8945
71.183,31.4348,140.1,81.6484
56.5183,30.2456,128.247,79.4164
42.8964,32.3814,117.589,82.0203
21.621,34.6991,97.7119,85.8857
14.7817,37.1217,92.8705,90.7097
15.5401,40.7784,97.988,97.2094
15.8163,47.2496,102.95,105.756
19.7726,45.5651,108.221,108.412
20.5491,45.7827,109.194,107.532
23.4511,46.7795,110.806,108.966
21.2817,46.921,105.244,108.288
19.921,61.2014,102.462,122.42
19.4902,61.232,101.06,122.916
16.771,61.7713,99.1009,123.094
15.1727,64.7902,98.6278,125.012
14.1873,67.2514,98.8326,126.579
14.3711,69.3309,99.6307,126.911
16.3891,73.5276,102.281,131.28
16.8926,76.2706,102.45,135.179
17.7186,78.6318,102.632,138.896
21.5602,82.9465,105.437,144.511
31.0931,90.5267,116.21,156.401
38.2945,90.7203,122.98,156.967
48.0895,88.8408,132.304,154.937
48.7504,85.4128,129.969,152.899
52.1645,84.5093,131.682,154.248
80.2844,86.6697,160.152,157.454
93.8048,88.3368,178.788,159.065
122.029,92.821,207.389,164.081
