255.83,151.741,328.567,361.557
255.716,151.616,328.509,361.377
255.612,151.544,328.414,361.338
255.517,151.475,328.346,361.264
255.435,151.445,328.281,361.262
255.294,151.365,328.123,361.149
255.34,151.423,328.263,361.288
255.314,151.417,328.21,361.276
255.233,151.377,328.1,361.186
255.176,151.366,328.063,361.204
255.127,151.347,327.996,361.155
255.09,151.335,327.966,361.186
255.002,151.28,327.864,361.111
254.958,151.26,327.847,361.115
254.922,151.294,327.816,361.092
254.838,151.296,327.712,361.122
254.765,151.303,327.637,361.106
254.647,151.299,327.49,361.044
254.581,151.307,327.44,361.113
254.513,151.242,327.359,361.097
254.503,151.243,327.407,361.092
254.462,151.258,327.362,361.103
254.397,151.239,327.284,361.093
254.441,151.3,327.389,361.168
254.46,151.355,327.415,361.235
254.471,151.408,327.423,361.267
254.484,151.464,327.43,361.347
254.308,151.388,327.137,361.139
254.38,151.498,327.33,361.354
254.398,151.563,327.358,361.433
254.401,151.611,327.343,361.463
254.42,151.678,327.374,361.546
254.435,151.732,327.392,361.613
254.448,151.785,327.4,361.663
254.456,151.84,327.399,361.703
254.48,151.903,327.442,361.784
254.487,151.954,327.435,361.82
254.354,151.796,327.138,361.66
254.443,151.85,327.384,361.699
254.467,151.919,327.428,361.797
254.477,151.96,327.431,361.829
254.366,151.826,327.191,361.709
254.44,151.866,327.385,361.741
254.448,151.907,327.381,361.757
254.448,151.957,327.367,361.767
254.473,152.024,327.412,361.892
254.327,151.857,327.115,361.728
254.423,151.912,327.377,361.786
254.43,151.963,327.376,361.812
254.421,151.977,327.318,361.793
254.438,152.014,327.352,361.829
254.428,152.043,327.302,361.848
254.461,152.09,327.372,361.921
254.365,151.973,327.191,361.846
254.414,151.963,327.316,361.807
254.428,151.983,327.335,361.803
254.432,152.007,327.339,361.806
254.444,152.059,327.359,361.887
254.45,152.089,327.358,361.91
254.456,152.115,327.359,361.883
254.359,152.01,327.157,361.89
254.414,151.979,327.318,361.798
254.417,152.003,327.329,361.764
254.417,152.058,327.325,361.833
254.426,152.113,327.335,361.907
254.438,152.169,327.363,361.98
254.417,152.178,327.313,361.965
254.436,152.24,327.355,362.038
254.439,152.3,327.351,362.104
254.432,152.341,327.322,362.104
254.452,152.406,327.371,362.212
254.449,152.448,327.354,362.207
254.454,152.511,327.359,362.316
254.319,152.379,327.051,362.17
254.405,152.427,327.312,362.198
254.411,152.493,327.33,362.285
254.41,152.532,327.329,362.338
254.424,152.585,327.358,362.407
254.432,152.622,327.364,362.444
254.439,152.665,327.37,362.483
254.453,152.716,327.387,362.571
254.472,152.766,327.425,362.618
254.475,152.806,327.414,362.638
254.376,152.718,327.226,362.549
254.415,152.763,327.336,362.543
254.431,152.846,327.37,362.656
254.44,152.915,327.385,362.735
254.402,152.889,327.294,362.647
254.413,152.916,327.328,362.726
254.387,152.891,327.277,362.637
254.4,152.93,327.319,362.726
254.381,152.934,327.265,362.702
254.374,152.92,327.261,362.622
254.384,152.966,327.294,362.764
254.385,152.978,327.291,362.787
254.383,153,327.27,362.752
254.371,153,327.209,362.696
254.385,153.027,327.237,362.787
254.395,153.029,327.256,362.811
254.395,153.003,327.26,362.774
254.39,152.976,327.217,362.728
254.402,152.935,327.223,362.669
254.422,152.947,327.246,362.682
254.343,152.749,327.062,362.629
254.456,152.765,327.371,362.613
254.468,152.788,327.355,362.608
254.325,152.651,327.069,362.452
254.41,152.672,327.286,362.461
254.432,152.7,327.336,362.485
254.443,152.747,327.347,362.482
254.471,152.86,327.399,362.65
254.386,152.789,327.206,362.62
254.469,152.873,327.423,362.756
254.487,152.934,327.447,362.83
254.405,152.888,327.256,362.668
254.467,152.998,327.417,362.855
254.479,153.059,327.422,362.931
254.39,152.948,327.221,362.803
254.453,152.994,327.384,362.845
254.451,153.011,327.356,362.846
254.462,153.033,327.36,362.855
254.351,152.877,327.11,362.705
254.455,152.959,327.401,362.798
254.44,152.965,327.338,362.797
254.467,152.99,327.392,362.867
254.404,152.799,327.18,362.696
254.464,152.705,327.327,362.655
254.524,152.692,327.471,362.621
254.534,152.67,327.466,362.595
254.543,152.648,327.463,362.551
254.548,152.628,327.458,362.53
254.534,152.583,327.416,362.454
254.514,152.527,327.358,362.388
254.519,152.471,327.371,362.372
254.529,152.429,327.364,362.282
254.562,152.428,327.445,362.289
254.577,152.421,327.474,362.307
254.581,152.395,327.466,362.259
254.597,152.38,327.487,362.28
254.586,152.305,327.462,362.199
254.536,152.178,327.32,362.051
254.586,152.176,327.454,362.014
254.563,152.127,327.387,361.968
254.594,152.129,327.468,361.982
254.59,152.114,327.449,361.966
254.609,152.091,327.491,361.998
254.613,152.064,327.49,361.937
254.606,152.026,327.462,361.887
254.615,152.006,327.473,361.881
254.554,151.936,327.361,361.756
254.606,151.955,327.506,361.84
254.588,151.918,327.438,361.763
254.612,151.963,327.508,361.82
254.616,151.956,327.504,361.835
254.61,151.918,327.483,361.79
254.642,151.955,327.557,361.831
254.63,151.933,327.502,361.813
254.677,151.976,327.618,361.866
254.661,151.978,327.543,361.841
254.659,151.968,327.513,361.813
254.677,151.955,327.556,361.823
254.673,151.917,327.541,361.813
254.716,151.958,327.647,361.821
254.66,151.912,327.499,361.755
254.717,151.988,327.658,361.846
254.691,151.993,327.569,361.851
254.694,151.984,327.557,361.856
254.69,151.943,327.54,361.812
254.694,151.914,327.555,361.773
254.735,151.954,327.659,361.835
254.688,151.883,327.514,361.747
254.73,151.916,327.629,361.788
254.76,151.966,327.695,361.849
254.736,151.947,327.594,361.814
254.751,151.914,327.606,361.792
254.796,151.948,327.716,361.819
254.796,151.928,327.681,361.82
254.843,151.967,327.792,361.866
254.821,151.912,327.702,361.828
254.84,151.947,327.761,361.773
254.83,151.945,327.71,361.841
254.869,151.971,327.807,361.857
254.855,151.956,327.746,361.844
254.85,151.924,327.722,361.809
254.863,151.944,327.776,361.786
254.819,151.918,327.635,361.759
254.881,151.975,327.81,361.844
254.877,151.995,327.781,361.88
254.838,151.962,327.689,361.775
254.85,151.964,327.695,361.818
254.863,151.923,327.734,361.808
254.906,151.959,327.84,361.836
254.897,151.945,327.794,361.838
254.923,151.972,327.847,361.85
254.904,151.922,327.784,361.818
254.942,151.942,327.875,361.837
254.915,151.91,327.793,361.779
254.932,151.897,327.834,361.776
254.936,151.899,327.835,361.75
254.938,151.899,327.837,361.778
254.925,151.886,327.822,361.728
254.874,151.842,327.743,361.689
254.874,151.836,327.759,361.676
254.822,151.828,327.682,361.624
254.825,151.833,327.714,361.716
254.814,151.777,327.713,361.677
254.812,151.749,327.703,361.634
254.826,151.749,327.727,361.615
254.829,151.713,327.723,361.636
254.842,151.655,327.723,361.573
254.866,151.588,327.728,361.5
254.921,151.56,327.855,361.503
254.951,151.558,327.901,361.488
254.971,151.564,327.918,361.488
254.995,151.597,327.957,361.51
255.012,151.642,327.975,361.55
255.027,151.684,327.986,361.593
255.044,151.727,328.005,361.635
255.062,151.774,328.026,361.684
255.079,151.82,328.042,361.73
255.083,151.844,328.042,361.769
255.095,151.878,328.055,361.794
255.105,151.889,328.054,361.822
255.129,151.923,328.093,361.832
255.145,151.969,328.109,361.878
255.161,152.003,328.12,361.92
255.162,151.966,328.093,361.906
255.195,151.997,328.159,361.907
255.192,151.964,328.112,361.898
255.228,151.987,328.191,361.902
255.239,151.987,328.187,361.918
255.263,152.023,328.227,361.932
255.28,152.063,328.241,361.976
255.297,152.108,328.261,362.017
255.313,152.153,328.277,362.063
255.33,152.199,328.293,362.109
255.341,152.249,328.298,362.143
255.357,152.307,328.315,362.202
255.374,152.362,328.334,362.262
255.366,152.381,328.276,362.244
255.352,152.288,328.2,362.126
255.394,152.283,328.287,362.054
255.419,152.328,328.317,362.14
255.436,152.307,328.291,362.122
255.428,152.234,328.207,362.012
255.403,152.148,328.144,361.855
255.451,152.158,328.278,361.963
255.373,152,328.101,361.711
255.347,151.911,328.066,361.627
255.402,151.938,328.238,361.596
255.402,152.011,328.237,361.642
255.406,152.102,328.244,361.787
255.418,152.188,328.282,361.838
255.354,152.133,328.149,361.953
255.348,152.122,328.213,361.848
255.379,152.195,328.234,361.908
255.379,152.213,328.18,361.839
255.089,151.825,327.634,361.252
255.119,151.523,327.859,360.597
255.148,151.643,328.014,360.734
255.069,151.73,327.866,360.74
255.029,151.847,327.806,360.865
255.006,151.945,327.789,360.991
254.973,152.113,327.81,361.158
254.959,152.274,327.799,361.401
254.916,152.351,327.711,361.371
254.869,152.574,327.649,361.446
254.875,152.501,327.637,361.041
254.884,152.572,327.647,361.091
254.877,152.647,327.614,361.22
254.932,152.8,327.794,361.423
254.808,152.613,327.59,361.385
254.739,152.499,327.517,361.233
254.688,152.466,327.491,361.201
254.672,152.537,327.523,361.237
254.639,152.5,327.487,361.285
254.655,152.534,327.582,361.236
254.601,152.546,327.424,361.109
254.639,152.616,327.398,361.161
254.661,152.223,327.053,360.494
254.663,152.235,326.922,360.407
254.747,152.275,327.066,360.488
254.801,152.197,327.062,360.406
254.837,151.8,326.987,359.787
254.926,151.649,327.077,359.28
255.071,151.826,327.476,359.667
255.037,151.88,327.324,359.575
255.092,152.001,327.419,359.781
255.139,152.071,327.427,359.877
255.209,152.124,327.564,359.976
255.127,151.808,327.336,359.707
255.092,151.546,327.224,359.348
255.186,151.487,327.392,359.261
255.189,151.394,327.379,359.207
255.23,151.346,327.471,358.969
255.101,151.37,326.976,358.591
255.069,151.507,326.726,358.526
255.156,151.669,326.706,358.723
255.289,151.766,326.994,359.061
255.403,151.834,327.152,359.15
255.507,151.923,327.4,359.273
255.539,152.005,327.461,359.37
255.537,152.04,327.396,359.383
255.585,152.131,327.454,359.466
255.651,152.362,327.386,359.563
255.757,152.673,327.454,359.767
255.901,152.964,327.628,359.958
255.99,153.219,327.424,359.673
255.989,153.348,327.212,359.426
256.078,153.494,327.409,359.747
256.032,153.555,327.189,359.752
256.132,153.653,327.479,359.945
256.061,153.833,327.334,359.957
255.826,154.109,327.041,360.018
255.646,154.14,326.713,359.54
255.337,154.134,326.253,358.86
255.084,154.176,325.767,358.701
254.825,154.225,325.463,358.607
254.564,154.22,325.081,357.519
254.393,153.87,324.97,356.313
254.266,153.269,324.809,354.273
254.362,152.132,324.976,352.164
254.064,151.076,324.711,349.911
253.685,149.992,324.513,347.628
253.075,148.995,323.842,345.916
252.523,147.579,323.267,342.626
251.762,146.745,322.466,339.292
250.787,144.295,321.687,335.451
249.534,141.254,320.536,330.387
248.558,139.127,319.905,326.425
247.415,136.483,318.645,322.165
245.274,133.708,316.77,318.17
242.087,130.821,313.716,313.608
238.632,127.806,310.818,308.768
234.388,125.351,306.312,304.862
230.008,121.546,301.102,301.138
224.09,118.382,293.398,298.897
219.777,109.165,286.879,291.63
216.059,95.8291,280.868,281.341
212.699,88.1109,275.239,275.967
211.535,85.2153,273.77,274.159
209.862,79.9143,271.24,271.091
206.309,77.8173,267.206,270.968
202.689,81.8308,263.77,275.369
198.52,84.3506,260.042,279.938
192.921,84.4225,255.787,283.425
188.623,79.1105,252.341,280.135
185.791,74.3464,250.541,278.249
184.443,66.0701,249.303,271.22
180.758,65.7299,246.371,270.428
179.578,61.5032,245.297,265.597
178.77,58.8603,243.865,261.619
175.324,57.5356,239.854,258.969
171.592,56.8881,236.374,255.524
164.155,58.4374,230.022,255.351
156.257,57.471,220.598,247.659
148.606,63.8046,212.381,248.421
143.613,64.6265,206.936,246.394
138.895,67.1581,201.195,248.009
134.649,67.2157,196.565,246.436
130.826,72.7562,192.536,250.857
124.823,81.9143,187.426,256.613
119.711,79.5947,183.225,250.346
112.927,79.3046,178.118,245.85
107.465,78.3761,173.569,241.425
102.784,80.9596,169.345,241.373
98.2219,81.5072,165.079,239.118
93.469,82.7412,160.37,237.255
89.5539,83.2673,156.784,237.064
87.0476,85.8149,154.933,239.399
83.5386,86.6977,151.801,241.413
78.773,87.7319,147.963,242.891
72.4055,87.9906,142.942,243.553
64.0984,91.4459,135.145,245.977
55.6952,93.968,126.368,250.049
48.7142,96.2073,120.157,255.816
42.7631,97.4606,115.788,257.162
36.7625,99.0534,110.981,258.624
32.067,99.4623,106.78,260.006
28.3639,99.3581,103.213,261.672
22.5496,99.0503,98.0485,262.919
19.893,95.6539,95.3935,261.15
18.0202,86.9896,92.6522,256.563
17.4943,82.0402,92.4486,252.614
16.0863,79.7123,90.6813,250.959
14.9291,76.6747,89.3739,249.301
12.3359,75.2287,87.1002,249.122
10.3366,73.7769,85.1457,250.251
8.73048,74.0691,82.2972,252.979
7.87598,72.9618,80.4865,256.754
7.29497,74.9114,79.2417,260.863
4.74635,78.5947,74.3659,269.971
3.83577,81.6155,72.1341,280.247
3.61395,84.7884,71.451,285.194
3.50007,88.3555,70.7117,290.688
3.7216,91.1424,70.2064,295.245
3.65479,93.2788,69.7509,298.583
3.84975,93.4569,70.3129,298.897
3.81409,93.9513,70.2319,299.862
3.83842,94.6384,70.2997,301.021
3.82931,95.3742,70.3973,302.474
3.93471,96.2624,71.3318,305
3.91674,96.0584,71.7718,306.616
3.96645,96.4845,72.2734,309.281
4.05694,95.8702,72.7913,311.433
4.16133,96.2018,73.2604,314.117
4.35948,96.1579,73.8233,314.773
4.33629,95.834,73.8594,315.611
4.58729,95.6137,74.6786,316.173
4.87849,94.3943,75.8759,316.455
4.87193,92.3479,77.0481,317.14
4.77948,90.9108,77.8221,317.317
4.01164,87.9159,77.8383,315.253
2.49162,87.9203,76.6434,314.521
2.3562,87.2822,76.881,314.158
2.54214,87.3359,77.5598,314.178
2.70219,87.7991,78.4057,313.601
2.78011,88.0169,79.066,310.914
2.67954,87.1948,79.2921,307.103
1.86698,87.9242,79.5365,296.722
0.407718,89.5585,78.483,287.353
0,91.8524,77.9487,281.422
0,93.0534,77.6048,278.993
0,93.0613,78.1533,273.421
0.586285,92.6023,79.7495,268.808
0.739415,91.1483,80.8596,266.728
1.88465,89.0897,83.3677,263.677
3.62382,85.7408,85.2847,260.03
6.16695,82.8704,88.5188,256.414
8.15082,80.368,91.1119,253.198
8.47494,79.7088,91.3812,251.657
8.4026,79.9242,91.2839,250.909
8.60353,79.7829,91.4388,250.641
8.66453,79.9251,91.5657,250.716
8.68459,79.9925,91.5927,250.685
8.53612,80.2962,91.5143,250.41
8.41892,80.7574,91.6005,250.772
8.49759,80.9735,92.0631,251.241
8.61465,82.0675,92.6243,250.843
8.74169,83.4618,93.3178,250.092
8.9497,85.1423,94.0292,249.318
9.50586,87.2141,95.2526,248.53
9.84384,89.0798,96.3245,247.425
10.015,91.3711,97.0512,246.364
10.9349,94.5277,99.7953,245.04
11.0937,96.2792,101.088,244.827
10.879,98.1844,101.92,244.741
10.8985,101.358,104.932,244.454
12.0846,104.245,108.813,244.667
13.4639,106.227,112.525,244.333
13.8076,107.349,115.171,243.914
16.0571,109.878,120.681,243.473
16.8618,109.677,125.538,242.134
17.2776,110.318,130.964,241.616
16.9357,110.401,136.632,241.659
16.6203,108.511,139.064,242.028
17.1943,106.411,142.221,242.582
17.2983,105.673,142.568,243.137
17.4176,104.167,142.973,242.814
18.0447,102.347,144.839,242.839
18.106,100.719,145.439,242.148
18.9186,99.7436,146.943,241.456
18.2841,98.0847,147.962,240.615
18.2777,96.7872,148.974,240.899
18.8555,95.6529,150.212,242.027
19.0938,94.828,150.919,242.16
19.4275,93.842,151.143,242.126
18.4396,94.3685,150.962,243.133
18.6919,95.2549,151.654,244.094
18.8692,96.8139,151.376,245.594
19.752,98.1844,151.72,247.265
20.7636,98.0754,151.394,248.026
21.4784,97.8712,151.486,248.671
21.8435,97.8561,152.034,249.015
22.4823,97.2756,152.527,249.313
23.8432,96.3371,153.576,250.051
25.5396,95.8146,155.021,250.836
27.7109,94.4041,156.401,251.646
29.0596,93.0066,157.9,251.714
31.6334,92.1966,159.653,252.547
33.3993,90.9029,161.593,252.008
35.3227,89.7224,163.43,252.042
37.0078,88.7025,164.494,252.844
41.2227,86.9622,166.548,252.501
47.3741,83.7946,169.869,253.747
53.4488,77.3514,171.986,253.075
61.7115,72.8849,175.682,253.285
72.125,66.0908,181.309,248.533
76.8097,62.3858,183.406,244.273
77.011,60.8422,182.976,242.282
76.5686,60.3477,181.904,241.485
77.3819,59.1199,182.114,240.026
77.5074,57.1018,181.368,237.221
79.2379,55.0571,181.058,236.251
86.5039,57.3461,186.557,239.13
91.581,59.9052,191.044,241.37
95.2155,61.3987,194.327,242.759
100.831,68.7684,200.996,246.888
99.3152,70.2255,200.162,246.57
95.0668,71.473,195.958,246.259
95.3244,72.5503,196.28,246.605
98.2638,74.149,198.054,247.277
100.283,75.1881,199.862,247.318
100.607,75.3885,200.512,247.732
100.588,75.5694,200.594,247.801
101.231,75.5946,201.987,247.319
110.702,76.1636,212.009,245.079
119.216,72.8367,219.95,241.646
121.795,72.8511,222.708,240.859
125.049,75.5257,224.584,240.663
132.485,78.6494,230.556,239.149
134.782,83.0428,233.183,237.098
135.791,86.3279,233.376,234.937
137.055,87.8418,234.412,233.336
137.202,87.002,234.145,230.765
137.36,87.5544,234.439,228.755
137.93,87.5749,235.718,226.199
137.676,85.9432,235.919,223.191
138.506,86.3394,237.207,221.726
141.353,86.3845,240.433,218.678
144.376,86.8174,242.373,217.651
150.182,87.7825,246.676,215.623
153.572,86.2538,249.272,213.233
153.988,86.6384,249.895,213.035
154.866,86.8328,250.616,212.398
155.646,87.2533,251.568,212.339
157.128,86.2256,252.837,211.132
158.176,87.2635,254.082,211.274
159.326,87.7628,255.263,211.896
162.441,89.1261,257.973,212.558
161.779,91.289,256.977,212.866
161.541,91.0853,256.245,213.283
161.934,92.7089,255.353,214.39
162.194,93.3657,255.3,215.197
162.888,92.4305,255.891,215.009
163.556,92.6967,254.951,216.26
164.05,93.3323,254.967,217.28
166.193,94.0888,256.092,218.366
166.872,95.3259,256.13,219.611
166.67,97.0273,255.95,221.08
166.553,98.9615,255.266,222.891
166.79,99.666,255.543,223.361
166.77,100.368,255.701,224.186
166.273,100.703,255.22,224.71
166.261,101.92,254.75,225.978
166.149,103.577,254.153,227.291
166.583,104.736,254.161,227.984
166.862,104.844,254.29,227.719
166.621,105.053,253.862,227.765
166.662,105.779,254.135,228.291
166.616,106.337,253.749,228.933
166.502,106.533,253.562,229.232
166.362,106.694,253.113,229.165
166.659,106.845,253.185,228.986
167.065,107.443,253.634,229.025
167.322,107.699,253.358,228.647
167.577,107.622,253.741,228.211
167.75,107.534,253.938,228.319
167.886,107.391,254.118,228.28
167.881,107.542,254.041,228.194
167.865,107.316,253.965,228.142
167.78,107.325,254.135,228.044
163.11,105.287,247.766,225.04
163.524,105.711,248.043,224.309
165.077,105.389,249.809,223.867
165.139,105.153,249.965,223.552
165.598,104.309,250.052,223.076
166.377,103.431,250.326,222.789
166.662,102.656,250.454,222.86
166.812,102.037,250.156,223.03
166.459,102.363,249.703,223.443
166.352,102.098,249.333,223.692
166.425,102.359,249.428,224.14
166.378,102.429,249.695,224.293
166.054,103.06,249.173,224.562
167.091,102.272,250.179,224.758
167.594,102.845,251.05,224.57
166.651,103.939,249.838,224.633
168.531,104.504,251.758,224.844
168.659,104.604,252.136,225.022
168.663,104.678,252.139,225.067
168.668,104.786,252.162,225.003
168.598,105.026,252.127,225.311
168.856,105.232,252.722,225.382
168.93,105.411,252.848,225.786
168.9,105.513,252.827,225.887
168.842,105.735,252.596,225.98
168.861,106.011,252.721,226.279
168.893,106.442,252.812,226.635
168.89,106.808,252.664,227.014
168.961,107.286,252.862,227.496
169.068,107.6,252.875,228.003
169.342,107.85,252.931,228.25
169.915,107.876,253.379,228.369
169.85,108.176,253.235,228.488
169.65,108.433,253.001,228.534
169.706,108.572,253.092,229.05
169.507,108.606,252.734,228.773
169.55,108.669,252.936,229.055
169.526,108.809,252.774,229.139
169.615,108.924,252.876,229.295
169.713,108.973,253.066,229.283
169.764,109.051,253.183,229.525
169.195,109.496,251.832,229.899
174.2,107.917,256.946,229.213
173.963,107.565,256.572,229.266
169.122,102.802,254.749,228.796
161.253,98.5568,246.862,227.866
144.9,100.012,228.866,231.114
140.765,105.308,222.795,238.182
134.18,111.953,215.599,243.554
132.491,124.512,213.049,254.526
133.154,138.05,211.657,267.888
134.572,149.58,211.203,278.903
135.561,161.295,211.678,292.127
138.387,165.178,214.701,299.281
141.123,166.383,217.337,301.849
146.298,169.808,221.345,306.485
151.412,175.755,225.684,314.387
152.956,179.164,226.972,318.531
155.959,184.244,229.532,325.404
158.252,192.613,232.401,334.202
158.998,197.513,233.749,340.921
159.128,203.216,234.028,345.519
159.015,205.801,233.888,347.675
158.848,208.568,233.735,350.115
159.342,210.162,234.183,351.769
160.564,210.36,235.592,352.694
161.154,210.524,236.572,352.997
162.211,210.551,237.608,353.106
162.804,210.788,238.184,353.854
163.679,210.908,239.144,354.61
164.597,210.731,240.168,355.052
165.429,210.772,241.446,355.444
165.75,210.942,242.235,355.868
165.866,211.033,242.441,355.913
166.136,211.119,243.165,356.04
166.46,211.158,243.955,356.104
166.532,211.208,244.053,356.129
166.891,211.331,244.93,356.195
167.159,211.408,245.641,356.334
167.192,211.451,245.666,356.38
167.224,211.486,245.694,356.422
167.242,211.517,245.705,356.455
167.267,211.553,245.728,356.499
167.321,211.588,245.788,356.536
167.368,211.626,245.838,356.57
167.432,211.672,245.903,356.62
167.486,211.712,245.955,356.658
167.563,211.751,246.034,356.696
167.597,211.786,246.063,356.733
167.645,211.825,246.113,356.772
167.709,211.868,246.185,356.808
167.732,211.904,246.193,356.852
167.766,211.936,246.23,356.883
167.833,211.968,246.301,356.915
167.892,212.007,246.364,356.954
167.975,212.061,246.464,357.009
168.012,212.099,246.477,357.051
168.065,212.133,246.531,357.085
168.117,212.172,246.582,357.123
168.178,212.215,246.649,357.162
168.23,212.252,246.699,357.198
168.263,212.282,246.728,357.227
168.317,212.346,246.791,357.292
168.353,212.397,246.82,357.347
168.407,212.466,246.884,357.411
168.464,212.543,246.962,357.477
168.528,212.658,247.021,357.644
168.552,212.702,247.016,357.694
168.585,212.743,247.064,357.711
168.657,212.799,247.125,357.773
168.726,212.884,247.231,357.838
168.991,212.944,247.998,357.971
169.244,213.208,248.704,358.665
169.266,213.274,248.743,358.747
169.284,213.325,248.753,358.783
169.311,213.427,248.775,358.901
169.333,213.512,248.804,358.999
169.354,213.627,248.856,359.166
169.61,213.933,249.567,359.939
169.637,214.216,249.595,360.668
169.661,214.286,249.631,360.748
169.673,214.335,249.634,360.779
169.691,214.385,249.652,360.823
169.708,214.431,249.668,360.876
169.73,214.495,249.688,360.954
169.751,214.534,249.709,360.982
169.775,214.645,249.741,361.099
169.789,214.723,249.761,361.168
169.802,214.774,249.76,361.224
169.82,214.867,249.797,361.34
169.83,214.896,249.789,361.349
169.85,214.953,249.815,361.393
169.865,215.002,249.825,361.453
169.883,215.042,249.842,361.488
169.902,215.091,249.862,361.537
169.921,215.143,249.882,361.605
169.94,215.171,249.899,361.613
169.957,215.217,249.919,361.658
169.983,215.339,249.959,361.793
169.992,215.363,249.953,361.799
170.008,215.405,249.974,361.847
170.02,215.456,249.998,361.894
170.029,215.527,250.002,362.002
170.041,215.568,250.003,362.032
170.057,215.599,250.023,362.041
170.07,215.643,250.034,362.101
170.087,215.701,250.055,362.177
170.101,215.769,250.079,362.251
170.108,215.811,250.076,362.297
170.122,215.832,250.083,362.289
170.139,215.921,250.116,362.403
170.147,215.943,250.112,362.412
170.166,216.002,250.146,362.478
170.174,216.014,250.134,362.451
170.191,216.046,250.152,362.483
170.209,216.078,250.17,362.515
170.227,216.111,250.188,362.551
170.244,216.141,250.205,362.578
170.262,216.174,250.223,362.612
170.285,216.25,250.249,362.748
170.308,216.287,250.263,362.801
170.333,216.624,250.285,363.536
170.355,216.67,250.318,363.605
170.373,216.703,250.334,363.64
170.389,216.733,250.351,363.663
170.379,216.752,250.332,363.645
170.232,216.743,249.891,363.663
170.033,216.882,249.87,363.727
168.919,217.01,249.62,364.136
165.793,220.243,251.534,365.736
164.743,221.156,252.874,366.676
165.362,220.252,253.985,367.098
165.716,220.649,254.509,367.932
165.55,221.883,254.172,368.986
164.777,223.619,253.805,371.796
164.693,223.845,255.015,376.432
173.329,222.633,264.764,379.982
180.607,221.724,270.87,380.625
180.579,221.914,270.813,381.156
179.999,221.858,270.271,381.791
178.269,222.335,268.775,382.049
176.361,222.986,267.275,383.337
175.205,223.457,266.622,383.379
174.342,223.601,266.311,383.259
172.603,223.692,265.438,383.308
171.972,224.006,265.251,383.59
171.527,224.324,265.254,383.947
170.662,224.579,265.096,384.153
169.805,224.893,264.613,384.499
169.48,225.351,264.577,385.047
169.14,225.962,264.812,385.504
169.169,226.352,265.207,386.142
169.245,226.569,265.735,386.375
169.241,226.668,265.694,386.601
169.479,226.53,265.745,386.84
170.337,226.766,266.562,387.877
173.024,226.919,269.343,388.6
178.205,227.733,274.37,389.491
185.634,227.305,281.955,389.116
195.925,228.859,291.103,388.725
214.828,231.654,308.23,391.894
223.224,231.306,314.398,397.723
227.723,231.989,318.344,401.471
230.466,233.684,320.817,403.165
232.116,234.599,321.995,404.523
234.002,237.117,323.771,406.908
234.716,238.443,325.005,408.525
234.074,237.217,325.131,408.64
234.079,236.035,325.45,407.948
234.235,235.978,325.46,407.873
234.636,234.978,325.879,406.693
235.964,233.371,327.569,404.957
243.643,231.696,335.627,400.979
252.574,230.075,343.706,399.008
255.507,227.574,346.589,396.612
254.011,219.614,344.087,390.078
251.923,214.026,342.253,383.181
251.873,210.28,342.305,378.784
252.179,208.752,342.549,377.149
252.222,208.572,342.653,376.82
252.13,208.123,342.449,376.393
252.103,207.736,342.442,376.116
252.089,207.234,342.369,375.682
252.115,206.707,342.333,375.175
252.128,206.075,342.301,374.587
252.179,205.585,342.24,374.562
252.294,205.2,342.435,374.177
252.392,204.905,342.568,373.805
252.439,204.487,342.434,373.408
252.345,204.005,341.714,372.907
252.144,203.052,340.97,372.004
251.94,202.346,340.36,371.059
251.678,201.201,339.094,369.853
251.642,200.659,338.455,369.023
251.716,199.843,337.772,367.885
251.949,199.504,337.928,367.623
252.046,198.894,337.35,367.13
252.474,197.853,336.699,365.755
252.546,195.49,335.777,362.934
253.149,193.974,335.283,361.21
253.443,192.024,334.575,359.254
254.008,190.898,334.212,358.236
254.346,189.127,333.85,356.37
255.035,185.845,332.682,353.398
255.234,181.346,331.331,350.733
255.114,176.071,329.984,346.555
254.716,168.657,327.972,341.928
254.526,166.394,327.401,341.055
254.228,163.865,326.533,340.207
254.064,162.516,325.948,339.701
253.973,161.289,325.416,339.524
253.836,160.242,324.888,339.358
253.732,158.682,324.573,339.202
253.63,156.973,323.855,339.227
253.799,156.486,323.902,339.495
254.028,156.008,324.008,340.172
254.076,155.532,323.691,340.571
254.193,155.167,323.804,340.953
254.309,154.468,323.838,340.921
254.516,153.914,324.106,340.786
254.705,153.69,324.463,340.868
254.792,153.331,324.47,341.171
254.933,153.114,324.689,341.195
254.783,152.629,324.374,341.304
254.989,152.609,324.816,341.657
254.996,152.474,324.742,342.038
254.994,152.343,324.76,342.389
254.98,152.134,324.696,342.727
255.081,152.185,324.977,343.188
255.064,152.137,324.848,343.669
255.062,151.92,324.817,344.02
255.155,152.022,325.036,344.453
255.17,151.941,325.042,344.377
255.189,151.842,325.055,344.284
255.193,151.735,325.057,344.162
255.151,151.615,325,343.969
255.177,151.575,325.066,343.987
255.109,151.424,324.899,343.801
255.123,151.244,324.923,343.733
255.187,151.203,325.098,343.606
255.178,151.148,324.987,343.577
255.172,151.119,324.941,343.508
255.242,151.06,324.98,343.477
255.161,150.548,324.643,342.94
255.088,150.487,324.387,342.868
255.17,150.542,324.556,342.937
255.22,150.595,324.666,343.015
255.243,150.636,324.698,343.05
255.256,150.684,324.686,343.11
255.277,150.75,324.68,343.176
255.317,150.873,324.709,343.278
255.361,150.974,324.76,343.398
255.404,151.088,324.768,343.541
255.459,151.327,324.726,343.73
255.55,151.438,324.796,343.842
255.65,151.593,324.833,343.95
255.54,151.831,324.528,344.071
255.535,152.619,324.138,344.6
255.783,153.516,324.648,344.524
256.038,154.341,324.934,344.987
258.035,155.409,326.606,345.891
264.173,157.572,332.421,347.387
275.326,163.758,343.191,352.638
286.271,171.528,354.141,359.373
292.533,174.384,361.293,361.854
295.554,171.489,365.261,358.111
292.3,164.94,362.685,349.931
288.507,147.599,360.413,332.287
295.078,142.908,369.579,327.811
301.642,143.161,377.024,323.545
308.062,142.905,384.156,321.089
317.371,137.87,394.084,317.74
329.086,139.799,405.497,320.127
334.903,142.336,410.355,322.934
336.968,144.876,412.627,324.159
339.157,146.976,415.09,324.812
340.351,148.471,416.37,325.09
341.796,150.415,418.255,326.223
343.195,153.111,419.624,327.614
344.166,156.248,420.657,329.202
344.423,157.269,420.85,329.543
344.593,158.276,421.045,329.982
344.846,159.335,421.254,330.53
345.368,162.045,421.766,330.743
346.055,165.82,422.73,331.048
346.938,172.383,424.243,332.003
347.411,176.337,424.808,332.167
347.662,178.906,425.19,332.3
347.961,179.033,425.938,332.352
348.017,179.208,425.992,332.501
348.056,179.611,426.043,332.59
348.127,180.39,426.171,332.225
348.351,181.205,426.852,331.855
348.594,182.054,427.565,331.823
348.64,182.983,427.552,331.53
348.684,184.063,427.647,331.635
348.738,185.022,427.614,331.771
348.829,186.028,427.716,331.613
348.902,186.477,427.849,332.187
348.936,186.729,427.886,332.574
348.98,186.846,427.945,332.745
349.065,187.054,428.046,332.897
349.229,187.241,428.224,333.153
349.386,187.371,428.38,333.229
349.448,187.459,428.422,333.348
349.727,187.901,428.6,333.425
350.074,188.403,429.003,334.045
350.363,188.865,429.328,334.566
350.713,189.169,429.672,335
351.042,189.756,430.148,335.5
351.337,191.193,430.943,336.378
351.558,191.361,431.525,336.789
351.587,191.471,431.535,336.913
351.606,188.866,431.882,335.904
349.388,178.357,431.473,335.107
347.928,174.96,431.127,336.485
347.307,174.57,431.508,337.791
346.695,174.3,431.736,338.349
346.828,174.583,432.376,339.043
347.03,174.826,433.03,339.353
347.529,176.249,433.252,341.561
348.444,177.501,434.497,343.178
349.85,179.685,436.183,345.74
352.429,182.55,438.702,348.127
354.858,184.968,441.134,351.033
356.699,188.221,443.234,353.643
358.233,192.123,444.944,356.345
358.826,196.529,445.155,360.152
358.939,199.777,444.937,362.671
359.051,201.903,444.32,364.49
359.151,204.525,444.007,366.638
359.153,206.601,443.729,368.547
359.114,208.501,443.724,369.653
359.16,210.176,444.065,371.328
358.944,211.702,443.672,373.27
358.952,211.754,443.767,374.203
358.812,211.453,443.655,374.321
358.808,211.431,443.677,374.456
358.65,211.443,443.398,375.173
358.552,211.014,443.383,375.845
358.576,210.931,443.524,376.109
358.549,211,443.49,376.531
358.537,211.194,443.453,377.155
358.568,211.202,443.501,377.132
358.589,211.229,443.542,377.169
358.583,211.224,443.514,377.199
358.593,211.208,443.521,377.177
358.606,211.252,443.554,377.22
358.603,211.376,443.587,377.313
358.608,211.416,443.566,377.343
358.617,211.44,443.574,377.389
358.637,211.467,443.595,377.395
358.688,211.62,443.579,377.538
358.736,211.667,443.69,377.611
358.748,211.683,443.705,377.626
358.765,211.708,443.723,377.641
358.779,211.733,443.737,377.67
358.801,211.765,443.76,377.691
358.82,211.795,443.776,377.722
358.84,211.826,443.797,377.753
358.86,211.862,443.818,377.791
358.879,211.899,443.837,377.827
358.889,211.886,443.844,377.827
358.91,211.92,443.868,377.846
358.928,211.958,443.886,377.886
358.949,211.998,443.906,377.924
358.972,212.058,443.927,377.97
359.001,212.191,443.952,378.053
359.023,212.261,443.981,378.189
359.042,212.297,444,378.226
359.057,212.328,444.015,378.266
359.076,212.383,444.036,378.325
359.107,212.54,444.037,378.503
359.139,212.556,444.097,378.487
359.157,212.593,444.116,378.525
359.175,212.628,444.133,378.556
359.201,212.657,444.151,378.607
359.226,212.675,444.182,378.611
359.246,212.707,444.204,378.636
359.26,212.747,444.223,378.691
359.268,212.768,444.228,378.715
359.284,212.805,444.244,378.744
359.301,212.867,444.262,378.785
359.316,212.905,444.273,378.838
359.352,213.057,444.294,378.895
359.377,213.135,444.335,379.057
359.398,213.169,444.355,379.103
359.42,213.195,444.376,379.132
359.438,213.197,444.388,379.169
359.457,213.219,444.417,379.166
359.47,213.262,444.434,379.215
359.486,213.224,444.431,379.217
359.507,213.208,444.462,379.159
359.526,213.202,444.478,379.166
359.556,213.208,444.505,379.162
359.582,213.233,444.536,379.17
359.601,213.261,444.559,379.194
359.617,213.28,444.572,379.226
359.637,213.289,444.592,379.238
359.657,213.299,444.612,379.245
359.676,213.316,444.632,379.256
359.692,213.323,444.647,379.277
359.711,213.344,444.669,379.276
359.732,213.367,444.687,379.308
359.752,213.397,444.71,379.326
359.769,213.423,444.718,379.356
359.791,213.456,444.749,379.385
359.81,213.492,444.768,379.42
359.828,213.525,444.783,379.454
359.848,213.562,444.807,379.49
359.867,213.597,444.825,379.523
359.886,213.634,444.844,379.563
359.902,213.667,444.862,379.585
359.92,213.709,444.878,379.637
359.938,213.743,444.897,379.668
359.959,213.787,444.916,379.711
359.981,213.819,444.937,379.755
360.013,213.813,444.96,379.777
360.042,213.813,444.995,379.761
360.075,213.804,445.023,379.768
360.105,213.798,445.057,379.751
360.131,213.808,445.085,379.752
360.153,213.836,445.111,379.764
360.174,213.863,445.13,379.801
360.2,213.872,445.153,379.818
360.222,213.897,445.18,379.827
360.242,213.933,445.2,379.861
360.265,213.955,445.219,379.899
360.289,213.974,445.244,379.913
360.31,214.004,445.268,379.933
360.329,214.041,445.287,379.969
360.348,214.077,445.306,380.005
360.367,214.113,445.325,380.042
360.386,214.149,445.344,380.078
360.411,214.226,445.361,380.123
360.434,214.277,445.392,380.206
360.453,214.314,445.411,380.242
360.472,214.35,445.43,380.278
360.491,214.386,445.449,380.315
360.508,214.42,445.467,380.343
360.527,214.459,445.485,380.388
360.546,214.496,445.504,380.424
360.565,214.532,445.523,380.46
360.584,214.568,445.542,380.497
360.604,214.612,445.56,380.535
360.623,214.651,445.581,380.579
360.642,214.687,445.6,380.615
360.664,214.747,445.618,380.657
360.694,214.851,445.639,380.732
360.721,214.93,445.677,380.844
360.737,215.031,445.701,380.917
360.752,215.087,445.71,381.017
360.759,215.116,445.729,381.058
360.771,215.143,445.729,381.073
360.79,215.178,445.748,381.106
360.808,215.213,445.766,381.143
360.825,215.245,445.783,381.178
360.844,215.28,445.802,381.208
360.863,215.316,445.821,381.244
360.869,215.301,445.808,381.269
360.846,214.998,445.7,381.157
360.899,215.07,445.799,381.571
360.904,215.105,445.788,382.12
360.922,215.079,445.717,382.568
360.979,214.943,445.8,382.326
361.034,214.952,445.943,382.338
361.072,215.009,446.012,382.425
361.107,215.075,446.06,382.486
361.132,215.132,446.087,382.551
361.159,215.195,446.112,382.605
361.181,215.24,446.139,382.668
361.2,215.277,446.158,382.704
361.219,215.314,446.177,382.742
361.238,215.35,446.196,382.778
361.257,215.387,446.215,382.815
361.276,215.423,446.234,382.851
361.295,215.46,446.253,382.888
361.313,215.495,446.27,382.921
361.332,215.533,446.29,382.961
361.347,215.564,446.301,382.982
361.368,215.606,446.326,383.034
361.387,215.662,446.345,383.081
361.389,215.935,446.354,383.215
361.377,216.339,446.342,383.53
361.388,216.621,446.343,383.934
361.408,216.714,446.366,384.142
361.255,215.986,445.703,384.122
361.002,216.201,445.982,384.772
362.365,209.709,452.757,381.502
360.655,209.335,454.049,380.778
359.241,207.654,458.752,378.816
359.774,207.379,459.362,379.059
359.971,207.498,459.934,379.445
359.976,207.449,459.95,379.413
359.971,207.358,459.943,379.363
359.973,207.553,459.937,380.01
359.955,207.336,459.932,379.996
359.96,207.463,459.922,380.404
359.958,207.24,459.917,380.439
359.958,207.176,459.912,380.842
359.967,207.295,459.928,381.252
359.978,207.286,459.938,381.228
359.994,207.301,459.949,381.233
360.011,207.31,459.969,381.248
360.019,207.306,459.977,381.255
360.032,207.312,459.988,381.249
360.052,207.336,460.004,381.265
360.07,207.349,460.027,381.286
360.087,207.37,460.041,381.301
360.09,207.326,460.047,381.331
360.095,207.519,460.053,381.993
360.093,207.415,460.052,381.968
360.075,207.473,460.043,382.569
360.065,207.594,460.032,383.083
360.055,207.551,460.014,383.016
360.067,207.556,460.018,382.992
360.076,207.55,460.029,383.012
360.097,207.57,460.048,382.994
360.116,207.599,460.068,383.031
360.133,207.615,460.088,383.052
360.149,207.634,460.102,383.068
360.163,207.658,460.114,383.093
360.183,207.684,460.135,383.114
360.196,207.692,460.151,383.136
360.184,207.67,460.146,383.131
360.197,207.68,460.149,383.113
360.217,207.706,460.169,383.135
360.228,207.716,460.183,383.16
360.243,207.735,460.193,383.169
360.257,207.757,460.208,383.194
360.272,207.76,460.23,383.203
360.281,207.767,460.234,383.211
360.29,207.774,460.241,383.22
360.294,207.756,460.252,383.216
360.309,207.755,460.265,383.192
360.317,207.755,460.272,383.204
360.331,207.761,460.286,383.199
360.351,207.793,460.302,383.217
360.374,207.831,460.324,383.256
360.393,207.864,460.345,383.293
360.412,207.89,460.364,383.322
360.429,207.899,460.387,383.336
360.444,207.906,460.403,383.343
360.462,207.934,460.414,383.36
360.483,207.962,460.436,383.391
360.504,207.998,460.455,383.422
360.526,208.036,460.477,383.46
360.549,208.074,460.499,383.499
360.571,208.113,460.522,383.537
360.592,208.143,460.545,383.571
360.612,208.168,460.566,383.598
360.632,208.2,460.584,383.626
360.654,208.237,460.605,383.662
360.672,208.247,460.631,383.686
360.689,208.268,460.643,383.698
360.71,208.304,460.66,383.728
360.732,208.342,460.683,383.766
360.754,208.38,460.705,383.804
360.773,208.391,460.731,383.829
360.783,208.369,460.748,383.822
360.789,208.332,460.757,383.787
360.794,208.297,460.762,383.751
360.805,208.3,460.762,383.735
360.819,208.292,460.781,383.738
360.834,208.312,460.787,383.74
360.853,208.331,460.809,383.765
360.869,208.339,460.827,383.777
360.876,208.303,460.846,383.759
360.887,208.314,460.841,383.744
360.908,208.349,460.859,383.773
360.93,208.387,460.881,383.812
360.949,208.398,460.907,383.837
360.901,208.444,460.883,383.862
360.547,208.425,460.719,383.863
357.903,207.669,459.184,383.445
354.739,208.021,457.775,382.814
348.812,212.586,458.265,381.091
350.988,213.195,461.227,377.304
354.998,207.362,466.462,368.572
365.153,203.652,475.492,360.737
368.013,203.445,477.387,358.055
369.086,202.623,477.836,354.559
370.025,202.448,478.326,351.766
370.866,203.07,478.841,350.333
371.668,203.828,479.126,346.409
372.634,203.932,479.59,344.467
373.159,204.794,479.796,343.591
373.681,205.129,480.418,343.108
373.905,205.185,480.768,342.662
374.097,205.224,480.973,342.416
374.393,205.278,481.133,342.052
374.569,205.294,481.279,341.545
374.495,204.748,481.12,340.102
374.627,204.797,480.94,339.324
374.686,204.998,480.946,339.544
374.797,205.257,481.012,339.8
374.93,205.493,481.342,340.297
374.967,205.603,481.411,340.489
374.987,205.594,481.379,340.428
374.999,205.707,481.316,340.195
375.054,205.693,481.394,339.928
375.098,205.823,481.437,340.081
375.034,206.114,480.966,338.791
375.079,205.561,480.518,337.508
375.12,205.515,480.456,337.336
375.294,205.569,480.561,337.376
375.464,205.652,480.769,337.49
375.603,205.741,480.932,337.588
375.774,205.793,481.017,337.463
375.832,205.865,480.895,336.618
375.85,206.056,480.953,335.385
375.911,206.444,480.639,334.251
376.145,207.072,480.312,333.56
376.472,207.323,480.243,332.945
376.866,207.662,479.935,332.89
377.271,207.709,480.071,332.715
377.669,208.016,479.843,332.956
378.217,208.104,479.613,332.234
378.403,208.259,479.324,332.385
378.796,208.499,478.954,332.356
379.203,208.613,478.817,331.779
379.567,208.587,478.802,331.581
380.213,208.564,478.187,330.049
380.337,208.46,477.913,329.556
380.713,208.793,478.218,329.485
381.046,209.036,478.534,329.004
381.067,208.981,478.19,328.66
381.318,208.933,478.197,328.669
381.317,208.946,478.055,328.732
381.582,208.885,477.677,328.505
381.793,208.994,477.983,328.848
382.117,208.865,477.629,328.576
382.659,208.522,476.966,328.217
382.901,208.389,476.421,328.018
383.262,208.097,476.58,328.012
380.093,205.597,474.6,327.153
380.337,205.819,475.286,327.767
380.045,206.239,474.217,329.93
380.789,205.946,474.388,329.879
381.845,206.268,474.266,329.727
382.362,206.389,473.601,329.51
382.573,206.471,473.488,329.767
382.714,206.481,473.18,329.762
383.076,206.588,472.615,329.727
383.696,206.827,472.906,329.83
384.511,207.078,472.712,330.229
384.983,207.246,473.025,330.409
385.654,207.317,473.617,330.374
386.111,207.237,473.553,330.38
386.346,207.215,473.637,330.539
386.681,206.81,473.631,330.197
386.898,206.854,473.479,330.19
387.131,206.958,473.996,330.321
387.244,206.882,473.905,330.269
387.427,206.921,474.228,330.268
387.64,207.062,474.206,330.307
387.902,207.204,474.659,330.55
388.052,207.198,474.886,330.525
388.163,207.166,474.993,330.562
388.372,208.071,474.513,329.762
388.738,208.398,473.265,329.228
389.45,208.587,473.173,329.1
390.229,208.893,472.68,329.277
390.63,209.013,472.415,329.336
391.457,209.332,472.169,328.986
392.045,209.585,472.166,329.115
392.668,210.086,472.403,329.081
393.024,210.356,472.538,328.27
393.684,210.556,472.87,327.758
393.943,210.825,473.038,327.699
394.559,211.079,473.248,327.283
395.193,211.38,473.046,327.384
396.294,212.523,472.639,327.903
396.764,214.174,472.612,327.7
397.077,214.456,472.545,328.159
397.611,214.625,472.345,328.496
396.446,213.79,470.19,328.35
392.713,213.467,466.49,329.494
388.7,212.58,463.584,329.251
377.528,213.207,451.658,328.333
358.818,217.177,432.946,330.354
337.56,223.441,412.06,335.431
332.376,228.711,405.662,341.37
327.432,223.833,400.853,335.576
322.742,216.48,395.874,327.734
319.298,210.239,392.106,322.231
317.87,207.43,390.311,319.759
317.554,206.415,389.693,318.978
317.651,206.005,389.902,319.08
317.593,205.474,389.877,319.007
317.69,205.454,390.022,319.437
317.745,205.025,390.023,319.03
317.827,204.614,390.06,319.037
317.833,203.908,390.029,318.439
317.762,203.527,389.905,318.604
317.727,203.274,389.833,318.794
317.793,203.098,390.025,319.086
317.81,202.654,390.058,318.688
317.844,202.475,390.084,318.996
317.869,202.149,390.023,319.239
317.782,201.361,389.893,318.948
317.755,200.979,390.002,318.935
317.641,200.543,389.876,318.561
317.615,200.392,389.835,318.899
317.483,199.861,389.588,318.867
317.404,199.444,389.531,319.019
317.428,199.216,389.633,319.204
317.283,198.653,389.419,318.549
316.841,198.242,388.884,317.938
316.642,198.096,388.723,317.867
316.511,197.895,388.628,317.709
316.601,197.915,388.846,317.78
316.61,197.909,388.907,317.784
316.529,197.866,388.883,317.765
316.244,197.696,388.578,317.575
315.41,196.525,387.898,316.755
316.045,194.093,387.249,315.028
310.899,191.095,383.628,310.716
309.084,194.063,381.585,315.205
309.258,194.132,382.068,315.643
310.319,194.449,383.078,315.997
311.922,194.058,384.663,316.259
313.835,193.287,386.876,316.057
315.409,192.537,389.451,315.099
315.753,192.492,390.539,314.802
315.841,192.422,390.804,314.876
315.906,192.026,390.947,314.717
316.022,191.81,391.39,314.711
315.924,190.985,390.607,313.887
316.072,190.603,390.962,313.669
316.124,190.413,390.849,313.929
316.291,190.36,391.142,314.401
316.464,190.447,391.01,314.926
316.433,190.164,390.09,314.461
316.93,190.11,388.897,314.441
317.094,189.571,387.529,314.247
317.366,188.885,386.699,314.22
318.137,188.33,385.883,313.797
318.696,188.368,385.46,313.651
319.001,188.897,385.409,313.912
319.024,189.37,385.221,314.051
319.411,192.441,385.107,314.371
319.958,192.653,385.382,314.31
320.104,192.87,385.415,314.807
320.26,193.139,385.644,314.991
320.31,193.719,385.784,315.407
319.29,194.604,384.914,315.899
314.787,193.125,379.972,314.21
306.782,189.066,373.446,310.527
296.46,186.372,366.342,308.098
307.263,185.661,377.914,306.356
308.016,186.337,379.526,306.428
308.974,187.673,380.912,306.107
306.325,185.483,379.31,305.783
304.636,190.757,379.05,310.94
304.414,194.116,379.953,313.198
303.761,199.149,380.867,316.274
303.147,201.872,380.265,317.152
303.923,203.503,381.121,317.605
303.915,204.168,380.919,318.373
303.957,205.693,380.816,318.795
303.868,206.6,380.836,319.168
303.889,207.37,380.731,319.678
304.034,207.785,380.934,319.816
304.302,208.25,381.176,320.33
304.472,208.845,381.321,320.718
304.558,209.238,381.389,320.772
304.459,209.763,381.277,320.893
304.07,210.21,380.813,320.598
303.114,210.442,379.334,319.979
302.216,211.356,378.508,320.885
302.548,211.178,378.095,320.835
301.828,210.988,377.587,320.29
302.709,211.034,378.255,319.734
302.657,211.773,378.974,319.873
302.218,211.321,377.719,319.622
302.268,210.743,377.7,319.195
302.074,211.094,376.416,318.35
302.622,210.149,376.075,317.137
303.271,209.279,375.789,316.515
304.746,208.844,376.587,317.027
305.161,206.211,376.267,316.475
307.844,203.741,376.928,315.7
307.535,200.967,375.66,316.327
307.456,198.119,374.609,314.397
310.793,195.828,376.734,312.192
288.356,192.138,354.705,307.579
281.363,187.172,347.192,306.946
279.77,186.186,345.777,306.452
279.942,186.212,346.416,306.679
279.943,186.185,346.435,306.651
279.961,186.138,346.466,306.672
280.329,186.067,347.406,307.342
280.84,185.641,348.405,307.612
281.222,184.989,349.333,307.663
281.195,182.064,350.802,308.948
280.983,180.948,351.98,309.459
280.978,181.175,351.945,310.163
280.991,181.199,351.957,310.138
281.008,181.333,351.973,310.261
280.518,181.798,351.686,310.638
278.459,180.873,349.893,312.625
273.443,178.528,345.144,316.083
268.845,178.435,341.632,317.94
265.245,177.183,337.608,319.332
263.72,176.987,335.669,320.177
263.286,176.841,334.633,320.666
262.962,176.508,333.77,320.688
263.021,176.595,333.87,321.074
262.982,176.377,333.771,320.867
262.774,176.16,333.389,320.599
262.732,175.992,333.415,320.345
262.736,175.826,333.483,320.286
262.796,175.69,333.551,320.206
262.916,175.73,333.607,320.708
263.062,175.736,334.022,320.664
263.101,175.779,334.063,320.675
263.115,175.798,334.099,320.707
263.116,175.722,334.161,320.58
263.347,175.787,334.814,320.705
263.328,175.797,334.806,320.714
262.992,175.11,334.447,319.919
262.985,175.048,334.474,319.875
262.819,174.609,334.409,319.086
262.988,174.55,334.977,318.948
263.004,174.591,334.994,318.847
263.006,174.699,334.973,319.144
263.017,174.721,334.946,319.152
263.04,174.749,334.968,319.183
263.055,174.772,334.997,319.206
263.078,174.787,335.042,319.218
263.071,174.652,335.037,319.088
263.03,174.254,335.051,318.562
263.247,174.154,335.715,318.574
263.238,174.118,335.719,318.462
263.448,174.599,335.726,317.053
263.677,174.791,336.095,316.384
263.738,174.981,336.191,316.908
263.821,175.425,336.237,316.613
265.119,174.659,337.433,315.606
265.835,173.024,338.473,313.476
267.136,172.474,340.039,312.355
267.263,172.465,340.258,312.359
267.274,172.475,340.256,312.406
267.333,172.478,340.288,312.322
267.361,172.553,340.294,312.465
267.526,172.252,340.302,312.161
267.636,172.298,340.6,312.237
267.62,172.373,340.455,312.278
267.585,172.46,340.292,312.36
267.57,172.493,340.135,312.52
267.684,172.72,340.406,313.236
267.798,172.938,340.623,314.008
267.853,173.183,340.641,314.775
267.951,173.378,340.885,315.326
267.982,173.387,340.939,315.364
268.011,173.39,340.966,315.342
268.033,173.377,341.008,315.325
268.054,173.332,341.037,315.265
268.089,173.319,341.057,315.167
268.101,173.392,341.064,315.313
268.085,173.418,341.042,315.294
267.709,173.192,340.615,314.892
267.427,173.134,340.344,314.785
267.398,173.289,340.37,315.156
267.41,173.355,340.374,315.294
267.426,173.386,340.39,315.325
267.443,173.417,340.407,315.356
267.459,173.448,340.423,315.387
267.473,173.411,340.42,315.423
267.501,173.626,340.463,316.079
268.133,173.368,340.864,315.729
270.441,172.433,342.796,314.943
272.168,171.82,344.094,315.045
274.319,171.302,345.421,314.937
276.2,171.002,347.101,315.208
277.679,170.397,348.05,315.227
278.509,169.628,348.723,315.151
279.18,169.174,349.385,315.691
279.685,168.558,349.956,316.079
280.174,167.271,350.249,316.104
280.684,165.423,350.649,315.435
280.991,163.736,350.608,315.027
281.403,162.947,351.1,314.868
281.705,162.697,351.482,314.823
281.938,162.625,351.76,315.213
282.306,161.858,351.728,315.309
282.489,161.156,351.728,315.009
282.768,160.421,351.981,314.882
283.03,159.575,352.103,314.555
283.296,159.116,352.555,314.416
283.471,159.028,352.755,314.602
283.608,159.027,352.96,315.122
283.865,158.48,352.859,315.389
283.884,158.419,352.775,315.416
284.006,158.235,352.739,315.309
284.225,157.763,353.033,315.802
284.509,157.229,353.157,316.186
285.26,155.575,353.157,315.225
285.064,155.703,352.92,315.665
284.284,166.694,351.191,323.224
283.86,171.772,353.135,320.394
283.171,169.891,351.466,319.487
283.256,169.955,351.675,319.949
283.306,169.262,351.616,319.376
283.392,167.468,351.354,319.161
283.437,166.045,351.069,319.055
283.628,164.992,351.308,319.296
283.845,163.514,351.481,319.08
284.019,162.898,351.778,319.191
284.183,162.178,352.022,318.898
284.268,161.906,351.999,319.236
283.537,160.018,350.672,316.888
285.791,171.625,353.018,325.08
282.321,170.348,351.86,328.926
282.601,169.411,352.533,329.456
282.795,167.272,352.55,328.846
283.249,165.045,352.726,327.957
283.419,163.917,352.559,327.463
283.908,162.197,352.805,327.246
284.303,161.113,352.768,327.116
284.603,159.753,352.546,326.723
285.131,158.002,352.165,325.423
285.512,157.27,352.711,325.028
285.75,156.691,353.034,324.85
285.927,155.404,353.014,324.532
286.156,153.487,353.338,324.011
286.312,153.219,353.708,324.349
286.34,152.799,353.724,324.49
286.412,152.66,353.756,324.72
286.536,152.224,353.9,324.932
286.616,152.234,354.041,325.224
286.657,152.195,354.106,325.121
286.688,152.077,354.114,325.032
286.703,152.044,354.114,324.932
286.743,152.082,354.154,324.994
286.767,152.09,354.212,325.013
286.76,152.078,354.213,324.966
286.738,152.082,354.18,324.945
286.764,152.15,354.23,325.064
286.777,152.197,354.246,325.118
286.794,152.257,354.232,325.204
286.823,152.286,354.29,325.211
287.183,152.607,354.658,325.159
288.559,153.256,355.901,325.475
291.491,151.831,361.35,324.187
292.295,152.39,363.437,323.905
292.531,153.608,366.776,324.288
293.46,157.598,368.42,326.657
293.144,162.179,368.818,330.065
293.221,162.477,369.292,330.348
290.626,170.249,368.657,334.087
283.173,186.298,361.611,345.705
267.703,191.724,345.685,351.492
255.303,200.336,337.227,365.401
241.11,197.184,325.298,368.244
230.13,198.675,316.001,373.71
218.47,196.339,305.737,373.699
206.426,193.382,295.996,372.187
195.675,191.77,291.111,369.145
188.203,190.133,287.709,365.878
185.381,187.577,285.862,362.579
179.769,183.17,280.053,357.587
173.898,177.736,274.222,352.141
167.515,168.743,267.447,345.147
159.69,163.767,259.242,341.562
156.172,162.173,255.821,340.26
154.343,160.462,253.646,339.229
152.555,158.826,251.391,338.19
151.702,157.541,249.7,337.057
150.909,157.462,247.587,336.769
150.595,157.474,245.841,335.81
149.913,157.324,244.335,335.279
148.855,156.954,242.171,334.417
148.571,156.718,241.491,333.81
148.292,157.058,240.871,333.582
148.058,157.211,240.514,333.388
147.924,157.353,240.28,333.46
147.887,157.505,240.25,333.758
147.729,157.577,240.138,333.665
146.985,157.272,239.251,333.258
146.973,156.824,239.146,332.666
146.869,156.319,238.262,331.671
146.865,155.358,235.425,329.837
147.367,155.039,235.063,328.77
147.379,154.438,234.35,328.024
147.264,154.309,233.969,327.934
147.429,154.238,234.028,327.856
147.849,153.613,233.448,326.543
148.485,151.916,231.458,322.66
148.623,149.781,230.429,320.548
148.903,149.054,230.121,319.514
149.109,148.787,230.215,318.682
149.606,148.811,230.263,317.673
149.825,148.773,230.683,317.53
149.968,148.782,230.798,317.699
150.061,148.772,231.004,317.712
150.121,148.734,231.023,317.686
150.212,148.709,231.078,317.695
150.316,148.705,231.193,317.661
150.406,148.492,231.277,317.685
150.674,148.34,231.104,317.831
150.66,148.215,231.108,317.524
148.358,150.831,229.554,319.828
150.561,154.581,236.167,316.039
149.742,153.249,234.732,315.245
149.771,152.38,234.312,315.386
149.989,151.77,234.57,315.896
150.169,151.548,234.827,316.246
150.402,151.117,234.836,316.39
150.492,150.784,234.463,316.442
150.582,150.496,234.019,316.745
150.647,150.206,233.684,316.945
150.907,149.816,233.879,317.068
150.946,149.594,233.559,317.249
151.17,149.455,233.833,317.607
151.369,149.302,234.033,317.956
151.546,149.068,234.118,318.418
151.717,148.814,234.453,318.53
151.806,148.677,234.542,318.832
151.859,148.569,234.625,319.18
151.895,148.344,234.6,319.56
151.989,148.267,234.759,319.852
152.041,148.201,234.768,320.34
152.134,148.187,234.934,320.741
152.184,148.166,234.992,321.258
152.231,147.932,234.941,321.648
152.316,147.516,234.965,321.821
152.401,147.347,235.209,321.908
152.293,147.087,234.995,322.255
152.246,146.974,235.032,322.579
152.263,147.031,235.128,323.054
152.245,147.131,235.109,323.635
152.297,147.331,235.217,324.288
152.277,147.074,235.073,324.167
152.334,147.016,235.041,324.603
152.351,146.91,235.021,324.992
152.257,146.595,234.789,325.309
152.134,146.09,234.465,325.316
151.814,145.391,233.486,325.107
151.74,145.01,233.3,325.183
151.845,144.812,233.587,325.434
151.831,144.722,233.586,325.769
151.883,144.722,233.667,326.27
151.947,144.905,233.864,326.838
151.942,144.902,233.867,326.834
151.936,144.888,233.866,326.833
151.921,144.857,233.847,326.803
151.928,144.857,233.872,326.793
151.901,144.81,233.812,326.767
151.903,144.762,233.82,326.714
151.929,144.777,233.877,326.698
151.874,144.662,233.714,326.646
151.868,144.511,233.666,326.545
151.954,144.685,233.641,327.165
152.107,144.696,234.066,327.118
152.02,144.695,233.857,327.091
151.56,144.436,232.996,326.871
151.185,144.09,232.121,326.478
150.944,143.954,231.158,326.235
150.703,143.77,230.175,326.043
150.396,143.598,229.39,325.928
149.762,143.271,228.038,325.568
149.416,142.998,227.374,325.38
149.267,142.943,226.993,325.364
149.244,142.912,226.995,325.325
149.205,142.853,226.883,325.301
149.261,142.82,227.036,325.281
149.272,142.776,227.029,325.255
149.286,142.737,227.092,325.186
149.274,142.713,227.064,325.173
149.251,142.703,227.038,325.112
149.318,142.724,227.182,325.216
149.369,142.716,227.299,325.168
149.394,142.733,227.33,325.177
149.386,142.79,227.148,325.249
149.552,142.767,226.949,325.205
149.408,142.549,226.326,324.816
149.433,142.385,225.886,324.984
149.372,142.449,225.65,325.4
149.376,142.288,225.581,325.268
149.401,142.031,225.476,324.987
149.496,141.827,225.697,324.775
149.46,141.54,225.521,324.473
149.495,141.279,225.601,324.205
149.548,141.114,225.736,324.039
149.558,140.973,225.828,323.885
149.564,140.887,225.889,323.801
149.55,140.754,225.803,323.694
149.564,140.602,225.803,323.542
149.595,140.457,225.839,323.396
149.614,140.314,225.864,323.271
149.594,140.07,225.688,323.018
149.632,139.813,225.643,322.749
149.75,139.572,225.9,322.584
149.801,139.589,225.886,323.019
149.893,139.349,226.019,322.863
149.972,139.392,226.195,323.36
149.964,139.126,226.094,323.11
149.991,138.894,226.152,322.807
150.019,138.683,226.193,322.675
150.082,138.518,226.38,322.473
150.049,138.303,226.254,322.293
150.096,138.113,226.361,322.069
150.104,137.912,226.32,321.904
150.191,137.813,226.525,321.79
150.154,137.635,226.398,321.594
150.159,137.459,226.373,321.422
150.139,137.21,226.223,321.19
150.2,136.966,226.365,320.942
150.212,136.784,226.242,320.705
150.276,136.544,226.146,320.443
150.205,136.356,225.804,320.383
150.301,136.332,225.861,320.821
150.38,136.017,225.793,320.53
150.34,136.092,225.492,321.072
150.445,135.914,225.465,320.857
150.592,135.773,225.736,320.72
150.624,135.599,225.654,320.525
150.665,135.374,225.515,320.313
150.494,135.189,224.575,320.006
150.524,135.046,224.305,319.999
150.426,134.972,223.889,319.851
150.299,134.925,223.38,319.817
150.384,134.923,223.534,319.822
150.413,134.887,223.399,319.801
150.301,134.868,222.949,319.78
150.349,134.878,223.087,319.755
150.339,134.925,222.91,319.8
150.359,134.912,222.899,319.763
150.455,134.911,222.899,319.786
150.292,134.929,222.218,319.715
150.194,135.003,221.857,319.838
150.222,135.005,221.944,319.888
150.24,135.012,222.048,319.908
150.19,134.999,221.896,319.867
150.189,135.181,221.704,319.938
150.128,135.579,221.6,320.148
