139.103,111.831,189.858,148.309
139.416,111.906,190.073,149.08
139.64,112.07,190.579,149.955
139.703,112.252,190.577,150.683
139.874,112.482,190.622,151.423
140.09,112.736,190.854,151.993
140.337,113.307,191.023,153.009
140.588,113.663,191.379,153.799
140.654,113.976,191.557,154.612
140.659,114.361,191.531,155.523
140.688,114.715,191.57,156.346
140.536,115.04,191.449,157.087
140.416,115.306,191.317,157.801
140.216,115.326,191.156,157.785
139.947,115.387,190.87,157.863
139.718,115.431,190.585,157.919
139.326,115.469,190.156,157.955
139.241,115.514,190.097,157.998
139.096,115.562,190.001,158.01
138.833,115.607,189.604,158.036
138.806,115.659,189.644,158.092
138.532,115.618,189.27,158.014
138.356,115.622,189.048,158.021
138.255,115.625,188.968,158.046
138.307,115.634,189.053,158.114
138.393,115.622,189.172,158.078
138.324,115.682,189.112,158.166
138.487,115.727,189.245,158.234
138.567,115.948,189.382,158.94
138.72,115.907,189.465,158.891
138.96,115.818,189.635,158.827
139.265,115.974,189.8,159.48
139.613,116.128,190.265,160.126
139.859,116.101,190.583,160.07
140.059,116.075,190.835,160.048
140.734,115.743,191.233,159.86
143.863,115.252,192.857,160.493
146.433,114.627,194.339,161.539
149.269,114.105,196.376,163.522
150.988,114.754,198.117,166.894
152.745,116.526,200.05,171.906
154.051,116.383,201.455,174.866
155.746,114.965,203.343,175.045
157.722,114.726,205.997,176.032
159.422,115.14,207.941,177.171
161.204,115.926,209.985,178.901
163.968,116.048,212.742,179.474
165.872,115.334,214.423,179.233
167.546,115.137,216.27,179.445
168.87,114.78,217.711,179.504
170.535,114.307,219.631,179.684
172.872,113.497,222.38,179.478
173.689,112.971,223.612,179.552
175.327,112.127,225.293,179.95
176.146,110.984,226.024,179.783
176.756,109.969,226.642,179.738
178.074,108.319,228.048,179.391
178.498,107.099,228.302,179.304
179.468,105.997,229.354,179.327
180.23,105.174,230.174,179.325
180.825,104.898,230.753,179.965
181.73,104.539,231.721,180.553
182.339,104.293,232.274,181.261
182.471,104.16,232.394,181.249
182.606,104.097,232.542,181.79
182.761,103.9,232.701,182.154
182.886,103.974,232.825,182.588
182.98,104.118,232.936,183.141
182.995,104.322,232.977,183.828
183.009,104.517,232.983,184.529
183.022,104.712,232.994,185.212
183.045,104.818,233.011,185.88
183.046,104.756,232.994,186.339
182.968,104.681,232.909,186.717
182.718,103.84,232.493,186.554
182.71,103.75,232.513,186.753
182.042,103.304,231.471,186.811
181.466,102.996,230.431,187.187
181.282,102.861,230.039,187.41
180.86,102.751,229.542,187.705
179.872,101.83,228.119,186.553
179.252,101.589,227.324,186.306
178.592,101.202,226.675,185.964
178.105,100.83,226.307,185.872
177.236,100.319,225.356,185.937
176.384,99.9119,224.511,185.856
175.71,99.5894,223.626,185.407
175.174,99.2574,222.795,185.225
174.468,99.0162,222.204,185.058
173.875,99.1069,221.49,185.466
172.85,99.0669,220.193,185.253
172.292,99.0684,219.318,185.48
172.464,99.1562,219.855,185.616
172.452,99.1672,219.882,185.639
172.125,99.3283,219.339,185.734
171.712,99.0922,218.744,185.32
171.471,99.1697,218.745,185.682
171.276,99.3583,218.606,186.267
170.783,99.457,218.078,186.315
170.302,98.9926,217.41,185.673
170.456,99.1488,217.87,186.069
170.437,99.1446,217.83,186.09
170.333,98.9159,217.457,185.786
170.285,98.8325,217.51,185.691
170.132,98.87,217.315,185.696
169.499,98.8364,216.646,185.497
169.136,98.8012,216.399,185.506
168.721,98.657,215.992,185.371
168.413,98.5882,215.709,185.357
168.423,98.7432,215.847,185.572
168.4,98.8169,215.812,185.742
168.145,98.873,215.525,185.706
167.514,99.0921,214.799,185.917
167.43,99.1132,214.847,185.979
167.188,99.1019,214.525,185.965
167.083,98.912,214.404,185.768
166.932,98.7545,214.215,185.584
166.974,98.4014,214.243,185.195
167.1,97.8849,214.335,184.635
167.197,97.6025,214.579,184.383
167.232,97.4129,214.576,184.147
167.319,97.2446,214.732,184.071
167.457,96.3983,214.714,182.966
167.584,94.7499,214.723,181.433
167.107,93.7052,214.109,180.064
167.218,92.3145,214.369,178.646
167.322,91.0785,214.524,177.346
167.147,89.4101,214.253,175.446
166.984,88.2286,214.041,174.552
167.073,86.9704,214.136,173.377
167.27,86.5119,214.449,172.857
167.373,85.9587,214.668,172.191
167.418,85.3343,214.694,171.301
167.506,84.3677,214.821,169.67
167.574,83.4278,214.819,168.287
167.77,82.9073,215.053,167.438
167.675,82.6913,214.89,167.302
167.678,82.5324,214.945,167.105
167.552,82.1821,214.719,166.649
167.769,82.1013,215.212,166.364
167.94,81.5212,215.235,165.531
168.099,81.3777,215.439,165.442
168.234,81.1046,215.626,165.189
168.353,80.6624,215.697,164.749
168.496,80.3936,215.893,164.445
168.569,80.1431,215.98,164.303
168.659,79.5467,216.053,163.595
168.631,79.3414,215.996,163.393
168.641,78.9055,215.975,162.923
168.452,79.0177,215.75,162.862
168.16,78.4933,215.397,161.8
168.015,78.4816,215.21,161.309
167.595,78.5105,214.887,161.174
167.837,78.5129,215.222,161.232
167.793,78.4249,215.114,161.223
167.806,78.3811,215.174,161.216
167.819,78.3518,215.172,161.027
167.937,78.4804,215.311,161.296
168.113,78.5094,215.496,161.305
168.285,78.5484,215.667,161.344
168.456,78.5873,215.839,161.383
168.627,78.6263,216.01,161.422
168.799,78.6652,216.181,161.461
168.987,78.6979,216.361,161.406
169.151,78.782,216.554,161.527
169.301,78.8479,216.704,161.592
169.451,78.9139,216.854,161.658
169.601,78.9798,217.004,161.724
169.751,79.0457,217.154,161.79
169.665,79.252,217.021,161.997
169.636,79.3513,217.046,162.042
169.711,79.2828,217.117,161.996
169.547,79.7006,216.857,162.249
169.673,79.7029,217.079,162.417
169.75,79.6228,217.156,162.336
169.162,79.9462,216.264,162.531
169.033,80.2219,216.304,163
168.864,80.3826,216.134,163.177
168.48,80.6841,215.796,163.406
168.533,80.8444,215.973,163.719
168.382,81.1708,215.867,163.98
168.059,81.9268,215.529,164.607
167.872,82.7597,215.359,165.56
167.796,83.6964,215.317,166.511
167.926,84.4158,215.88,167.247
168.137,85.1067,216.147,167.94
167.802,86.9349,216.301,169.481
167.921,88.2337,216.352,171.101
168.056,89.3957,216.558,172.356
168.371,90.0993,217.299,173.043
168.551,91.019,217.448,173.986
168.57,91.614,217.431,174.55
168.594,92.5591,217.462,175.611
168.701,93.6285,217.588,177.277
168.793,94.9032,217.615,179.023
169.005,96.6234,217.754,181.458
169.207,97.8007,217.928,183.07
169.355,98.2282,218.147,183.801
169.452,98.7968,218.262,184.949
169.229,99.6028,218.039,186.069
169.325,99.9256,218.236,186.466
169.388,100.562,218.3,187.554
169.427,101.19,218.278,188.135
169.336,102.039,218.149,188.904
169.574,103.698,218.388,190.592
169.572,104.18,218.454,191.189
169.518,104.982,218.406,192.475
169.521,105.364,218.462,192.859
169.388,106.299,218.291,193.871
169.422,107.549,218.314,195.3
169.407,108.62,218.331,196.349
169.341,109.414,218.275,197.314
169.219,110.522,218.148,198.255
169.185,111.876,218.089,199.612
168.952,112.514,217.947,200.421
168.461,113.383,217.419,201.212
168.227,114.642,217.237,202.311
167.769,116.938,217.274,204.536
166.77,118.166,216.753,205.997
166.525,119.03,216.496,206.679
166.132,119.6,216.044,207.353
165.686,120.474,215.589,208.25
165.708,120.714,215.661,208.598
165.727,120.891,215.696,208.792
165.741,121.205,215.697,209.031
165.764,121.49,215.714,209.326
165.694,121.662,215.637,209.501
165.533,121.981,215.477,209.728
165.522,122.153,215.485,210.07
165.482,122.232,215.443,210.144
165.424,122.311,215.388,210.209
165.324,122.375,215.285,210.252
165.233,122.431,215.189,210.341
165.157,122.497,215.12,210.414
165.106,122.545,215.07,210.474
165.057,122.583,215.022,210.522
165.035,122.603,215,210.563
165.01,122.607,214.971,210.558
165.003,122.614,214.966,210.574
165.004,122.686,214.956,210.567
164.982,122.797,214.947,210.678
165.06,122.696,215.019,210.531
164.993,122.632,214.908,210.578
165.006,122.513,214.955,210.452
164.913,122.044,214.868,209.842
164.997,120.918,214.914,208.347
164.4,119.335,214.427,206.258
164.31,117.949,214.674,204.314
164.393,116.648,214.819,202.758
164.496,115.906,214.902,202.113
164.788,114.591,215.172,200.831
165.765,111.983,216.073,197.728
166.111,111.648,216.471,197.409
166.708,110.548,216.899,196.182
167.09,109.959,217.484,195.766
167.321,109.13,217.71,194.949
167.462,108.479,217.831,194.296
167.47,107.966,217.891,193.826
167.454,107.358,217.9,193.335
167.249,107.08,217.625,192.982
167,106.682,217.414,192.52
166.918,105.462,217.117,191.071
166.984,104.929,217.261,190.544
167.009,103.896,217.217,189.537
167.004,102.62,217.159,188.036
167.22,101.848,217.513,186.853
167.243,101.437,217.571,186.577
167.354,99.9379,217.614,184.459
167.524,99.3027,217.89,183.769
167.624,98.4691,218.023,182.42
167.837,97.3455,218.194,180.937
167.95,97.119,218.383,180.996
168.045,96.6487,218.503,180.442
168.249,96.3166,218.681,180.227
168.345,96.1396,218.805,180.055
168.475,95.9635,218.909,179.923
168.691,95.7681,219.124,179.71
168.898,95.5506,219.34,179.435
169.415,94.9395,219.874,178.797
169.791,94.2042,220.24,178.193
170.262,93.4176,220.7,177.27
170.38,93.2634,220.816,177.154
170.458,93.1511,220.909,177.041
170.54,92.9528,220.982,176.828
170.671,92.77,221.112,176.677
170.808,92.6255,221.245,176.52
170.964,92.5105,221.402,176.406
171.161,92.3176,221.615,176.219
171.331,92.0935,221.779,175.98
171.437,92.0068,221.892,175.893
171.484,91.9436,221.937,175.832
171.569,91.9571,222.038,175.941
171.632,91.9441,222.096,175.937
171.702,91.9443,222.178,175.937
171.749,91.9423,222.222,175.928
171.791,91.9719,222.266,175.957
171.822,92.0188,222.284,175.998
171.861,92.0324,222.318,176.009
171.889,92.0655,222.318,176.057
171.918,92.095,222.364,176.081
171.938,92.2211,222.346,176.217
172.02,92.5898,222.414,176.566
172.095,92.761,222.524,176.758
172.18,92.9442,222.595,176.939
172.28,93.1169,222.682,177.085
172.348,93.0947,222.75,177.084
172.412,93.0445,222.82,177.021
172.5,92.9686,222.841,176.957
172.605,92.9502,223.044,176.95
172.709,92.8856,223.131,176.926
172.83,92.9506,223.214,177.516
172.938,93.0601,223.366,178.092
173.05,93.1643,223.47,178.69
173.113,93.327,223.554,179.309
173.145,93.3181,223.611,179.287
173.166,93.3011,223.623,179.272
173.187,93.2417,223.634,179.224
173.214,93.1268,223.627,179.13
173.253,93.368,223.728,179.832
173.261,93.3767,223.734,179.842
173.266,93.3709,223.727,179.841
173.275,93.3633,223.742,179.832
173.284,93.361,223.757,179.824
173.296,93.3734,223.771,179.838
173.324,93.3709,223.798,179.855
173.542,93.2104,224.02,179.871
174.156,92.9745,224.619,180.374
174.731,92.6858,225.168,180.517
175.059,92.6268,225.532,180.723
175.243,92.7048,225.728,181.249
175.261,92.927,225.734,181.895
175.304,92.9248,225.779,181.896
175.375,92.8879,225.855,181.856
175.553,92.8149,226.032,181.743
175.823,92.8374,226.265,181.795
176.293,92.9244,226.738,181.937
176.522,93.1718,226.963,182.632
176.913,93.1765,227.292,182.684
177.191,93.4267,227.612,183.391
177.606,93.4521,228.062,183.447
177.709,93.4411,228.146,183.402
177.986,93.4212,228.354,183.406
178.111,93.4292,228.555,183.385
178.171,93.4565,228.63,183.417
178.197,93.4737,228.669,183.438
178.214,93.4904,228.687,183.453
178.231,93.5072,228.704,183.471
178.243,93.5252,228.716,183.487
178.253,93.5438,228.725,183.507
178.259,93.5584,228.724,183.526
178.274,93.5755,228.737,183.543
178.28,93.5927,228.72,183.57
178.295,93.605,228.744,183.576
178.315,93.6875,228.727,183.681
178.351,93.6932,228.805,183.663
178.336,93.701,228.724,183.679
178.383,93.7262,228.809,183.705
178.436,93.806,228.883,183.772
178.477,93.8318,228.947,183.791
178.516,93.868,228.979,183.824
178.574,93.9208,229.033,183.866
178.644,93.9646,229.099,183.923
178.73,93.9915,229.18,183.959
178.765,94.0053,229.236,183.971
178.804,94.022,229.269,183.984
178.854,94.0416,229.319,184.008
178.896,94.0585,229.362,184.024
179.095,94.0311,229.513,184.026
179.303,94.0233,229.727,184.012
179.349,94.0272,229.821,183.991
179.387,94.0419,229.853,184.004
179.564,94.0474,229.986,184.008
179.763,93.9747,230.167,183.939
179.969,93.9695,230.383,183.918
180.403,93.9119,230.776,183.815
180.582,93.9138,231.016,183.834
180.791,93.9479,231.232,183.881
181.036,94.0113,231.45,183.905
181.247,94.0576,231.699,183.986
181.329,94.0771,231.786,184.026
181.435,94.1145,231.887,184.069
181.579,94.1558,232.011,184.099
181.754,94.2039,232.184,184.122
181.944,94.2934,232.4,184.221
182.15,94.3698,232.602,184.292
182.287,94.3533,232.739,184.256
182.381,94.4688,232.823,184.33
182.446,94.5849,232.908,184.486
182.499,94.7215,232.964,184.604
182.615,94.958,233.079,184.814
182.729,95.0816,233.204,185.011
182.768,95.1573,233.239,185.083
182.806,95.2485,233.28,185.16
182.88,95.3,233.36,185.21
183.009,95.5161,233.482,185.256
183.085,95.7841,233.564,185.602
183.136,95.9694,233.61,185.856
183.365,96.2054,233.895,186.034
183.724,96.1608,234.648,185.931
183.81,96.2735,234.765,186.171
183.886,96.3017,234.84,186.121
183.977,96.3925,234.936,186.249
184.102,96.4212,235.063,186.308
184.212,96.5097,235.171,186.363
184.37,96.6657,235.35,186.515
184.509,96.7543,235.455,186.597
184.532,96.806,235.507,186.712
184.572,96.7979,235.537,186.701
184.589,96.7861,235.557,186.672
184.614,96.8264,235.583,186.716
184.647,96.8117,235.611,186.705
184.656,96.8067,235.626,186.7
184.664,96.7883,235.631,186.671
184.689,96.7967,235.653,186.694
184.715,96.8054,235.682,186.735
184.771,96.744,235.731,186.645
184.773,96.5857,235.747,186.408
184.784,96.5902,235.752,186.474
184.801,96.6078,235.77,186.502
184.813,96.582,235.785,186.498
184.851,96.5955,235.831,186.548
184.861,96.5963,235.833,186.541
184.876,96.6136,235.85,186.566
184.896,96.5714,235.856,186.476
184.917,96.6166,235.89,186.563
184.935,96.597,235.905,186.539
184.976,96.5865,235.935,186.484
185.01,96.581,235.971,186.485
185.04,96.6194,236.011,186.567
185.115,96.6167,236.067,186.515
185.202,96.5892,236.147,186.492
185.256,96.6535,236.222,186.579
185.276,96.7003,236.25,186.653
185.309,96.7678,236.31,186.711
185.57,96.9076,237.059,186.807
185.581,96.9794,237.064,186.936
185.61,97.0358,237.091,186.984
185.633,97.0363,237.09,186.951
185.694,97.0893,237.162,187.026
185.709,97.0724,237.175,186.973
185.727,97.1266,237.201,187.083
185.74,97.169,237.216,187.078
185.733,97.2037,237.2,187.139
185.743,97.2374,237.213,187.181
185.625,97.3007,236.761,187.039
185.405,97.2827,236.55,186.941
185.436,97.4392,236.653,187.28
185.325,97.4783,236.217,187.232
185.22,97.5292,235.864,187.379
185.192,97.506,235.573,187.341
184.78,97.5135,234.561,186.98
184.777,97.5243,234.491,186.961
184.628,97.6071,234.206,186.897
184.529,97.7308,233.977,186.985
184.171,97.8217,233.39,187.08
183.901,97.8678,233.126,187.087
183.552,97.8435,232.735,187.004
183.506,97.9586,232.8,187.289
183.424,97.966,232.726,187.35
183.34,97.9961,232.642,187.396
183.038,97.9602,232.248,187.21
182.526,98.0297,231.704,187.215
182.556,98.1023,231.873,187.575
182.53,98.0041,231.79,187.476
182.59,97.977,231.938,187.457
182.516,97.8982,231.753,187.363
182.476,97.796,231.653,187.227
182.626,97.8385,231.973,187.301
182.688,97.8408,232.043,187.311
182.723,97.8722,232.038,187.334
182.802,97.9087,232.142,187.373
182.881,97.9237,232.353,187.386
182.894,97.945,232.368,187.407
182.904,97.971,232.378,187.437
182.917,97.9965,232.392,187.462
182.93,98.017,232.405,187.477
182.946,98.0446,232.421,187.502
182.959,98.0691,232.434,187.529
183.012,98.1196,232.473,187.557
183.067,98.1861,232.527,187.62
183.122,98.2567,232.593,187.704
183.163,98.3185,232.633,187.765
183.331,98.3248,232.83,187.75
183.36,98.2879,232.844,187.717
183.752,98.2225,233.285,187.593
184.103,98.2039,234.077,187.582
184.153,98.1427,234.148,187.557
184.221,97.9282,234.297,187.24
184.469,98.0056,235.05,187.406
184.706,97.7929,235.771,187.287
184.942,97.6321,236.488,187.109
185.169,97.5897,237.133,186.977
185.173,97.4524,237.095,186.832
185.07,97.6766,237.009,187.089
185.089,97.8617,237.088,187.271
185.074,97.9146,237.079,187.309
185.283,97.944,237.766,187.374
185.277,97.9864,237.762,187.409
185.267,98.142,237.754,187.575
185.233,98.2047,237.7,187.644
185.247,98.317,237.79,187.716
185.448,98.3409,238.4,187.781
185.457,97.9406,238.456,187.32
185.471,97.7861,238.462,187.188
185.455,97.7721,238.425,187.135
185.452,97.7843,238.419,187.214
185.461,97.6929,238.41,187.075
185.484,97.7064,238.445,187.085
185.497,97.7519,238.469,187.157
185.504,97.7991,238.479,187.258
185.396,97.7042,238.226,187.066
185.354,97.6097,238.185,186.912
185.248,97.6664,238.045,186.964
184.551,97.3961,237.09,186.585
184.107,97.3889,236.391,186.186
183.762,97.5261,236.014,186.277
183.541,97.4174,235.722,186.217
183.413,97.3177,235.517,186.124
183.25,97.334,235.311,186.179
182.987,97.3675,235.071,186.136
182.955,97.3793,235.255,186.295
182.877,97.4112,235.212,186.359
182.354,97.3969,234.581,186.332
181.607,97.2704,233.63,186.087
181.715,97.317,234.088,186.292
181.558,97.254,233.855,186.235
180.791,96.8841,232.83,185.773
180.183,95.4831,231.914,184.359
179.38,94.7492,230.934,183.698
179.415,94.3538,231.224,183.308
179.138,93.7068,230.793,182.52
178.926,92.7887,230.583,181.626
178.638,91.9855,230.237,180.764
178.711,91.3702,230.513,180.224
178.664,91.1641,230.469,180.019
178.51,90.8635,230.303,179.748
178.369,90.4419,230.144,179.285
178.336,90.2421,230.18,179.134
178.305,90.1177,230.228,179.054
178.309,90.0754,230.248,179.017
178.263,89.9348,230.169,178.831
178.23,89.7209,230.132,178.575
178.179,89.4736,230.031,178.304
178.183,89.2205,230.074,178.069
178.078,88.8739,229.956,177.729
178.054,88.6856,229.972,177.589
177.943,88.3996,229.814,177.3
177.905,88.0255,229.797,176.885
177.944,87.94,229.906,176.917
177.949,87.8223,229.914,176.798
177.947,87.7702,229.914,176.753
177.949,87.7468,229.917,176.698
177.958,87.7687,229.929,176.732
177.957,87.8052,229.935,176.761
177.962,87.8544,229.942,176.811
177.962,87.9249,229.938,176.884
177.983,88.0898,229.969,177.03
177.961,88.4446,229.952,177.386
177.789,89.6622,229.842,178.608
177.922,91.5967,230.421,180.56
177.568,94.2614,230.04,183.092
177.191,97.4468,229.561,185.974
176.835,99.0918,228.937,188.091
176.826,100.232,229.162,189.118
176.18,102.276,228.456,190.929
175.215,105.42,227.42,194.255
175.1,105.724,227.526,194.638
174.653,106.681,227.168,195.618
173.865,108.63,226.687,197.235
173.845,109.563,226.713,198.489
173.448,110.931,226.128,199.859
172.699,113.743,225.324,202.257
172.652,115.108,225.566,203.698
171.986,117.344,224.935,205.639
171.85,118.602,224.739,206.732
171.713,120.396,224.541,208.383
171.257,121.817,224.084,209.44
171.09,122.617,223.98,210.341
170.25,123.944,223.07,211.49
170.166,124.237,223.117,212.146
169.948,124.263,222.899,212.184
169.455,124.236,222.325,212.058
168.939,124.207,221.726,212.047
168.749,124.113,221.636,212.088
168.443,124.007,221.324,211.942
167.505,123.694,220.259,211.615
166.967,123.478,219.725,211.433
166.655,123.199,219.391,211.126
166.349,122.979,219.138,210.933
166.007,122.666,218.787,210.527
165.376,122.339,218.091,210.028
164.421,121.929,217.122,209.574
163.476,121.665,216.272,209.579
162.673,121.708,215.63,209.525
161.683,121.88,214.933,209.691
161.702,122.028,215.231,209.918
161.701,122.253,215.87,209.972
161.445,122.292,215.987,209.897
159.905,121.94,215.017,209.384
159.018,120.793,214.342,208.246
157.499,118.96,212.684,206.592
157.087,118.247,212.328,206.366
156.085,117.484,211.184,205.748
156.088,116.952,211.179,205.165
156.155,116.779,211.375,205.136
156.039,116.692,211.163,205.073
156.129,116.69,211.36,205.081
156.262,116.744,211.731,205.204
156.273,116.76,211.744,205.217
156.284,116.785,211.76,205.229
156.288,116.826,211.769,205.252
156.247,116.836,211.701,205.289
156.193,116.637,211.599,204.998
156.185,116.439,211.6,204.788
155.979,115.779,211.316,204.209
155.761,114.92,211.094,203.418
155.649,114.286,211.016,202.702
155.629,112.986,210.994,201.241
155.384,111.879,210.474,199.962
154.82,110.089,209.741,198.38
154.413,109.169,209.063,197.329
154.163,107.787,208.795,195.856
153.82,106.998,208.632,195.007
153.015,105.551,207.666,193.586
152.37,104.423,207.156,192.535
152.109,103.44,206.908,191.503
152.093,102.81,206.935,191.115
152.282,102.275,207.039,190.493
152.456,102.013,207.282,190.141
152.426,101.802,207.233,189.944
152.527,101.892,207.457,190.311
152.561,101.715,207.433,190.079
152.458,101.692,207.352,190.091
151.508,101.705,206.48,190.076
151.316,101.695,206.257,190.165
151.261,101.613,206.201,190.053
150.981,101.309,205.836,189.81
150.333,99.798,205.159,189.175
150.07,98.7651,204.949,188.63
149.477,97.3259,204.118,187.604
149.016,96.68,203.749,187.397
148.977,96.7139,203.845,187.605
148.978,96.7244,203.916,187.661
148.839,96.8442,203.757,187.764
148.118,97.5014,203.167,188.107
148.234,97.8405,203.695,188.752
148.209,97.9318,203.678,188.864
148.162,98.1181,203.63,188.985
148.118,98.4161,203.58,189.278
148.126,98.5056,203.6,189.452
148.079,98.5601,203.545,189.503
147.819,98.7603,203.249,189.652
147.587,99.0095,202.884,189.902
147.168,99.0643,202.549,189.879
146.682,99.1629,202.135,189.984
146.322,99.2419,201.805,190.072
146.18,99.5231,201.67,190.304
146.16,99.6529,201.619,190.589
146.187,99.7535,201.666,190.687
146.268,99.9969,201.774,190.909
146.593,100.145,202.591,191.104
146.681,100.861,202.881,191.529
146.847,101.27,203.324,192.141
146.857,101.462,203.34,192.4
146.8,101.491,203.24,192.42
146.785,101.48,203.214,192.411
146.734,101.413,203.155,192.336
145.861,101.368,202.283,191.828
144.335,101.57,200.828,191.501
143.665,101.92,200.071,191.448
142.68,102.711,199.289,192.101
141.934,103.478,199.094,192.692
141.34,104.349,199.085,193.58
141.084,104.727,199.119,194.176
141.206,104.822,199.669,194.276
141.21,104.832,199.672,194.29
141.22,104.838,199.685,194.296
141.196,104.805,199.64,194.258
141.22,104.614,199.647,194.105
141.27,104.614,199.735,194.07
141.385,104.554,199.919,194.098
142.164,104.654,201.283,194.906
143.783,104.076,203.253,194.699
144.887,104.048,204.422,195.285
145.935,103.823,205.717,195.571
146.903,103.813,206.853,195.883
147.997,103.429,207.599,196.009
148.291,103.564,208.205,196.528
148.283,103.433,208.2,196.366
147.591,103.326,207.315,195.973
147.126,103.488,206.919,196.274
146.986,103.722,206.945,196.634
146.792,104.195,206.866,197.047
146.784,104.619,207.25,197.495
146.562,105.257,207.103,198.149
145.836,106.488,206.915,198.79
145.151,107.132,206.68,199.18
144.166,108.681,206.257,200.917
143.012,109.494,205.646,201.734
141.542,110.56,204.854,202.833
140.206,111.117,203.799,203.146
139.375,111.443,203.184,203.368
138.873,111.437,202.625,203.27
138.435,111.362,202.188,203.218
137.548,111.608,201.339,203.289
136.359,111.934,200.048,203.616
135.274,111.91,199.278,203.688
133.853,110.4,198.137,202.402
131.353,106.992,195.662,199.628
128.696,104.143,193.289,196.988
123.063,102.284,188.179,194.629
118.126,100.496,184.103,191.935
115.973,100.452,181.774,191.337
113.731,101.057,179.594,191.374
111.101,102.394,176.282,192.458
108.162,103.579,173.333,193.972
106.035,103.476,171.096,193.893
103.857,103.522,168.895,193.888
101.902,103.646,166.802,194.145
100.805,103.972,165.173,194.501
99.6785,104.321,163.458,195.606
99.351,104.484,163.114,195.925
99.1611,104.527,162.978,196.053
98.8054,104.782,162.586,196.839
98.488,105.225,162.305,197.639
98.2525,105.367,162.086,197.826
97.8457,105.475,161.609,198.006
97.3896,105.881,161.23,198.918
97.088,105.818,160.914,199.345
95.8095,105.318,159.622,199.34
94.3083,105.094,158.168,199.645
90.89,104.122,154.692,199.043
88.8582,103.242,152.542,198.169
86.8713,103.039,150.494,197.647
85.5048,103.102,149.17,197.696
84.6405,103.219,148.353,198.07
84.7767,103.308,148.699,198.306
85.3168,103.525,148.933,198.629
87.7989,104.5,151.567,200.533
90.8377,104.84,154.518,201.3
93.3788,105.203,157.448,201.603
94.8288,105.701,159.435,202.616
95.2891,105.925,160.285,202.916
95.301,105.934,160.268,202.897
95.3174,105.954,160.284,202.913
95.6631,105.867,160.404,202.87
96.1659,105.938,160.899,203.515
97.5743,105.735,162.13,204.003
99.6518,104.945,164.277,204.158
102.515,102.88,167.152,204.098
103.964,102.158,168.777,204.223
106.652,101.011,171.693,204.181
109.851,100.726,175.293,204.065
113.103,100.928,178.921,204.02
117.624,101.081,183.582,203.965
121.47,101.338,187.607,203.922
124.335,101.765,190.695,204.703
127.112,102.279,193.26,204.828
129.927,102.56,195.967,204.704
132.057,103.065,198.177,204.473
133.849,103.344,199.95,204.28
135.636,103.147,201.436,203.421
139.692,102.658,204.998,202.864
143.045,102.534,208.256,203.458
147.907,102.777,212.978,204.401
152.249,103.892,217.581,206.562
156.392,104.524,221.483,208.099
159.574,105.508,224.921,209.654
162.732,106.197,227.621,210.367
164.632,106.201,229.249,210.362
166.396,105.941,230.978,210.308
169.16,105.455,233.782,209.387
171.354,105.199,236.152,209.03
173.544,105.034,238.366,208.601
176.426,105.037,241.253,208.49
179.612,106.109,244.475,209.071
182.875,106.979,247.593,209.93
183.488,107.208,248.329,210.052
184.397,107.955,249.132,210.804
185.136,108.715,249.951,211.633
185.838,109.538,250.845,212.926
186.62,110.537,252.311,214.334
187.046,112.232,253.251,216.352
187.712,113.281,254.237,218.112
188.246,114.254,255.236,219.556
188.637,115.002,255.679,220.552
189.594,115.732,257.293,221.678
190.878,116.057,258.955,222.252
193.022,116.345,261.436,223.002
194.996,115.948,263.413,222.977
196.873,115.726,265.577,223.4
197.438,115.686,266.376,223.684
198.268,115.315,267.272,223.335
198.999,115.454,268.404,223.934
199.86,115.173,269.489,223.704
200.5,114.957,270.55,224.26
201.137,114.732,272.151,224.01
201.902,114.829,273.647,224.04
202.026,114.995,274.02,224.444
201.981,115.021,273.936,224.47
201.589,115.192,273.496,224.471
201.465,115.393,273.404,224.746
201.079,115.721,273.021,224.779
198.023,116.858,270.613,224.314
193.704,117.512,268.021,223.074
188.879,117.335,263.631,222.497
185.969,116.819,260.913,221.873
182.144,114.463,257.189,219.502
178.844,113.581,254.401,218.21
176.02,112.064,251.711,216.356
172.735,111.664,248.295,215.53
167.98,111.968,243.022,214.797
163.538,112.667,238.463,214.978
160.394,112.255,234.222,214.283
158.259,112.028,230.901,214.47
156.261,111.459,228.577,213.799
154.512,110.153,226.375,212.74
152.81,109.106,224.233,211.878
151.789,108.827,222.704,211.374
149.912,108.828,220.562,211.216
148.475,108.793,219.179,210.657
147.218,108.954,217.804,210.115
146.117,109.135,216.652,209.797
144.335,109.57,214.742,209.664
142.141,110.188,212.321,209.854
139.437,110.642,209.648,209.557
136.937,111.177,207.183,209.145
133.081,112.466,203.522,209.059
130.585,113,201.076,209.434
128.058,112.784,198.562,208.995
124.558,113.044,195.402,208.975
121.026,111.883,191.964,207.86
118.925,111.761,190.086,207.339
117.014,111.779,188.609,207.528
114.237,111.689,186.585,207.188
112.087,111.373,184.805,206.592
110.787,111.496,183.817,206.797
110.572,111.42,184.062,206.867
110.338,111.288,183.805,206.742
110.22,111.156,183.652,206.629
110.068,111.229,183.559,206.642
109.974,111.37,183.464,206.764
109.954,111.501,183.43,206.938
109.956,111.61,183.435,207.026
109.768,112.067,183.286,207.406
108.724,112.446,182.721,207.732
108.44,112.735,182.44,208.184
107.557,112.861,181.569,208.237
107.607,113.001,182.072,208.421
107.364,113.058,181.857,208.509
107.2,112.615,181.587,208.164
107.178,111.387,181.382,207.993
107.375,108.377,181.642,207.372
107.663,105.66,182.003,205.981
109.05,102.167,183.414,203.756
109.336,101.619,183.778,203.566
109.738,101.697,184.337,203.538
111.197,102.775,186.483,204.148
111.474,103.264,186.998,204.605
112.213,103.882,188.038,205.332
112.475,104.117,188.439,205.569
112.679,104.3,188.633,205.778
112.855,104.493,188.847,205.967
112.961,104.504,188.926,206.003
112.981,104.49,188.935,205.943
112.997,104.519,188.944,205.974
112.984,104.506,188.945,205.962
111.9,104.774,188.442,206.356
111.622,104.917,188.664,206.808
111.594,104.291,188.961,206.627
111.511,102.372,188.723,206.139
111.68,100.274,188.983,205.354
111.806,98.1426,189.034,204.903
111.969,98.1726,189.438,205.191
111.979,98.7025,189.503,206.152
112.433,100.418,190.498,207.411
113.798,101.684,192.188,208.674
115.777,103.973,194.157,211.487
117.717,106.104,196.664,214.075
118.85,107.454,198.076,214.865
119.361,108.919,198.977,216.3
120.076,109.169,200.351,216.825
120.942,109.294,201.602,217.509
121.574,109.429,202.679,217.937
122.398,109.147,203.949,218.333
122.989,108.214,204.927,218.051
123.567,105.166,205.381,216.951
123.391,103.774,205.343,216.324
123.087,102.202,205.059,215.933
122.767,99.7576,204.666,214.76
123.053,96.0788,204.552,213.398
123.536,93.5912,204.629,211.658
123.453,92.0418,204.934,210.814
123.449,91.9095,204.845,210.878
123.523,92.1451,204.96,210.989
123.95,94.5185,205.195,212.751
124.416,98.5009,205.635,215.765
124.736,102.967,206.176,219.34
125.212,106.867,206.643,222.462
125.166,111.448,206.733,226.634
125.301,115.454,207.559,230.187
125.408,115.608,207.856,230.547
125.446,115.682,207.908,230.612
125.524,115.792,207.999,230.718
125.887,115.939,208.364,230.928
127.986,115.041,210.392,230.536
129.415,113.888,212.074,229.66
131.172,112.849,214.197,228.467
132.234,112.822,215.628,228.663
133.735,112.28,217.158,228.055
134.278,112.069,217.798,227.992
134.653,112.213,218.937,228
134.876,112.589,219.331,228.471
134.644,113.173,219.017,228.78
134.632,113.686,219.03,229.395
134.302,114.62,218.81,229.938
134.147,115.186,219.055,230.083
133.981,115.32,218.875,230.002
132.818,115.837,217.752,230.214
131.704,116.769,216.32,230.524
129.93,117.518,214.77,230.576
129.407,117.938,214.112,231.102
128.543,117.762,213.317,231.195
128.288,116.894,212.928,230.644
128.699,116.789,213.457,230.801
129.158,116.621,213.933,231.105
129.769,116.321,214.532,230.841
128.939,116.044,213.696,230.799
124.279,116.79,209.234,230.679
122.356,117.147,207.214,229.752
121.733,117.407,206.557,229.943
120.165,117.344,204.938,229.423
119.116,117.046,204.003,229.12
118.68,116.936,203.532,229.06
117.623,116.874,202.389,228.615
113.089,114.868,197.584,226.234
109.359,113.766,194.046,224.344
107.108,111.434,191.912,223.072
106.196,111.39,191.474,224.305
104.657,110.54,190.667,225.1
103.797,110.285,190.349,225.907
102.177,109.765,188.839,226.217
101.001,107.31,187.916,224.499
97.9833,105.665,185.36,222.148
97.0445,105.491,184.693,221.234
96.2084,105.257,184.106,220.76
94.8737,105.375,182.766,220.472
93.2717,105.304,181.194,220.51
92.3323,105.475,180.459,220.487
92.1262,106.8,181.129,221.546
92.5953,105.752,182.267,221.333
94.1971,105.037,184.299,222.939
95.1492,104.098,186.167,224.274
95.8756,102.599,187.752,224.185
94.9658,101.876,187.337,224.26
94.6318,101.427,187.318,224.241
93.4052,100.153,186.566,223.861
90.4876,96.8575,184.252,223.508
90.4348,97.0214,184.288,223.973
88.7931,97.7698,182.875,222.262
87.559,98.3134,181.874,221.934
86.9655,98.7674,181.294,221.602
86.846,99.0636,181.302,221.8
86.4544,99.6853,180.961,221.939
86.4177,99.9576,181.395,222.064
85.1005,100.438,180.293,221.7
82.1208,99.7384,177.566,219.759
81.1911,99.7086,176.557,220.081
81.168,99.7948,176.554,220.54
81.8368,99.1632,177.17,221.414
81.7754,97.6504,178.239,222.203
81.9932,95.3506,179.091,222.469
82.1026,93.849,179.491,222.971
81.8746,93.8134,179.261,223.295
81.8513,93.3239,179.255,222.55
80.6287,93.1894,178.245,221.489
80.7213,93.3698,178.69,221.732
78.5874,95.5747,177.531,221.939
75.3702,100.23,176.614,223.971
74.0963,102.009,176.617,224.805
72.8584,102.396,176.228,224.86
72.8494,102.401,176.29,224.839
72.4498,102.079,175.85,224.386
72.121,101.752,175.488,223.804
74.8347,100.684,177.894,223.297
77.9594,100.31,181.156,224.602
80.4797,98.0596,183.393,223.99
80.7785,96.752,183.4,223.452
82.5587,95.9906,185.168,223.428
82.412,95.0448,185.165,222.222
82.306,95.2355,185.333,222.336
82.2542,95.5693,185.62,222.918
81.834,96.1464,185.259,223.282
78.3902,98.8994,182.97,225.715
74.4539,101.488,180.606,226.965
74.4573,101.568,180.913,226.985
73.2986,101.603,179.672,226.818
73.3021,101.716,179.753,227.119
74.4115,101.459,180.878,226.797
77.8747,100.332,184.532,226.692
82.7768,98.6246,188.987,226.922
87.3428,96.2104,193.197,225.869
88.6629,95.3914,194.297,225.536
89.246,94.6228,194.741,225.074
88.5378,94.5668,193.274,224.963
86.5499,93.7946,190.809,223.581
84.6252,94.6958,189.085,223.469
82.1949,95.2605,186.248,224.108
77.8204,95.8646,182.387,224.532
76.1872,96.3314,180.895,224.975
75.6965,96.5947,180.559,225.369
74.2604,96.9875,179.042,225.199
74.4497,97.1357,179.367,225.564
76.2091,95.814,181.017,224.57
80.0333,93.9975,184.679,224.173
82.8056,91.9516,187.632,223.614
83.7754,91.8709,188.792,223.943
85.6187,91.9314,191.125,224.268
86.2541,91.7614,192.044,224.3
86.0458,91.5951,191.753,224.48
85.5187,91.2553,190.647,224.367
83.2315,91.917,188.166,224.227
82.483,92.4509,187.261,224.578
79.7844,93.2095,184.425,225.49
76.5633,94.7924,181.327,226.812
74.686,97.0604,179.734,228.15
74.106,97.7226,179.59,228.543
72.2919,97.854,177.935,228.436
72.4695,98.7394,178.425,229.262
76.337,101.323,182.442,231.27
81.1326,99.9102,187.951,230.401
86.8176,96.4644,193.235,228.481
87.0815,94.3053,192.772,226.577
88.8538,92.6183,194.222,225.104
88.4982,91.992,193.953,224.413
88.8696,92.9556,194.381,224.673
88.0095,94.3793,194.077,225.71
84.8986,95.7259,190.889,227.028
79.499,97.3222,184.905,228.456
75.9748,98.3921,181.328,229.229
74.9689,98.9578,180.505,229.08
75.1374,99.8882,181.124,229.402
76.9623,102.485,182.733,231.376
80.3379,103.684,186.587,232.468
87.3839,100.625,194.503,231.01
90.5977,97.6636,197.212,228.57
91.5465,97.4259,197.884,228.091
89.8445,98.0509,195.782,227.992
89.1252,100.199,195.068,229.047
87.9488,100.089,193.701,229.231
84.6176,100.825,190.116,230.128
81.3126,102.366,186.958,231.308
79.0334,102.381,184.646,230.856
78.9641,102.376,184.906,230.64
78.917,102.814,184.771,231.067
81.9029,103.358,187.987,231.385
86.7883,100.773,193.69,231.643
91.1584,100.044,198.842,231.988
99.8321,97.8198,209.166,230.047
104.484,97.3551,213.928,229.418
107.226,96.7842,216.381,229.224
109.169,96.7997,218.099,228.729
109.701,98.0901,217.873,229.062
109.793,99.5292,218.201,228.403
109.549,102.209,217.62,228.443
109.402,104.122,217.375,229.242
109.602,105.659,217.298,229.9
110.484,106.71,218.382,230.096
111.458,107.041,219.245,230.318
115.922,108.074,223.655,230.854
117.343,107.758,225.136,230.657
119.452,107.586,227.229,230.509
119.957,107.345,227.622,230.117
121.078,107.362,228.714,230.189
121.894,107.664,230.011,230.631
123.921,107.778,232.056,230.838
125.368,107.649,233.678,230.967
125.566,108.726,233.831,231.595
125.681,108.973,234.125,231.68
125.842,109.522,234.17,231.893
125.992,109.678,234.389,231.927
126.043,110.278,234.405,232.112
126.15,110.658,234.64,232.221
127.069,110.714,235.576,232.772
128.621,109.324,237.355,232.535
130.819,108.794,239.57,232.515
132.252,108.569,240.747,232.643
133.255,108.333,241.325,232.666
133.934,107.903,242.369,232.252
134.591,107.887,242.775,232.123
135.85,107.392,244.032,232.092
137.154,107.364,245.546,232.342
137.828,106.583,245.952,231.931
138.302,106.439,246.409,231.659
138.822,106.329,246.98,231.606
139.185,106.263,247.405,231.166
139.463,105.915,247.671,230.386
140.036,105.61,248.095,229.891
140.42,105.705,248.711,230.066
141.511,105.545,249.137,230.188
142.748,104.041,249.787,230.552
143.978,104.212,251.181,231.202
143.959,103.966,251.227,230.895
144.268,103.255,251.646,230.303
144.26,102.769,251.712,230.389
144.083,102.394,251.506,230.303
143.979,102.125,251.3,229.829
144.279,102.011,251.618,230.048
145.867,100.421,252.454,230.071
146.821,99.8552,253.172,230.961
147.019,99.9963,253.388,231.499
147.466,100.041,253.563,231.878
147.787,100.087,254.119,231.922
148.122,99.9973,254.272,231.683
148.661,99.9236,254.735,231.76
148.936,99.8149,255.297,231.823
150.367,99.1183,255.642,232.095
151.115,98.314,256.109,231.718
151.461,97.8052,256.159,231.573
152.255,96.9412,256.616,231.154
152.809,95.6064,256.401,230.153
153.336,94.5061,256.542,229.57
153.955,93.0932,256.621,228.622
154.625,92.1149,257.022,228.424
155.527,90.7881,256.818,227.414
155.682,89.9308,256.058,227.201
155.687,90.0038,256.017,227.433
155.735,90.0167,256.147,227.459
155.75,90.0519,256.165,227.492
155.752,90.0894,256.139,227.525
155.651,90.0486,255.819,227.47
155.605,89.8597,255.597,227.292
155.339,89.2334,254.712,226.996
155.291,88.175,253.98,226.473
155.594,86.1661,253.495,224.739
155.697,84.7385,252.899,223.695
155.336,83.0865,252.191,222.21
156.235,80.9207,251.43,220.573
156.377,80.9353,251.599,220.933
156.496,80.9315,251.927,220.873
156.527,80.9731,251.978,220.9
156.542,81.986,251.798,221.678
156.798,83.439,251.796,222.658
156.792,86.3185,251.039,223.924
156.924,86.8282,251.277,224.716
156.997,86.8907,251.441,224.83
157.023,86.9213,251.477,224.862
157.307,86.5305,251.468,224.088
157.579,86.4395,251.921,224.217
158.307,85.3608,252.089,222.484
159.477,84.6546,252.68,220.986
160.999,83.4122,253.411,218.45
162.498,82.5085,253.747,216.304
163.324,81.882,254.076,214.412
164.136,81.862,254.563,214.216
164.566,82.4205,254.767,213.969
164.903,83.8954,255.138,214.195
165.465,86.7296,255.605,213.866
165.751,88.2244,256.037,213.748
166.015,88.9137,256.27,214.042
166.457,89.0995,256.487,213.603
167.562,88.1147,257.074,212.067
168.571,87.0905,257.753,210.132
169.7,85.5664,258.169,207.95
170.862,83.7153,257.854,205.07
171.615,82.1334,257.435,202.576
172.017,81.35,257.542,201.218
172.494,81.0138,258.076,200.318
172.953,81.2204,258.582,199.799
173.167,81.5049,259.091,200.346
173.36,82.4582,259.178,200.513
173.578,83.5074,259.391,201.167
173.712,83.7511,259.583,201.501
173.92,83.6791,259.518,201.32
174.296,83.1011,259.386,200.652
174.699,82.5443,259.505,200.138
174.761,82.0767,259.173,199.769
174.869,81.3461,258.049,198.642
175.014,80.9735,257.505,197.653
174.899,80.9503,255.938,196.993
173.834,81.6227,253.254,197.159
172.686,82.2965,250.066,197.612
170.788,84.1647,246.28,198.839
169.667,86.6508,244.209,200.429
169.889,87.2005,244.644,200.798
170.05,87.5006,244.97,201.325
170.681,88.2674,245.409,201.444
171.239,88.9825,246.08,201.765
171.642,89.6919,246.681,202.092
172.322,90.5584,247.914,202.657
173.279,92.6873,249.543,203.612
176.265,95.2139,253.043,203.814
180.471,98.8455,258.47,204.123
185.551,101.146,264.274,204.633
189.084,103.714,268.774,205.359
191.339,105.469,271.234,206.703
192.541,105.96,272.665,207.059
192.893,106.152,273.336,207.562
193.026,106.176,273.439,207.586
193.454,106.021,273.766,207.202
193.619,106.099,274.024,207.432
193.714,106.109,274.124,207.427
193.79,105.882,274.218,207.103
193.709,105.226,273.989,206.502
193.674,104.975,274.026,206.406
193.085,104.34,273.21,205.703
191.633,103.836,271.55,205.043
189.553,103.427,268.945,204.515
186.572,102.744,264.601,203.36
183.482,101.735,259.791,202.163
180.279,100.586,254.233,200.205
176.977,100.55,248.397,199.039
174.493,99.8391,243.745,197.481
171.78,98.8747,238.742,195.727
169.745,98.586,234.241,194.062
168.66,98.0002,231.093,192.618
167.94,97.4645,228.39,191.897
167.07,96.7302,225.975,190.603
166.617,96.6168,224.605,190.038
166.036,96.4,222.99,188.999
165.65,96.3142,221.864,188.664
165.367,96.1426,221.041,187.831
165.195,96.0986,220.625,187.505
165.07,96.024,220.14,187.124
165.146,96.041,220.003,187.001
165.127,96.0098,219.78,186.596
165.138,96.1243,219.65,186.637
165.307,96.347,219.942,186.99
165.595,96.4455,220.087,186.991
165.601,96.635,219.819,187.435
165.743,96.7118,220.16,187.658
165.817,96.7325,220.207,187.667
166.126,96.7708,220.413,187.557
167.162,96.9543,221.146,187.677
167.922,97.3935,221.468,188.13
168.94,98.2306,222.368,188.878
169.972,100.176,222.846,190.487
171.259,102.134,223.635,191.896
172.461,103.887,224.502,193.26
173.262,104.764,225.605,194.108
173.81,105.988,226.202,195.217
175.278,108.259,227.575,196.969
175.75,110.068,228.27,198.662
176.764,111.259,229.786,199.747
177.494,112.021,231.067,200.114
178.819,113.471,232.884,201.006
180.804,115.39,235.281,202.067
182.137,116.893,236.603,202.637
184.037,118.25,238.267,203.148
185.301,119.698,239.604,203.552
186.543,121.349,240.866,204.283
187.837,123.231,242.141,205.114
188.063,123.42,242.517,205.278
189.19,123.924,243.57,205.357
189.499,123.923,243.918,205.281
191.025,123.633,245.29,204.58
192.777,123.196,246.928,203.813
195.598,123.274,249.856,203.935
198.273,123.652,252.608,204.233
199.407,123.695,253.756,204.484
200.998,124.037,255.396,204.603
203.376,124.733,257.837,205.221
204.269,124.355,258.685,204.65
205.198,124.234,259.631,204.45
205.96,124.157,260.368,204.389
207.865,124.286,262.202,204.268
209.085,124.515,263.456,204.185
209.901,124.832,264.359,204.759
211.043,125.261,265.57,204.907
211.395,125.429,266.356,205.407
211.5,125.456,266.462,205.416
211.612,125.472,266.559,205.424
211.714,125.486,266.661,205.437
211.913,125.495,266.822,205.427
212.195,125.512,267.093,205.428
212.521,125.557,267.406,205.493
212.711,125.573,267.64,205.521
212.801,125.588,267.766,205.546
213.073,125.568,267.979,205.509
213.23,125.518,268.163,205.445
213.81,125.386,268.613,205.344
214.368,125.156,269.214,205.136
215.034,124.847,269.893,204.844
215.506,124.534,270.309,204.509
216.058,124.373,270.874,204.373
216.674,124.253,271.486,204.271
217.124,124.411,271.968,204.911
217.325,124.33,272.221,204.769
217.465,124.291,272.35,204.682
217.546,124.216,272.401,204.494
217.696,124.09,272.476,204.278
217.823,124.239,272.768,204.688
217.941,124.274,272.878,204.733
218.291,124.306,273.156,204.805
218.565,124.311,273.47,204.787
218.663,124.294,273.63,204.716
218.731,124.297,273.706,204.723
218.713,124.214,273.659,204.476
218.737,124.176,273.623,204.174
218.781,124.047,273.666,203.68
218.719,124.175,273.614,203.803
218.618,124.316,273.561,204.072
218.1,124.439,273.107,204.064
217.588,124.698,273.112,204.262
216.756,125.043,272.738,204.538
215.9,124.935,271.808,204.056
214.701,124.839,270.435,203.98
213.458,124.787,269.228,203.832
211.64,124.517,267.316,203.511
209.907,123.927,265.59,202.334
207.931,123.247,263.522,201.287
206.334,122.798,261.685,201.032
204.776,122.352,259.62,200.519
203.245,121.794,257.42,199.951
202.877,121.679,256.795,199.889
202.221,121.34,255.431,199.421
201.799,120.995,254.424,199.083
201.393,120.133,253.37,198.048
201.099,119.038,252.275,196.717
201.162,118.679,252.172,196.344
201.442,118.537,252.55,196.239
201.614,118.04,252.565,195.6
201.601,117.917,252.32,195.617
201.696,117.684,252.402,195.424
201.85,117.68,252.64,195.576
202.113,117.91,252.885,195.843
202.429,118.555,253.106,196.286
203.099,121.399,253.848,198.315
203.391,123.851,254.15,199.677
203.726,126.847,254.536,201.637
203.804,128.063,254.692,202.425
203.618,129.514,254.496,203.231
203.415,130.1,254.355,203.744
203.403,130.383,254.367,204.286
203.401,130.541,254.388,204.396
203.411,130.756,254.393,204.608
203.444,131.027,254.423,204.827
203.472,131.251,254.466,205.07
203.523,131.455,254.492,205.245
203.557,131.607,254.515,205.43
203.619,131.816,254.573,205.536
203.998,131.984,254.869,205.669
204.293,132.022,255.187,205.83
205.202,132.012,256.046,205.853
205.767,132.053,256.705,205.892
206.266,132.864,257.461,206.256
206.516,134.057,258.105,206.99
206.859,139.537,259.26,210.455
208.18,146.221,261.179,215.939
