230.419,88.5423,306.818,169.661
230.977,93.6889,307.468,172.295
235.145,102.155,310.504,180.307
241.506,108.319,316.95,185.046
245.291,114.391,321.386,189.318
250.228,119.336,327.748,191.664
252.909,124.114,331.451,194.825
254.169,127.08,333.407,196.746
254.458,130.479,333.701,199.079
249.577,132.606,327.454,201.387
236.821,135.758,312.086,203.791
224.666,137.363,299.427,206.155
224.763,138.553,300.378,207.578
220.461,139.633,296.699,209.906
219.399,139.067,295.419,210.437
211.333,139.028,286.513,212.674
213.818,133.941,288.054,209.772
216.049,132.786,289.715,209.607
220.535,134.709,293.525,211.877
219.241,137.922,291.353,214.936
216.857,141.022,289.725,216.155
215.331,141.786,289.997,215.778
213.257,141.467,290.563,214.268
212.445,143.611,290.882,215.094
212.791,143.05,290.956,214.119
217.997,141.975,296.445,212.718
227.07,142.387,305.107,213.714
241.637,145.023,320.525,215.563
246.293,151,327.12,218.614
261.752,153.039,347.724,218.734
263.577,152.262,349.827,218.214
266.462,152.122,353.643,218.158
277.913,151.925,364.401,219.185
280.174,153.08,366.312,221.067
282.607,154.985,367.918,223.256
284.227,156.822,369.011,225.778
282.671,157.75,367.162,227.095
281.609,157.423,366.32,227.755
277.749,155.101,361.793,228.002
275.168,156.612,359.933,231.813
274.818,158.124,359.22,233.872
271.566,159.721,355.323,235.328
267.589,163.017,350.411,238.965
266.459,164.798,349.754,240.02
264.408,164.525,348.409,242.292
266.572,166.641,352.1,243.85
274.591,168.406,359.883,243.657
278.657,169.71,362.786,243.135
285.213,171.295,368.235,242.797
284.879,171.963,367.613,242.836
282.925,171.186,365.065,241.353
280.887,172.629,363.077,240.765
279.597,174.855,360.468,240.816
281.5,174.053,362.197,240.325
278.142,174.776,358.757,240.652
287.492,178.039,366.471,243.291
302.366,180.316,379.528,245.934
305.042,182.01,383.004,247.918
306.527,181.439,385.797,247.57
306.969,181.535,387.312,247.785
306.141,181.337,387.742,247.745
306.892,181.09,390.071,247.506
307.786,181.037,391.734,247.658
307.476,181.439,391.75,248.38
306.399,182.067,391.287,248.868
306.811,182.198,391.853,248.823
306.854,183.433,392.848,249.086
307.377,184.93,394.682,250.326
308.726,185.367,396.372,250.771
309.014,185.779,397.417,250.604
307.798,185.475,396.575,248.808
307.471,184.933,397.323,247.63
306.327,185.356,397.674,246.83
307.552,184.445,400.27,244.028
307.288,183.581,400.74,243.169
306.787,182.745,400.803,242.258
306.221,181.455,400.987,241.78
306.876,180.904,402.678,241.233
307.565,180.371,404.129,240.451
307.577,179.381,405.212,239.519
307.396,179.252,406.361,239.293
307.199,178.152,407.565,238.45
306.333,177.619,407.65,237.992
298.847,179.816,402.985,240.195
287.75,180.831,400.098,239.794
266.004,180.318,384.67,237.956
259.456,180.166,378.768,238.167
257.56,179.72,377.12,238.088
260.591,180.106,378.4,239.194
260.921,180.998,376.78,240.489
264.855,180.886,378.748,240.584
265.375,181.109,377.889,240.969
268.191,180.849,379.362,241.153
268.561,180.558,379.009,241.519
269.183,180.371,379.056,241.463
270.8,180.481,380.129,241.929
273.641,180.211,382.468,241.938
276.413,180.421,384.964,242.416
279.582,180.518,387.373,242.697
280.978,180.623,388.952,243.239
282.426,180.774,390.696,243.699
283.354,180.308,391.693,243.534
285.154,180.145,393.356,243.855
287.555,179.63,395.542,243.624
288.415,179.727,396.219,243.71
288.951,179.814,396.931,243.805
290.102,179.94,398.25,243.86
292.587,180.247,401.481,244.045
289.417,181.247,399.041,244.284
292.423,180.497,402.611,243.557
292.193,180.879,402.983,244.061
289.502,182.374,401.162,244.573
282.537,183.094,395.364,245.239
276.944,183.471,392.583,245.108
276.799,183.641,394.991,245.284
276.948,184.696,399.159,245.094
282.197,183.442,407.659,242.917
282.524,181.223,410.691,239.989
280.62,181.605,410.735,240.043
281.592,180.726,412.474,239.084
282.348,179.894,413.977,238.244
283.958,180.142,416.044,238.028
283.639,180.614,416.619,237.641
281.858,181.417,414.79,237.872
282.577,181.234,415.782,237.579
283.132,181.085,416.422,237.59
286.454,181.647,418.952,238.326
299.943,179.668,431.807,236.827
310.71,179.056,440.032,236.132
317.307,179.972,442.436,235.885
319.532,179.827,440.266,234.608
315.116,180.828,434.445,235.596
304.367,176.517,423.311,231.305
294.885,175.035,413.269,229.192
283.251,177.426,401.862,229.767
283.67,177.864,403.193,229.884
284.265,178.109,404.278,230.476
284.653,178.194,405.196,230.569
284.929,178.291,406.063,230.611
285.526,178.52,407.369,230.771
285.507,178.824,407.803,231.157
283.318,179.004,407.453,231.242
281.916,179.3,407.295,231.603
279.943,179.541,405.742,231.717
279.667,179.634,405.716,232.028
278.604,179.628,405.253,231.923
277.099,179.759,404.399,232.121
276.818,180.039,404.637,232.313
277.179,180.231,405.371,232.617
278.382,180.43,407.201,232.417
281.879,179.624,410.376,231.208
282.803,179.496,411.164,231.098
281.5,179.876,411.246,231.053
268.787,180.376,400.802,230.475
264.997,182.933,400.287,232.927
264.233,183.262,401.772,233.124
265.609,183.35,404.438,233.232
267.084,182.369,408.176,232.561
272.027,182.004,417.032,232.09
279.71,181.148,425.86,231.468
280.741,181.099,426.813,231.468
280.816,180.996,427.174,231.426
281.688,180.996,427.81,231.342
280.694,181.805,427.497,231.636
269.782,179.397,416.894,228.708
262.302,180.076,412.439,228.511
253.824,180.37,407.756,228.202
245.361,181.456,402.699,228.323
237.993,181.741,399.646,228.141
238.2,182.323,402.765,228.06
237.889,182.842,403.869,228.515
238.861,183.22,405.573,228.891
240.311,183.707,409.197,229.175
241.165,183.632,412.004,228.729
246.363,183.527,420.056,228.485
253.652,183.419,428.442,228.28
261.018,183.711,434.649,228.622
267.252,184.444,438.651,229.334
272.523,185.51,444.724,229.877
270.355,185.67,440.669,230.003
267.987,182.808,437.125,227.688
268.529,181.244,436.83,226.315
270.399,181.568,440.152,226.488
272.723,178.883,442.861,223.794
273.009,178.072,443.298,222.98
270.327,177.489,441.405,222.357
262.797,176.604,437.412,221.173
251.822,176.526,430.458,220.736
252.072,175.185,432.439,219.097
251.379,176.101,429.607,219.36
243.197,177.618,420.667,220.122
230.352,179.939,406.951,221.625
226.066,181.696,403.769,221.679
223.275,183.225,404.033,221.558
219.541,184.018,399.972,221.706
213.73,184.755,391.48,222.162
210.9,183.496,387.417,219.88
202.186,184.218,378.491,219.814
205.231,184.706,382.074,219.337
200.664,185.114,379.746,218.96
196.024,186,375.157,218.851
189.637,184.406,368.298,216.892
200.245,180.646,377.632,212.568
205.517,181.748,385.727,212.332
202.892,179.677,385.267,209.885
208.434,181.416,393.442,211.201
200.463,179.875,385.529,209.821
197.965,179.405,385.199,209.125
196.846,179.871,386.118,210.08
196.802,180.334,387.662,211.447
199.537,179.992,397.408,211.036
186.051,175.693,389.173,207.255
178.434,174.769,381.238,206.947
184.765,176.02,389.398,207.885
165.93,174.472,371.244,206.433
179.714,172.2,382.232,205.1
192.09,173.782,394.456,207.017
203.242,170.737,410.455,204.629
211.195,170.893,420.563,204.777
223.995,170.831,435.12,204.959
235.755,170.78,450.131,205.173
240.572,169.592,456.433,203.72
242.916,169.293,460.779,203.58
241.767,168.222,459.265,203.135
234.08,166.48,452.099,202.199
230.225,167.202,449.09,203.48
223.826,167.138,441.286,203.406
215.534,167.693,438.786,203.478
209.051,169.251,436.385,204.407
213.939,169.658,452.105,204.976
204.208,168.51,448.224,204.414
201.793,166.436,449.28,203.021
200.044,166.918,446.8,204.18
193.374,168.293,440.05,206.176
189.473,168.803,433.925,206.823
187.014,168.554,422.472,207.162
181.439,169.663,413.087,208.609
180.59,170.198,411.257,209.262
180.632,169.821,411.812,209.528
190.296,168.63,421.663,208.731
206.363,166.758,439.418,206.469
227.268,163.453,465.436,203.988
235.765,163.455,473.756,204.033
241.407,164.004,480.231,204.693
237.398,163.523,474.303,205.82
234.542,160.376,467.965,204.504
238.056,158.701,471.937,203.472
240.49,157.76,479.937,202.648
247.491,157.553,490.538,202.571
255.765,156.889,503.156,202.901
271.42,155.072,517.371,203.693
276.621,155.375,520.467,205.183
284.107,156.727,525.018,207.335
283.984,155.268,524.073,207.071
284.594,153.36,522.006,206.245
284.261,150.241,519.679,203.841
285.562,147.871,518.566,202.605
284.163,144.657,514.539,200.526
281.852,141.76,508.851,199.071
281.617,139.232,506.989,198.335
281.946,136.963,505.928,197.36
284.141,136.363,506.81,197.191
287.584,133.072,508.757,195.179
287.756,132.997,509.175,195.769
286.72,133.26,508.758,195.924
287.321,132.696,509.251,195.578
288.342,131.147,509.114,194.683
290.278,130.022,510.673,194.405
291.386,130.371,510.637,194.821
291.821,130.379,511.17,194.746
293.235,129.563,511.849,193.5
297.22,129.757,513.017,194.094
297.189,131.594,510.324,196.881
295.391,133.208,510.489,198.139
295.011,134.588,510.732,199.823
300.489,135.766,510.98,202.556
306.002,136.507,513.274,203.482
306.902,135.078,511.986,201.704
307.184,133.643,508.998,200.44
308.607,133.684,507.784,201.222
301.089,134.505,502.291,201.241
300.614,135.373,501.629,202.022
302.891,136.548,502.542,203.465
305.633,137.959,503.895,206.638
308.212,140.435,505.374,209.232
310.391,141.86,507.652,210.954
312.978,144.422,510.413,213.435
314.743,147.929,512.068,216.989
319.382,150.873,515.619,220.16
316.543,151.161,514.289,221.574
312.258,150.381,511.541,224.101
308.088,150.84,508.501,226.411
306.464,148.974,509.859,226.756
306.596,148.838,511.745,227.006
305.072,148.773,511.524,227.383
303.323,147.758,511.453,227.781
302.182,145.415,512.509,226.852
306.037,143.186,516.777,225.032
305.413,139.652,521.538,221.924
303.933,138.874,526.254,220.559
308.558,134.866,533.766,217.625
312.104,133.961,536.953,217.296
315.125,134.95,539.978,218.464
316.888,133.244,540.9,217.457
316.465,132.807,540.549,217.914
316.931,130.669,541.494,216.05
310.604,128.595,535.675,215.896
308.82,129.304,534.91,217.376
327.415,132.994,552.894,224.239
321.287,128.413,551.945,220.994
327.111,130.052,557.548,224.707
328.674,129.69,558.638,225.248
330.337,129.034,559.362,226.906
331.671,124.631,557.479,226.902
336.648,120.633,558.173,226.992
335.962,120.345,557.929,228.263
332.848,118.199,553.747,229.046
325.031,117.377,547.788,232.135
319.956,115.103,543.271,232.884
309.39,114.244,538.397,235.715
310.324,114.409,539.726,237.481
301.859,114.786,536.881,238.477
307.084,120.445,541.404,245.887
302.085,120.051,540.241,244.547
297.835,120.096,537.048,243.041
297.291,120.936,536.88,243.15
297.983,123.906,537.735,244.509
297.633,124.606,538.035,245.017
297.414,124.747,537.908,245.025
297.311,124.876,537.776,245.256
297.282,124.719,537.758,245.122
297.572,123.362,538.088,244.437
299.415,122.025,539.139,244.211
302.464,122.209,539.449,246.26
306.799,121.217,539.471,247.918
306.009,118.519,537.963,248.277
305.956,118.062,536.709,248.888
305.764,118.009,536.286,249.379
302.979,117.954,535.225,248.543
299.26,120.71,532.734,252.883
294.457,121.511,526.546,252.945
294.197,120.139,524.516,251.36
287.721,118.497,515.98,250.69
287.235,118.576,513.588,251.576
283.935,115.238,509.881,249.35
287.237,112.113,509.819,249.948
288.88,113.219,509.428,253.551
291.175,111.227,508.592,254.936
291.442,113.708,506.774,260.879
286.068,113.246,506.222,261.973
279.672,117.513,503.799,268.063
262.955,125.654,494.683,272.97
258.685,131.795,497.271,276.164
