476.19,144.208,557.835,254.501
475.98,144.499,558.294,254.701
475.071,144.767,558.105,254.799
473.097,145.075,557.491,254.71
470.867,145.489,556.602,254.564
468.704,145.406,555.644,253.885
465.32,144.891,552.716,252.669
462.784,143.857,550.138,251.408
461.679,143.253,549.23,250.832
460.726,142.533,548.8,250.231
460.132,142.203,548.566,250.108
459.4,142.051,547.858,249.901
458.361,141.567,546.759,249.397
457.523,141.221,545.99,249.044
457.001,141.01,545.552,248.535
456.684,140.954,545.835,248.419
455.306,140.437,544.935,247.349
453.49,140.334,543.479,246.99
452.526,139.744,542.458,246.554
450.326,139.411,540.359,246.078
448.098,139.751,538.866,246.135
446.161,140.103,537.73,246.203
442.358,140.027,534.99,245.927
438.121,139.943,532.01,245.518
432.678,140.494,528.118,245.857
428.471,141.032,525.609,246.003
422.586,142.236,522.301,247.045
414.065,145.967,517.269,250.097
407.78,148.641,514.943,252.368
397.57,152.091,510.883,254.005
388.943,152.539,508.921,252.123
383.015,153.824,505.959,252.011
373.445,155.799,498.964,252.588
355.054,159.177,483.477,254.604
340.74,159.563,467.835,255.283
331.152,158.933,454.395,256.079
326.059,157.936,447.633,255.444
314.762,161.683,436.68,259.355
306.228,165.389,428.984,262.981
296.348,169.914,418.088,266.313
275.284,173.997,397.247,268.985
263.897,179.761,384.009,274.305
253.373,182.468,372.146,279.538
247.069,182.777,365.942,282.181
244.238,184.577,363.27,285.381
243.716,185.218,363.048,287.769
243.262,185.39,362.39,290.256
243.421,184.635,362.667,290.776
243.571,184.452,362.884,291.746
243.959,183.806,363.135,293.261
245.045,182.071,363.555,294.329
245.65,181.87,364.229,295.274
246.085,181.514,364.944,295.625
247.268,181.487,366.063,296.311
250.633,179.905,368.281,296.443
253.741,179.03,370.751,296.868
255.703,178.776,372.669,297.141
261.312,177.987,377.464,296.42
263.758,176.209,381.505,293.391
263.268,174.932,385.073,292.881
263.429,175.064,385.927,294.856
262.929,175.319,386.566,297.23
264.218,174.715,389.359,300.26
265.468,174.537,390.678,303.838
266.198,171.991,391.647,305.473
266.097,171.098,391.695,307.007
265.353,170.016,391.811,307.552
264.988,168.277,391.056,308.195
264.57,166.173,390.941,307.705
263.759,164.816,390.182,308.361
263.051,163.366,389.185,309.334
262.893,162.012,388.649,309.894
261.599,160.081,386.027,311.067
261.443,157.235,383.639,311.414
260.791,155.06,381.686,312.36
260.016,153.734,378.932,313.1
260.373,152.274,377.595,313.525
260.114,150.278,375.505,313.516
260.857,148.247,374.757,313.734
260.676,148.953,372.892,315.393
260.094,152.455,370.001,317.267
259.949,153.728,368.152,317.512
261.147,150.706,367.629,314.826
261.304,149.465,365.709,312.648
261.037,149.603,365.033,309.76
259.92,150.54,363.335,307.525
249.926,148.29,354.203,300.394
235.324,147.556,339.149,298.263
224.941,146.115,327.729,297.02
220.449,144.849,322.945,296.015
216.795,143.993,318.868,295.613
214.775,143.37,317.047,295.653
212.224,142.406,314.401,295.432
210.147,141.359,312.252,295.349
209.677,140.854,311.952,294.864
209.115,140.807,311.465,295.286
208.798,140.624,311.303,295.04
208.302,140.234,311.161,294.73
206.32,139.732,309.373,294.703
203.74,138.293,307.263,294.286
202.813,137.874,307.283,293.949
202.319,137.988,307.019,294.386
201.487,137.86,306.85,294.232
200.592,137.718,306.478,294.099
199.496,137.389,305.863,293.854
199.057,137.106,305.687,293.539
199.144,137.045,306.134,293.477
199.068,137.013,306.043,293.441
198.971,136.962,305.972,293.385
198.999,136.911,306.511,293.323
198.907,136.833,306.987,293.26
198.951,136.76,307.439,293.225
198.743,136.684,307.246,293.138
198.618,136.509,307.672,292.959
198.642,136.346,308.163,292.786
198.268,136.038,308.459,292.605
197.982,136.013,308.608,293.083
197.565,135.953,308.735,293.458
196.353,135.374,308.137,293.639
195.861,134.933,307.989,293.543
195.622,134.855,308.249,293.894
194.428,134.06,307.673,294.248
193.93,133.987,307.716,294.513
193.38,134.121,307.839,295.159
191.106,134.142,307.04,295.942
189.535,133.14,306.035,295.98
186.625,132.049,304.17,295.705
185.821,131.944,303.889,296.052
184.61,131.305,302.828,296.212
181.335,130.361,298.918,296.068
179.216,129.684,296.242,296.046
178.451,129.743,295.464,296.584
178.287,130.111,295.681,297.124
178.38,130.709,295.819,298.001
178.447,131.145,295.924,298.458
178.505,131.583,295.979,298.908
178.583,132.058,296.096,299.321
178.716,132.382,296.747,299.735
178.617,132.721,297.27,300.057
178.666,133.026,297.702,300.362
178.753,133.319,298.309,300.632
178.701,134.019,298.846,301.171
178.857,134.213,299.31,301.628
178.852,134.289,299.305,301.71
178.865,134.39,299.327,301.794
178.861,134.552,299.324,301.931
178.862,134.68,299.316,302.09
178.843,134.797,299.302,302.204
178.911,134.874,299.352,302.291
178.961,134.907,299.404,302.327
179.045,134.96,299.488,302.359
179.147,135.021,299.577,302.435
179.237,135.093,299.681,302.495
179.298,135.144,299.727,302.619
179.34,135.137,299.768,302.589
179.364,135.192,299.811,302.621
179.389,135.223,299.827,302.677
179.427,135.234,299.864,302.679
179.452,135.267,299.898,302.701
179.482,135.295,299.922,302.731
179.492,135.359,299.945,302.787
179.502,135.425,299.956,302.856
179.523,135.458,299.966,302.893
179.545,135.465,299.967,302.935
179.605,135.495,300.056,302.94
179.664,135.515,300.103,302.967
179.713,135.55,300.163,302.993
179.77,135.592,300.21,303.034
179.817,135.621,300.256,303.059
179.914,135.655,300.349,303.092
179.993,135.697,300.434,303.154
180.024,135.763,300.472,303.178
180.142,135.786,300.555,303.253
180.308,135.823,300.713,303.296
180.363,135.836,300.823,303.27
180.332,135.855,300.742,303.371
180.384,136.183,300.829,304.165
180.68,135.945,300.997,304.148
181.556,134.324,301.577,305.025
182.062,133.513,301.769,307.563
170.812,134.16,288.799,310.793
165.498,138.374,281.993,316.812
158.427,140.459,274.359,318.242
154.034,142.543,269.305,320.78
146.384,142.457,260.636,321.734
136.494,140.254,248.26,321.747
134.246,138.146,243.018,321.074
132.306,135.198,237.437,320.839
126.372,130.554,227.976,322.547
123.826,128.237,222.528,323.658
124.319,126.955,220.858,325.004
123.036,126.524,218.297,326.566
121.282,127.333,215.624,328.144
117.749,129.575,211.204,331.133
112.639,133.064,204.335,335.589
111.942,136.295,202.962,338.619
110.429,136.459,200.887,339.351
108.828,136.725,198.188,339.703
109.269,136.805,198.08,339.349
109.855,137.658,198.091,340.154
109.614,138.487,197.866,340.497
109.748,139.607,198.114,341.479
109.734,140.409,198.194,341.791
109.813,140.809,198.28,342.036
109.821,141.535,198.293,342.474
111.257,142.016,199.826,341.139
111.51,143.068,201.143,340.169
112.652,144.54,204.42,338.245
111.614,145.223,205.992,337.04
112.334,145.001,210.243,332.545
114.571,142.375,218.068,329.311
113.557,140.955,220.515,326.605
112.999,140.387,221.662,326.219
112.909,138.369,222.718,323.786
112.147,136.622,222.425,321.434
110.385,137.325,220.955,320.122
109.976,138.191,220.699,320.094
110.004,139.381,220.57,319.516
110.227,139.934,220.986,319.981
110.443,140.176,221.16,320.664
110.707,139.914,221.241,320.913
111.139,139.565,221.568,320.825
111.653,139.194,221.613,321.103
112.415,138.166,221.058,321.31
113.097,137.344,220.763,321.724
114.454,135.682,220.769,321.528
115.523,133.99,220.464,320.711
116.967,131.657,220.079,320.127
117.801,129.052,219.333,319.016
118.595,127.717,219.287,318.868
119.116,126.265,218.687,318.881
119.346,124.331,217.789,318.824
119.087,122.413,216.183,318.544
119.249,120.737,215.786,318.114
120.073,119.236,215.76,318.162
120.42,118.544,215.515,318.401
120.685,117.87,215.452,318.618
121.09,117.427,215.149,319.046
121.421,117.353,215.251,319.715
121.668,117.136,215.208,319.976
122.031,116.506,215.268,320.407
122.321,115.977,215.068,320.642
122.737,115.415,214.98,321.344
123.061,114.917,214.938,321.285
123.292,114.678,214.755,321.58
123.397,114.246,214.328,321.962
123.371,113.908,214.055,322.387
123.403,113.456,214.054,322.252
123.474,112.978,214.123,322.221
123.5,112.809,214.31,322.41
123.523,112.632,214.266,322.884
123.621,112.429,214.289,323.13
123.759,112.022,214.427,323.322
123.88,111.767,214.636,323.341
124.047,111.527,214.762,323.635
124.188,111.438,214.961,323.948
124.338,111.141,215.01,324.241
124.423,110.91,215.189,324.367
124.444,110.494,215.22,323.903
124.563,110.179,215.217,323.669
124.736,109.749,215.317,323.263
125.042,109.478,215.39,323.246
125.193,109.157,214.987,322.824
125.312,108.5,214.545,322.334
125.344,108.014,214.298,321.901
125.266,107.475,213.83,321.394
125.521,106.807,213.966,320.385
125.523,106.361,213.539,320.125
125.696,105.962,213.802,319.565
125.814,105.573,213.798,319.508
125.693,105.146,213.247,318.821
125.817,104.991,213.396,318.707
125.633,104.891,213.1,318.438
125.608,104.818,212.799,318.629
125.501,104.496,212.429,317.75
125.411,104.312,211.829,317.431
125.484,104.259,211.533,317.574
125.76,103.937,211.769,317.04
126.031,103.863,211.992,317.187
125.936,103.534,211.552,316.815
126.044,103.393,211.799,316.693
126.1,103.285,211.865,316.565
126.109,103.234,211.783,316.457
126.167,103.207,211.922,316.494
126.17,103.053,211.929,316.38
126.01,102.912,211.627,316.04
126.034,102.94,211.71,316.284
126.089,102.71,211.744,316.213
125.874,102.538,211.497,316.301
125.859,102.369,211.471,316.044
125.455,102.26,210.881,315.99
125.296,102.094,210.424,316.083
125.37,101.782,210.493,315.92
125.493,101.734,210.74,316.182
125.488,101.602,210.747,315.99
125.442,101.497,210.716,315.951
125.366,101.312,210.589,315.744
125.326,101.085,210.518,315.527
125.327,100.92,210.639,315.389
125.146,100.592,210.261,315.232
125.229,100.262,210.376,315.397
125.134,100.282,210.372,315.865
125.016,100.211,210.178,316.336
124.935,99.9932,210.123,316.601
124.834,99.9523,210.06,316.919
124.781,99.6516,210.093,316.6
124.718,99.2422,209.972,316.15
123.966,98.6951,208.959,315.863
123.654,98.2841,208.416,316.027
122.664,97.5213,206.978,315.913
122.45,96.7418,206.569,315.496
122.298,96.1969,206.41,315.471
121.852,95.8105,205.857,315.596
121.945,95.7666,206.314,315.782
121.869,95.6979,206.225,316.225
121.831,95.3594,206.076,316.678
121.78,94.9667,206.066,316.632
121.703,94.8079,206.008,316.957
121.66,94.7225,206.012,317.203
121.617,94.4801,205.951,317.055
121.577,94.4638,205.971,317.42
121.556,94.2697,205.965,317.193
121.481,93.962,205.837,316.939
121.493,93.829,205.913,316.744
121.418,93.6425,205.813,316.577
121.408,93.4787,205.807,316.456
121.212,93.1076,205.557,316.156
121.215,93.1891,205.652,316.646
121.124,92.8212,205.547,316.263
121.021,92.5655,205.422,316.038
120.993,92.4596,205.443,315.811
120.926,92.3988,205.384,315.75
120.797,92.2662,205.224,315.655
120.74,92.2364,205.173,315.634
120.7,92.2065,205.144,315.57
120.609,92.1818,205.046,315.552
120.565,92.1714,204.999,315.565
120.545,92.1587,204.996,315.527
120.482,92.1135,204.926,315.47
120.431,92.1146,204.884,315.451
120.362,92.0362,204.802,315.401
120.253,91.8765,204.684,315.223
120.143,91.7883,204.573,315.117
120.144,91.5749,204.544,315.044
119.979,90.9795,204.202,314.317
120.006,90.6111,204.329,314.009
119.927,90.5685,204.327,313.946
119.782,90.4556,204.156,313.822
119.686,90.4156,204.088,313.788
119.614,90.3859,204.033,313.759
119.48,90.407,203.871,313.764
119.333,90.3831,203.718,313.733
119.166,90.2939,203.545,313.651
118.723,90.1614,203.012,313.486
118.396,90.0531,202.72,313.394
117.932,89.8197,202.216,313.116
117.89,89.7828,202.314,313.082
117.779,89.5992,202.212,312.87
117.353,88.7769,201.683,311.998
117.177,88.2314,201.521,311.601
116.344,87,200.522,309.927
115.922,86.3095,199.983,308.827
115.887,85.7713,200.2,308.475
115.933,85.4339,200.28,308.191
116.012,84.9531,200.319,307.679
115.899,84.7573,200.282,307.366
115.843,84.3718,200.137,306.954
115.915,84.3285,200.264,307.061
115.856,84.2692,200.327,306.875
115.699,84.2291,200.17,306.889
115.546,84.1382,200.017,306.8
115.378,84.0261,199.844,306.678
115.264,84.004,199.737,306.612
115.161,84.0194,199.618,306.663
115.185,84.0221,199.624,306.759
115.214,83.9259,199.651,306.557
115.266,83.8694,199.692,306.543
115.277,83.8878,199.733,306.654
115.152,83.7481,199.617,306.29
115.185,83.7974,199.63,306.544
115.243,83.6609,199.663,306.391
115.184,83.5768,199.639,306.18
115.198,83.6021,199.645,306.363
115.238,83.5204,199.678,306.237
115.159,83.5033,199.625,306.282
115.191,83.4512,199.629,306.173
115.231,83.3806,199.67,306.116
115.134,83.2602,199.591,305.884
115.137,83.3189,199.589,306.077
115.156,83.2903,199.6,305.991
115.182,83.3359,199.622,306.068
115.223,83.3094,199.661,306.001
115.243,83.4133,199.704,306.279
115.254,83.441,199.711,306.298
115.186,83.3442,199.644,306.03
115.214,83.3753,199.658,306.176
115.249,83.3571,199.694,306.118
115.262,83.4336,199.723,306.299
115.25,83.4549,199.715,306.328
115.24,83.4485,199.698,306.288
115.222,83.4313,199.682,306.244
115.267,83.3665,199.703,306.083
115.257,83.3918,199.71,306.183
115.267,83.4559,199.731,306.34
115.206,83.3838,199.662,306.124
115.256,83.3137,199.686,306.009
115.288,83.428,199.746,306.295
115.303,83.4608,199.758,306.332
115.292,83.407,199.739,306.202
115.303,83.3773,199.745,306.12
115.306,83.4011,199.755,306.197
115.294,83.4012,199.746,306.2
115.286,83.3762,199.727,306.106
115.271,83.4596,199.724,306.319
115.268,83.4395,199.721,306.275
115.251,83.4244,199.705,306.253
115.244,83.4357,199.692,306.259
115.217,83.3988,199.673,306.194
115.24,83.348,199.677,306.106
115.261,83.4353,199.721,306.319
115.277,83.441,199.73,306.311
115.272,83.413,199.724,306.2
115.225,83.4257,199.688,306.274
115.269,83.3461,199.706,306.109
115.303,83.4121,199.755,306.259
115.308,83.4451,199.767,306.319
115.269,83.4646,199.724,306.328
115.225,83.4607,199.682,306.314
115.256,83.4006,199.702,306.157
115.236,83.4371,199.693,306.288
115.199,83.3944,199.647,306.231
115.233,83.3668,199.677,306.12
115.232,83.4577,199.688,306.331
115.172,83.416,199.63,306.28
115.2,83.4073,199.651,306.235
115.219,83.4069,199.668,306.201
115.208,83.448,199.663,306.339
115.211,83.4094,199.668,306.259
115.202,83.419,199.655,306.25
115.194,83.4756,199.646,306.369
115.193,83.5238,199.644,306.422
115.151,83.4695,199.595,306.364
115.15,83.5077,199.603,306.403
115.137,83.5034,199.584,306.421
115.081,83.4365,199.497,306.386
115.019,83.2335,199.366,306.351
114.965,82.9984,199.321,306.606
114.967,82.7396,199.346,306.821
114.928,82.5203,199.246,307.171
114.737,81.8027,199.071,306.866
114.781,81.7253,199.219,307.126
114.782,81.6329,199.222,307.147
114.791,81.3855,199.173,307.619
114.844,81.4907,199.3,307.918
114.854,81.5275,199.312,307.93
114.845,81.5473,199.3,307.974
114.845,81.5609,199.302,307.963
114.869,81.5419,199.312,307.966
114.951,81.464,199.272,307.781
115.071,81.4884,199.457,307.8
115.162,81.5647,199.539,307.884
115.231,81.5914,199.636,308.001
115.283,81.5672,199.723,307.901
115.313,81.5793,199.749,307.906
115.309,81.5828,199.746,307.916
115.276,81.5808,199.719,307.938
115.265,81.6128,199.72,307.993
115.225,81.6372,199.667,308.024
115.231,81.6427,199.692,308.019
115.262,81.607,199.7,307.997
115.285,81.5956,199.736,307.933
115.341,81.6337,199.735,307.984
115.446,81.73,199.805,308.031
115.586,81.8267,199.899,308.143
115.746,81.8952,200.103,308.21
115.887,81.9848,200.223,308.28
116.049,82.1391,200.332,308.42
116.146,82.2651,200.56,308.641
116.175,82.3412,200.598,308.724
116.19,82.4023,200.641,308.797
116.179,82.463,200.625,308.848
116.168,82.5264,200.619,308.911
116.168,82.6013,200.608,308.943
116.179,82.6793,200.609,309.002
116.162,82.7617,200.605,309.1
116.148,82.8329,200.601,309.217
116.145,82.883,200.602,309.275
116.146,82.9259,200.604,309.313
116.148,82.9766,200.606,309.367
116.148,83.0219,200.603,309.41
116.157,83.0801,200.606,309.467
116.164,83.1109,200.595,309.453
116.161,83.1355,200.595,309.471
116.2,83.1673,200.623,309.463
116.222,83.1765,200.618,309.445
116.251,83.1305,200.656,309.433
116.265,83.1383,200.716,309.452
116.248,83.1495,200.69,309.495
116.25,83.167,200.679,309.507
116.285,83.1333,200.662,309.412
116.304,83.1594,200.737,309.505
116.308,83.1301,200.742,309.42
116.325,83.1479,200.755,309.478
116.342,83.1817,200.778,309.443
116.385,83.1299,200.767,309.393
116.433,83.159,200.881,309.474
116.506,83.0951,200.883,309.437
116.569,83.1037,201.008,309.384
116.608,83.1778,201.048,309.516
116.701,83.0413,201.019,309.372
116.802,83.0455,201.239,309.389
116.858,83.0487,201.283,309.366
116.898,83.0872,201.343,309.436
116.919,83.1097,201.367,309.464
116.94,83.1997,201.354,309.552
117.034,83.0082,201.346,309.365
117.119,83.0071,201.562,309.341
117.15,83.024,201.572,309.328
117.19,83.0425,201.627,309.369
117.217,83.0504,201.643,309.368
117.215,83.0205,201.519,309.242
117.233,83.1678,201.492,309.433
117.347,83.0007,201.597,309.081
117.416,83.1606,201.757,309.431
117.456,82.7821,201.699,308.895
117.521,82.8896,201.867,309.238
117.485,82.8684,201.836,309.11
117.491,82.9896,201.901,309.29
117.46,83.0504,201.838,309.326
117.447,83.0605,201.798,309.324
117.448,83.1335,201.847,309.38
117.447,82.7745,201.727,308.847
117.53,83.0079,201.864,309.318
117.541,83.1038,201.917,309.347
117.54,83.2458,201.907,309.531
117.599,82.9258,201.922,309.061
117.624,83.0958,201.893,309.374
117.678,83.2091,202.095,309.51
117.602,82.7572,201.872,308.65
117.695,82.7424,202.086,308.522
117.746,82.7779,202.103,308.602
117.795,82.737,202.165,308.533
117.845,82.6749,202.14,308.432
117.928,82.7559,202.338,308.607
117.991,82.7304,202.361,308.554
118.051,82.6542,202.401,308.442
118.105,82.6502,202.515,308.431
118.123,82.6845,202.541,308.458
118.134,82.5978,202.523,308.383
118.208,82.464,202.535,308.189
118.252,82.4726,202.521,308.337
118.302,82.441,202.549,308.292
118.403,82.5252,202.691,308.406
118.506,82.528,202.811,308.387
118.558,82.5697,202.929,308.39
118.564,82.6405,202.92,308.482
118.625,82.6519,202.946,308.523
118.658,82.6994,203.029,308.546
118.684,82.6857,203.027,308.478
118.762,82.7495,203.07,308.593
118.817,82.8068,203.176,308.696
118.853,82.8085,203.18,308.649
118.891,82.8797,203.183,308.724
118.955,82.937,203.252,308.825
119.009,82.969,203.318,308.792
119.117,82.8621,203.221,308.745
119.303,82.9117,203.735,308.779
119.322,82.9499,203.729,308.805
119.385,82.8154,203.787,308.544
119.426,82.9083,203.816,308.755
119.467,82.9138,203.818,308.711
119.541,82.7393,203.908,308.57
119.592,82.7644,204.007,308.635
119.607,82.8295,204.01,308.68
119.634,82.8748,204.036,308.693
119.648,83.0091,204.071,308.878
119.629,82.967,203.929,308.748
119.724,82.9269,204.068,308.702
119.814,82.9191,204.169,308.752
119.886,82.9097,204.305,308.681
119.927,82.8419,204.34,308.552
119.958,82.9801,204.348,308.828
120.016,82.8644,204.247,308.635
120.106,82.7913,204.54,308.551
120.155,82.622,204.605,308.38
120.101,82.213,204.477,307.79
120.013,81.3487,203.815,307.164
119.655,79.0989,202.464,305.108
119.599,77.8539,201.765,303.839
119.005,77.6803,200.296,301.341
118.331,77.6241,198.588,299.164
117.614,77.6261,196.871,299.19
117.085,77.0717,195.211,298.249
116.918,76.8053,194.423,297.919
116.798,76.42,194.136,297.524
116.733,76.2628,193.975,297.49
116.684,75.9806,194.02,297.097
116.324,75.4375,193.55,296.226
116.172,74.3333,193.362,294.648
115.694,73.1572,192.371,292.55
115.903,73.213,192.168,291.423
116.17,73.7445,192.118,291.297
116.191,74.6926,191.731,290.988
116.464,75.0193,192.178,290.544
116.735,75.2719,191.639,290.8
116.93,75.5817,191.342,291.222
116.993,75.7902,191.197,291.344
117.036,76.0482,191.04,291.866
117.206,76.4212,191.323,292.155
117.316,76.7336,191.593,292.485
117.164,77.1754,191.225,292.755
116.632,77.7448,190.496,292.945
116.691,77.7939,189.913,292.837
116.672,78.1343,189.485,293.147
116.78,78.457,189.233,293.844
116.722,78.6272,189.053,293.898
116.746,78.872,189.081,294.108
116.765,79.1201,189.086,294.444
116.812,79.2736,189.219,294.627
116.824,79.4468,189.171,294.787
116.857,79.6316,189.214,294.975
116.903,79.7631,189.286,295.117
116.975,79.8297,189.374,295.145
117.008,79.9316,189.401,295.26
117.077,80.0199,189.467,295.317
117.143,80.0978,189.526,295.384
117.204,80.1962,189.634,295.531
117.236,80.2337,189.673,295.536
117.279,80.374,189.686,295.604
117.349,80.5648,189.721,295.807
117.429,80.7554,189.815,295.949
117.528,80.9808,189.846,295.889
117.649,81.1481,190.014,295.619
117.706,81.2074,190.122,295.463
117.801,81.3515,190.102,295.376
117.947,81.6544,190.194,295.518
118.078,81.7341,190.501,295.477
118.109,81.8725,190.528,295.549
118.191,82.0848,190.445,295.287
118.294,82.2723,190.602,295.347
118.35,82.5035,190.672,295.587
118.408,82.7194,190.849,295.959
118.408,82.838,190.766,295.806
118.456,82.8571,190.904,295.68
118.484,83.049,190.85,295.525
118.547,83.1418,190.95,295.261
118.564,83.3783,190.845,295.352
118.642,83.4003,191.059,295.055
118.644,83.6102,191.029,295.391
118.667,83.7272,191.123,295.545
118.664,83.827,191.098,295.57
118.663,83.9972,191.112,295.803
118.655,84.3733,190.925,295.355
118.732,84.4652,191.131,295.082
118.771,85.1082,190.827,295.221
118.955,85.7631,191.089,295.336
119.114,86.2152,191.42,295.666
119.156,86.3342,191.498,295.428
119.209,86.8341,191.432,295.608
119.257,87.0826,191.509,295.557
119.295,87.0844,191.683,295.084
119.295,87.0775,191.706,294.702
119.3,87.3595,191.623,294.786
119.252,87.3479,191.707,294.578
119.158,87.577,191.569,294.407
119.18,87.7682,191.54,294.551
119.268,87.9368,191.611,294.729
119.314,88.1296,191.738,294.713
119.288,88.4575,191.68,295.029
119.383,88.7375,191.708,295.464
119.482,89,191.771,295.595
119.597,89.2643,191.939,295.998
119.66,89.4171,192.098,296.246
119.68,89.597,192.07,296.377
119.737,89.7579,192.045,296.35
119.831,90.0565,192.108,296.347
119.9,90.3286,192.325,296.43
119.965,90.3583,192.269,296.327
120.055,90.357,192.473,296.172
120.067,90.4529,192.5,296.275
120.089,90.4453,192.495,296.126
120.152,90.6125,192.49,296.355
120.234,90.7532,192.661,296.599
120.245,90.8369,192.542,296.127
120.442,90.7286,192.769,295.859
120.64,90.7065,192.942,295.978
121.042,90.3984,193.161,295.706
121.234,90.4388,193.631,295.43
121.132,90.4537,193.521,295.214
121.338,90.1715,193.529,294.826
121.448,90.3608,193.915,295.237
121.319,90.4022,193.745,295.224
121.241,90.449,193.665,295.266
121.229,90.7596,193.515,295.676
121.251,90.9684,193.667,295.809
121.167,91.3597,193.543,296.071
121.304,91.2699,193.555,296.043
121.3,91.5989,193.683,296.392
121.32,91.6795,193.661,296.611
121.356,91.7527,193.785,296.649
121.373,91.8285,193.815,296.766
121.362,91.7829,193.785,296.701
121.376,91.8014,193.808,296.696
121.386,91.8463,193.826,296.786
121.385,91.8076,193.814,296.747
121.413,91.7848,193.852,296.678
121.386,91.7717,193.833,296.646
121.359,91.8211,193.797,296.751
121.342,91.8672,193.781,296.767
121.355,91.9186,193.776,296.799
121.356,91.9996,193.792,296.913
121.379,91.9732,193.822,296.915
121.372,91.9682,193.775,296.921
121.396,91.9807,193.839,296.886
121.426,92.0771,193.792,296.95
121.445,92.0583,193.87,296.923
121.428,92.0501,193.816,296.913
121.469,92.0308,193.901,296.922
121.461,92.1281,193.893,297.047
121.496,92.0994,193.928,296.932
121.505,92.1594,193.949,297.058
121.543,92.1974,193.992,297.135
121.541,92.2563,193.974,297.196
121.591,92.2307,194.032,297.177
121.598,92.2523,194.058,297.184
121.578,92.2771,194.021,297.246
121.559,92.2835,193.987,297.254
121.567,92.3016,194.013,297.246
121.567,92.269,193.999,297.206
121.556,92.2997,193.974,297.175
121.554,92.3597,193.972,297.212
121.597,92.3316,194.032,297.193
121.596,92.4101,194.03,297.367
121.581,92.3743,194.005,297.272
121.614,92.3823,194.061,297.325
121.617,92.4902,194.042,297.443
121.771,92.0757,194.045,297.327
121.912,91.8704,194.145,297.266
122.098,91.8006,194.394,297.385
122.204,91.3955,194.417,297.663
122.197,91.6751,194.513,298.102
122.213,91.7653,194.644,298.149
122.214,91.6887,194.626,298.023
122.14,91.8944,194.55,298.236
122.125,91.878,194.528,298.156
122.139,91.7388,194.538,298
122.181,91.6979,194.611,298.068
122.2,91.6357,194.646,297.975
122.196,91.6526,194.639,298.041
122.216,91.6845,194.639,298.11
122.135,91.9301,194.496,298.277
122.139,91.9802,194.56,298.346
122.124,92.0028,194.558,298.349
122.142,91.9419,194.569,298.405
122.17,91.9495,194.573,298.323
122.211,91.8753,194.642,298.264
122.287,91.8727,194.67,298.267
122.258,92.0601,194.64,298.397
122.199,92.3202,194.599,298.61
122.347,91.8837,194.665,298.813
122.342,91.9933,194.749,298.875
122.322,92.0598,194.756,298.973
122.327,92.1279,194.743,299.116
122.278,92.2241,194.642,299.141
122.285,92.2588,194.683,299.214
122.281,92.3907,194.703,299.256
122.233,92.4841,194.652,299.376
122.191,92.1796,194.546,299.3
122.302,91.9841,194.578,299.828
122.412,91.4999,194.725,299.658
122.466,91.3736,194.753,300.026
122.588,91.1146,194.896,300.056
122.648,91.1002,195.081,299.969
122.619,91.1978,195.005,300.059
122.571,91.1082,194.938,299.911
122.582,91.2089,194.954,300.077
122.586,91.2119,194.998,300.058
122.556,91.2821,194.932,300.126
122.603,91.3378,195.018,300.229
122.601,91.32,194.977,300.077
122.641,91.3173,195.051,300.128
122.631,91.354,195.039,300.159
122.58,91.4738,194.932,300.272
122.646,91.1484,195.005,300.272
122.684,91.0851,195.065,300.422
122.668,90.8834,195.077,300.081
122.699,90.7356,195.038,300.019
122.755,90.605,195.123,299.824
122.722,90.7629,195.011,300.097
122.755,90.6066,195.076,299.948
122.723,90.721,195.086,300.087
122.774,90.5808,195.178,299.891
122.676,90.6162,194.972,299.998
122.644,90.6633,194.986,300.019
122.641,90.7414,194.923,300.032
122.734,90.6454,195.118,300.024
122.649,90.7332,194.821,299.947
122.793,90.6094,195.117,299.972
122.783,90.7409,195.149,300.06
122.825,90.5794,195.215,299.906
122.673,90.5426,194.888,299.82
122.664,90.6008,194.955,299.847
122.572,90.6351,194.832,299.93
122.534,90.5488,194.839,299.822
122.521,90.5732,194.797,299.826
122.479,90.6852,194.802,299.992
122.516,90.6303,194.892,299.948
122.399,90.7546,194.709,300.03
122.469,90.7343,194.854,299.997
122.516,90.6163,194.854,299.947
122.553,90.637,194.905,300.002
122.57,90.5929,194.828,299.962
122.531,90.5056,194.834,299.908
122.552,90.4057,194.886,299.804
122.556,90.2994,194.844,299.661
122.566,90.2264,194.873,299.618
122.551,90.1687,194.904,299.572
122.507,90.2438,194.692,299.675
122.491,90.2038,194.691,299.61
122.579,90.245,194.951,299.644
122.587,90.2284,194.924,299.578
122.567,90.3001,194.891,299.612
122.516,90.4253,194.677,299.628
122.599,90.4496,194.84,299.679
122.718,90.5391,195.061,299.879
122.746,90.5792,195.141,299.948
122.714,90.6179,195.085,299.995
122.747,90.6644,195.104,300.07
122.781,90.5803,195.143,299.884
122.746,90.6727,195.015,300.062
122.73,90.5612,194.976,299.923
122.749,90.6646,195.083,299.999
122.654,90.6916,194.918,300.062
122.774,90.6357,195.201,299.976
122.75,90.7615,195.167,300.127
122.786,90.695,195.182,299.974
122.812,90.6953,195.229,300.032
122.791,90.4877,195.186,299.812
122.774,90.6442,195.177,299.985
122.725,90.8428,195.148,300.18
122.752,90.7575,195.166,300.066
122.79,90.7115,195.192,300.033
122.834,90.675,195.263,299.998
122.887,90.6063,195.3,299.87
122.87,90.7879,195.303,300.156
122.903,90.7561,195.341,300.079
122.939,90.7535,195.382,300.069
122.948,90.7628,195.403,300.148
122.956,90.7455,195.403,300.078
122.992,90.7663,195.439,300.125
123.015,90.7423,195.427,300.097
123.058,90.7066,195.495,300.033
123.073,90.613,195.491,299.902
123.019,90.7752,195.411,300.133
123.106,90.6186,195.48,299.996
123.109,90.7777,195.43,300.119
123.201,90.7556,195.632,300.103
123.239,90.6398,195.643,299.96
123.172,90.7306,195.559,300.121
123.244,90.5465,195.662,299.802
123.17,90.5751,195.567,300.001
123.149,90.5889,195.59,299.984
123.146,90.7231,195.551,300.12
123.196,90.6717,195.636,299.99
123.234,90.6264,195.658,299.919
123.119,90.5915,195.542,300.023
123.105,90.6708,195.52,300.03
123.055,90.798,195.457,300.178
123.11,90.7479,195.5,300.069
123.185,90.6706,195.572,300.051
123.215,90.7814,195.651,300.206
123.235,90.691,195.621,299.91
123.247,90.7339,195.685,300.209
123.135,90.5444,195.548,299.974
123.103,90.6025,195.545,299.985
123.051,90.6862,195.491,300.043
123.092,90.5646,195.518,299.806
123.046,90.6758,195.485,300.031
122.989,90.69,195.398,300.074
123.022,90.7478,195.472,300.181
123.046,90.5661,195.476,299.83
123.019,90.681,195.431,300.101
122.986,90.7782,195.42,300.134
122.976,90.6577,195.403,300
122.95,90.6962,195.394,300.12
122.903,90.7827,195.319,300.185
122.924,90.5386,195.276,299.844
122.952,90.6974,195.35,300.093
122.981,90.7831,195.385,300.205
123.035,90.7492,195.445,300.125
123.081,90.6611,195.491,299.982
123.135,90.5965,195.537,299.923
123.048,90.7652,195.32,300.083
123.173,90.6535,195.564,299.93
123.202,90.6222,195.581,299.861
123.055,90.4811,195.399,300.025
123.056,90.6617,195.411,300.502
123.07,90.7305,195.511,300.603
123.017,90.6839,195.413,300.512
122.985,90.6019,195.388,300.368
122.969,90.5182,195.371,300.313
122.961,90.5399,195.362,300.375
122.969,90.6013,195.402,300.493
122.923,90.5965,195.303,300.464
122.887,90.624,195.266,300.503
122.9,90.6319,195.289,300.477
122.904,90.6182,195.267,300.432
122.95,90.6999,195.386,300.568
122.935,90.718,195.344,300.578
122.849,90.6469,195.199,300.421
122.802,90.643,195.172,300.424
122.793,90.7086,195.159,300.601
122.78,90.7103,195.151,300.541
122.817,90.8001,195.149,300.628
122.862,90.8286,195.261,300.709
122.885,90.8352,195.302,300.723
122.895,90.8593,195.295,300.692
122.907,90.8223,195.273,300.613
122.959,90.8117,195.363,300.669
122.923,90.7612,195.34,300.608
122.847,90.7084,195.119,300.528
122.854,90.6991,195.243,300.631
122.865,90.6276,195.272,300.532
122.88,90.5394,195.265,300.407
122.853,90.5908,195.216,300.474
122.862,90.5768,195.254,300.396
122.851,90.6575,195.163,300.422
122.861,90.727,195.217,300.502
122.878,90.7486,195.184,300.546
122.862,90.813,195.217,300.443
122.834,90.9776,195.174,300.509
122.915,90.6718,195.281,300.356
122.894,90.6744,195.297,300.434
122.85,90.5606,195.229,300.284
122.815,90.6323,195.213,300.479
122.747,90.4296,195.099,300.135
122.687,90.1685,194.852,300.108
122.745,90.0856,195.163,299.968
122.73,90.0779,195.128,299.944
122.699,90.0143,195.002,299.93
122.726,90.0868,195.134,299.933
122.674,90.0042,195.016,299.827
122.695,89.9433,195.015,299.758
122.698,89.8552,194.999,299.599
122.641,90.0347,195.079,299.828
122.626,90.0795,195.031,299.881
122.584,90.0632,194.899,299.838
122.601,90.0633,194.914,299.849
122.645,90.0891,194.967,299.893
122.638,89.9618,194.901,299.796
122.742,89.9018,194.941,299.569
122.836,89.869,195.133,299.642
122.669,89.7915,195.026,299.641
122.471,89.7899,194.887,299.607
122.376,89.7966,194.807,299.713
122.274,89.9154,194.697,299.795
122.159,90.0703,194.533,299.904
122.307,89.7149,194.631,299.464
122.294,89.8015,194.675,299.693
122.288,89.8244,194.707,299.771
122.21,89.8589,194.641,299.74
122.177,90.0368,194.435,299.632
122.242,90.1518,194.538,300.001
122.308,90.1591,194.625,299.989
122.367,90.2545,194.706,300.124
122.438,90.2907,194.822,300.153
122.431,90.3776,194.783,300.214
122.448,90.4305,194.844,300.273
122.45,90.5085,194.873,300.419
122.411,90.5068,194.829,300.396
122.413,90.5083,194.856,300.366
122.378,90.5216,194.782,300.416
122.369,90.5459,194.796,300.413
122.391,90.5548,194.837,300.437
122.351,90.5654,194.729,300.298
122.284,90.717,194.66,300.514
122.263,90.7079,194.616,300.501
122.293,90.7626,194.666,300.645
122.343,90.7663,194.751,300.652
122.379,90.7726,194.728,300.628
122.365,90.7647,194.725,300.6
122.265,90.6524,194.552,300.447
122.287,90.6178,194.687,300.493
122.239,90.5044,194.585,300.341
122.231,90.4518,194.628,300.288
122.224,90.4417,194.579,300.153
122.245,90.4476,194.609,300.217
122.23,90.5001,194.595,300.306
122.22,90.4702,194.573,300.198
122.15,90.4019,194.434,300.138
122.209,90.3353,194.624,300.235
122.135,90.1951,194.49,299.946
122.218,90.1217,194.592,299.938
122.29,90.1353,194.56,299.991
122.37,90.0291,194.701,299.917
122.423,90.0327,194.742,299.91
122.485,90.0224,194.806,299.909
122.509,89.9054,194.715,299.759
122.554,89.9142,194.98,299.788
122.403,89.9777,194.739,299.835
122.403,89.8961,194.659,299.73
122.34,89.9354,194.669,299.83
122.278,89.9934,194.671,299.896
122.289,89.7901,194.616,299.675
122.254,89.6411,194.689,299.491
122.171,89.5256,194.608,299.359
122.118,89.5471,194.471,299.146
122.155,89.7227,194.274,299.456
122.17,89.7723,194.559,299.577
122.138,89.9115,194.389,299.206
122.283,90.0127,194.518,299.42
122.355,90.0403,194.738,299.374
122.389,90.0414,194.791,299.42
122.338,89.972,194.684,299.288
122.426,89.9241,194.65,299.458
122.543,90.036,194.758,299.985
122.686,89.8922,194.98,299.762
122.603,89.8476,194.981,299.622
122.498,89.9617,194.887,299.769
122.522,89.8223,194.824,299.641
122.494,89.8574,194.902,299.681
122.349,89.7057,194.739,299.563
122.232,89.5405,194.631,299.426
122.119,89.5719,194.526,299.419
122.13,89.5734,194.457,299.329
122.157,89.5958,194.529,299.255
122.122,89.671,194.47,299.154
122.115,89.5059,194.473,298.584
122.081,89.6204,194.46,298.685
122.143,89.5467,194.492,298.692
122.175,89.5511,194.525,298.717
122.164,89.4488,194.499,298.569
122.216,89.3999,194.575,298.475
122.109,89.4638,194.539,298.792
122.102,89.3884,194.498,298.344
122.022,89.4076,194.398,298.15
122.044,89.1466,194.133,297.714
122.119,89.3028,194.408,298.078
122.041,89.403,194.435,298.011
122.08,89.3822,194.227,298.105
122.189,89.3533,194.41,298.264
122.1,89.3842,194.512,298.201
122.064,89.4738,194.468,298.225
122.12,89.2265,194.39,297.94
122.064,89.2163,194.431,297.997
121.972,89.3022,194.333,298.028
121.915,89.4807,194.325,298.189
121.948,89.4543,194.214,298.041
122.028,89.3615,194.154,297.906
122.271,89.1972,194.468,297.979
122.273,89.1219,194.722,297.931
122.09,89.1097,194.523,297.897
122.008,89.0276,194.411,297.607
121.872,88.7486,194.134,297.505
121.865,88.4223,194.176,297.165
121.789,88.2045,194.129,296.969
121.676,88.6848,194.094,296.53
121.638,88.8666,194.079,296.317
121.402,88.8069,193.786,296.032
121.368,88.6801,193.736,295.943
121.274,88.5432,193.655,295.849
121.268,89.0206,193.701,295.719
121.183,89.1379,193.612,295.848
121.124,89.5564,193.443,295.446
121.18,89.5797,193.585,295.021
121.171,89.7225,193.526,294.397
121.262,89.8622,193.609,294.315
121.28,89.7925,193.684,293.716
121.21,89.8674,193.647,293.201
121.266,89.9359,193.649,293.163
121.281,89.9497,193.678,293.431
121.266,89.899,193.728,293.29
121.215,89.7614,193.619,293.122
121.19,89.7813,193.61,293.203
121.192,89.9804,193.504,293.08
121.199,90.0736,193.572,293.335
121.213,90.1959,193.646,293.613
121.227,90.22,193.641,293.244
121.226,90.3702,193.674,293.744
121.222,90.3633,193.685,293.754
121.23,90.4448,193.645,293.527
121.24,90.6187,193.689,294.018
121.239,90.6655,193.698,294.062
121.226,90.7335,193.687,294.154
121.339,90.7179,193.493,293.777
121.421,91.0334,193.712,294.32
121.394,91.3548,193.536,294.575
121.513,91.6428,193.924,295.024
121.449,91.9432,193.845,295.209
121.45,91.9688,193.807,295.4
121.476,92.0069,193.902,295.451
121.47,92.0205,193.92,295.431
121.406,92.0527,193.823,295.435
121.415,92.0137,193.866,295.423
121.419,91.918,193.785,295.268
121.514,91.7051,193.742,295.081
121.598,91.6367,193.905,295.024
121.634,91.8845,194.036,295.175
121.615,91.9108,193.994,295.289
121.666,92.0461,194.003,295.451
121.733,92.1165,194.158,295.575
121.768,92.0563,194.218,295.494
121.783,92.0992,194.214,295.569
121.762,92.1781,194.161,295.648
121.778,92.1293,194.233,295.568
121.796,92.2264,194.228,295.709
121.816,92.1939,194.258,295.647
121.844,92.1808,194.294,295.621
121.875,92.0976,194.299,295.699
122.016,91.8837,194.361,296.411
122.117,91.8022,194.507,297.024
122.225,91.8022,194.624,297.321
122.284,92.0241,194.647,298.183
122.312,92.1915,194.748,298.64
122.318,92.212,194.762,298.601
122.421,92.029,194.768,298.696
122.488,92.1871,194.935,299.077
122.514,92.255,194.952,299.11
122.556,92.3097,194.97,299.165
122.586,92.4717,194.993,299.307
122.73,92.4249,195.105,299.492
122.842,92.5349,195.245,299.858
122.932,92.5648,195.345,299.957
123.011,92.5743,195.427,299.966
123.173,92.613,195.53,299.975
123.347,92.6211,195.697,299.874
123.408,92.7771,195.838,300.342
123.4,92.9246,195.83,300.915
123.394,92.8408,195.839,300.792
123.344,92.8259,195.8,300.751
123.311,92.7573,195.765,300.67
123.251,92.6408,195.685,300.576
123.234,92.5009,195.671,300.432
123.178,92.2983,195.595,300.324
123.333,91.9208,195.632,300.264
123.246,91.7037,195.654,300.187
123.154,91.4632,195.565,299.933
123.279,91.0176,195.641,299.097
123.001,90.9875,195.35,299.284
123.003,90.766,195.368,299.001
122.96,90.51,195.332,298.699
122.902,90.1861,195.096,298.419
123.095,90.1166,195.386,298.291
123.134,89.93,195.324,298.064
122.573,90.0384,194.84,298.353
122.241,89.9513,194.552,298.068
121.839,90.3614,194.127,298.357
121.968,90.2272,194.318,297.56
121.973,90.3664,194.286,297.005
122.119,90.4609,194.471,296.866
122.227,90.5018,194.597,296.438
122.074,90.636,194.328,296.147
121.955,91.4673,193.973,296.334
122.23,91.3221,194.533,295.891
122.222,91.5736,194.569,296.345
121.98,91.5412,194.238,296.373
122.145,91.1871,194.334,295.92
122.114,91.3339,194.444,296.198
122.136,91.5317,194.534,296.236
122.157,91.5008,194.468,296.33
