331.528,38.2445,369.362,80.3658
332.777,33.9672,370.512,76.3894
333.339,32.3508,371.586,74.5391
334.98,29.4586,373.616,71.938
336.934,26.9359,375.739,71.1293
337.312,27.0218,376.392,71.4875
340.212,28.6406,380.603,72.5362
344.126,31.4552,384.402,75.4447
345.945,31.5795,385.74,75.6857
353.862,37.5009,394.073,81.8508
355.942,38.1371,396.361,83.9452
361.027,41.5574,401.142,87.6618
362.111,43.5254,401.822,89.1481
362.255,43.6937,402.234,89.6759
361.892,43.29,400.86,90.2058
361.965,43.4633,400.934,90.3385
360.658,46.5522,399.904,93.515
359.138,48.0997,398.816,94.5424
358.057,48.2007,398.149,93.8714
358.126,48.2781,398.542,94.2099
356.604,32.96,397.072,81.5271
360.801,32.1512,400.543,81.1411
361.052,32.8205,401.046,82.1859
360.513,33.317,400.716,82.3433
358.59,33.6685,399.253,82.7001
358.073,33.6741,398.899,83.2827
355.05,34.9661,395.833,84.8021
354.001,35.0454,394.641,85.4221
350.989,33.049,391.912,83.5042
350.639,33.2642,391.365,83.9665
352.913,33.6572,393.49,85.0039
355.239,33.3508,395.994,84.6923
356.698,33.0408,397.691,84.392
365.3,29.4624,405.755,80.1514
364.566,27.6694,405.02,78.5786
364.548,27.8162,405.025,78.8312
364.082,28.1266,404.519,79.5707
363.676,27.8716,404.072,79.3282
363.847,26.7189,404.28,78.0921
363.803,26.7288,404.28,78.1938
363.704,26.408,404.245,77.8105
363.626,26.4841,404.276,78.4721
363.345,27.5818,403.884,80.3253
366.063,26.4662,407.439,78.9731
366.169,29.1577,407.807,80.705
365.868,29.2038,407.618,81.3337
364.092,29.3057,404.929,82.3043
369.18,29.5357,409.204,82.5484
368.366,31.3317,408.634,84.5632
368.269,31.0963,408.529,84.1017
368.104,30.4597,408.605,83.9699
371.517,31.9372,412.221,85.5354
375.081,34.4021,416.739,87.0943
385.471,37.7697,427.462,89.5264
397.416,45.4472,439.824,96.2592
404.99,48.7705,446.693,98.9639
405.354,49.3,447.457,99.6036
409.567,54.8158,451.933,106.392
408.584,47.1101,449.99,99.6743
409.671,46.4749,451.241,99.334
409.821,46.5667,451.763,99.5437
409.729,46.46,451.762,99.2575
409.062,45.8594,451.597,98.8079
409.381,46.1772,452.339,99.4544
409.696,45.4579,452.584,98.8016
409.883,46.4728,452.891,99.7439
412.617,48.4185,457.109,101.304
412.866,48.9008,457.466,101.745
412.837,49.3349,457.867,102.176
418.211,41.4244,463.083,94.6393
418.252,41.4989,463.216,94.9728
418.058,41.316,463.021,94.851
418.265,40.5972,463.344,94.7084
418.426,40.8244,463.897,95.283
418.069,35.1493,463.242,91.406
417.813,37.4186,463.628,92.7798
418.485,39.2598,464.47,94.179
437.055,35.9888,482.75,91.9858
456.478,25.8902,502.322,84.2285
457.642,29.079,502.729,88.84
461.176,27.3606,506.269,87.7723
460.198,28.651,504.895,89.8608
460.589,29.1854,505.478,90.7134
463.077,29.1435,507.508,91.7144
463.903,28.2027,508.117,91.6603
464.762,28.9874,509.023,92.3595
482.553,27.9784,527.336,90.3362
484.488,27.0846,529.271,89.0307
488.368,35.741,533.301,98.0947
489.178,49.3624,533.531,113.005
486.84,48.5226,530.132,113.421
484.194,52.7547,526.728,119.964
481.974,50.6958,525.139,117.128
482.655,50.6807,525.958,117.293
484.965,50.8927,527.316,118.53
484.694,54.8153,527.28,121.104
479.193,78.0828,523.268,143.376
481.711,77.049,526.121,142.896
485.662,76.4398,529.811,142.149
