75.7967,78.8192,139.825,130.831
75.9186,79.0452,140.445,131.545
75.8253,79.0072,140.864,131.521
75.6658,79.0372,141.129,132.067
75.4476,79.1061,140.942,132.588
75.1528,78.7817,140.795,132.304
75.1375,78.8587,141.084,132.842
74.8198,78.6797,140.747,132.701
74.8063,78.8772,140.762,133.329
74.7788,78.8596,140.734,133.311
74.7632,78.787,140.704,133.239
74.6693,78.6867,140.595,133.126
74.6265,78.583,140.5,133.026
74.6057,78.5002,140.581,132.923
74.0432,77.9842,139.748,132.018
74.0788,78.0817,140.067,132.488
73.9271,77.9628,139.883,132.396
73.8908,77.8365,139.798,132.244
73.9018,77.8137,139.849,132.284
73.9031,77.7663,139.864,132.218
73.7755,77.6221,139.693,132.086
73.6948,77.4371,139.571,131.836
73.6246,77.274,139.554,131.667
73.6328,77.2853,139.608,131.751
73.5858,77.2427,139.563,131.678
73.4803,77.1716,139.478,131.649
73.2419,77.0463,139.171,131.553
72.8319,77.0705,138.728,132.023
72.8193,77.0081,138.775,131.985
72.8269,77.0137,138.798,131.984
72.7831,76.9156,138.728,131.865
72.7278,76.8682,138.744,131.882
72.7516,76.9683,139.26,132.45
72.9088,76.9351,139.902,132.412
72.8235,76.862,139.781,132.319
72.5498,76.6969,139.517,132.145
72.3652,76.6798,139.39,132.152
72.5065,76.6575,140.026,132.14
72.6526,76.6486,140.645,132.131
72.6157,76.6261,140.579,132.095
72.5876,76.5927,140.539,132.031
72.5805,76.5851,140.533,132.037
72.5509,76.5839,140.531,132.021
72.4958,76.5795,140.468,132.012
72.4375,76.5687,140.389,132.002
72.3848,76.5801,140.352,132.016
72.071,76.461,140.077,131.893
72.0187,76.4202,140.463,131.793
71.9632,76.4465,140.431,131.893
71.8453,76.4311,140.32,131.878
71.5535,76.335,140.054,131.775
71.5553,76.3101,140.546,131.742
71.3368,76.308,140.301,131.752
71.1236,76.2958,140.054,131.733
71.0532,76.2964,140.024,131.721
70.913,76.2962,139.887,131.731
70.7842,76.281,139.754,131.75
70.6375,76.2428,139.621,131.574
70.5116,76.2228,139.528,131.384
70.5449,76.3194,140.058,131.629
70.7963,76.1903,140.748,131.132
71.1402,76.3781,140.926,130.124
71.0852,76.6017,141.15,130.131
71.0574,76.5472,141.467,130.354
71.1142,76.5801,141.492,130.296
71.1253,76.5829,141.615,130.272
70.864,76.7273,141.29,129.709
70.1161,76.0466,140.325,128.66
69.4282,76.0594,139.905,128.863
68.9189,76.111,139.352,128.821
68.818,76.3904,139.396,128.965
69.0396,76.603,140.015,129.445
69.0374,76.7305,140.07,129.591
69.2545,76.8026,140.715,129.776
69.2241,76.8258,140.694,129.772
69.2185,76.8507,140.671,129.83
69.1712,76.9153,140.613,129.784
69.196,76.9767,140.633,129.916
69.2115,76.97,140.614,129.872
69.2286,76.9865,140.634,129.887
69.2825,77.0933,140.622,129.833
69.1164,77.3292,140.398,129.985
69.022,77.5616,140.415,130.162
67.5519,77.9084,138.416,129.724
67.544,78.01,138.441,129.954
67.5118,78.0518,138.467,129.958
67.5101,78.0447,138.404,129.77
67.6673,77.9267,138.342,129.602
68.0336,77.6937,138.283,129.316
68.165,77.6785,138.411,129.481
67.8097,77.375,137.68,128.975
67.7445,77.3388,137.503,129.13
67.8179,77.3082,137.713,129.129
67.7865,77.3613,137.738,129.261
67.678,77.4012,137.602,129.339
67.6496,77.3887,137.576,129.324
67.6674,77.3966,137.575,129.335
67.7382,77.3526,137.616,129.197
67.8245,77.3681,137.746,129.236
67.8571,77.3638,137.719,129.181
67.9823,77.3578,137.789,128.21
67.8861,77.4688,137.733,128.015
68.1106,77.2323,137.941,127.172
68.0886,77.2492,137.958,126.813
68.0684,77.4821,137.895,127.191
67.8367,77.5348,137.503,126.817
67.7469,77.4215,137.719,126.485
67.8622,77.6838,137.595,126.478
67.7741,78.2313,137.331,125.388
67.7348,78.7827,137.459,124.975
67.6372,78.5745,137.312,124.519
67.9557,78.6174,137.441,123.561
68.5054,77.6253,137.508,122.057
68.2024,77.5061,137.316,121.681
68.383,77.6237,137.845,122.059
68.3959,77.6691,137.878,122.119
68.3905,77.6794,137.864,122.154
68.3998,77.6855,137.859,122.169
68.42,77.621,137.879,122.108
68.439,77.6277,137.905,122.109
68.4725,77.598,137.917,122.095
68.4841,77.5515,137.962,122.013
68.4952,77.5708,137.963,122.052
68.4641,77.6204,137.983,122.022
68.7147,77.6314,138.635,122.086
68.7608,77.6413,138.676,122.117
68.8039,77.6444,138.734,122.093
68.8195,77.6539,138.651,122.089
68.9188,77.6692,138.574,122.105
68.8883,77.7365,138.749,122.13
68.9225,77.8069,138.801,122.273
68.9884,77.7352,138.488,122.002
68.6723,77.8641,137.886,122.297
68.2846,78.0876,137.622,122.385
67.6851,79.3625,136.815,123.496
67.8454,79.6083,137.306,124.056
67.8065,79.7813,137.195,124.192
67.634,79.8635,137.039,124.341
67.6598,79.9065,137.105,124.364
67.7021,80.0304,137.097,124.494
67.503,80.1144,136.954,124.594
67.4943,80.2854,136.874,124.714
67.5564,80.4253,136.912,124.877
67.6363,80.5142,137.046,124.992
67.7051,80.6108,137.094,125.044
67.7689,80.7217,137.18,125.173
67.8338,80.7912,137.19,125.283
67.9301,80.9522,137.196,125.348
68.0603,81.0166,137.481,125.502
68.1056,81.0695,137.499,125.522
68.1888,81.0704,137.578,125.522
68.518,80.9518,137.531,125.245
68.8797,80.7794,138.017,124.976
69.4987,79.8466,137.891,123.71
69.6638,79.7257,137.73,123.474
69.8187,79.4404,137.569,122.69
70.0857,79.4002,137.568,122.371
70.0802,79.2461,137.317,122.107
70.2088,79.229,137.42,122.059
70.3506,79.2274,137.561,122.057
70.6628,79.1073,137.715,121.843
70.7538,78.9061,137.477,121.337
71.0307,78.5201,136.857,120.689
71.195,78.5192,136.983,120.901
71.3429,78.2539,136.953,120.516
71.6153,77.9767,137.278,120.262
71.7969,77.9552,137.66,120.377
71.9758,77.7051,137.601,120.024
71.8829,77.6768,137.613,120.12
71.8541,77.6107,137.628,120.026
71.9307,77.6662,137.872,120.121
71.9375,77.7085,137.872,120.157
72.0046,77.7907,137.845,120.204
72.0196,77.7973,137.85,120.275
71.9802,77.713,137.724,120.23
72.102,77.9173,137.988,120.884
72.0027,77.7476,137.758,120.701
71.9833,77.6216,137.752,120.574
71.9777,77.2785,137.429,120.206
71.9991,77.2698,137.409,120.237
72.0222,77.2771,137.495,120.26
71.9898,77.2435,137.402,120.223
72.0296,77.2604,137.492,120.24
72.0548,77.2681,137.477,120.249
72.0822,77.2733,137.548,120.255
72.0572,77.3301,137.481,120.311
72.0167,77.3422,137.488,120.332
71.9395,77.3895,137.438,120.366
71.8807,77.5602,137.295,120.518
71.7872,77.5583,137.205,120.541
71.6792,77.5505,137.025,120.551
71.6533,77.7712,137.116,121.269
71.6256,77.7419,137.079,121.22
71.6458,77.7525,137.114,121.234
71.6048,77.722,137.057,121.205
71.6196,77.7239,137.1,121.21
71.6002,77.7213,137.079,121.206
71.5459,77.6265,137.002,121.096
71.3496,77.5592,136.675,121.036
71.3227,77.4392,136.66,120.88
71.2929,77.3641,136.748,120.839
71.272,77.3117,136.707,120.773
70.9293,77.1546,136.319,120.605
70.7318,76.9735,136.07,120.427
70.5111,76.7591,135.857,120.19
70.5548,76.6376,135.982,120.079
70.5089,76.6434,136.014,120.11
70.5885,76.638,136.522,120.124
70.4808,76.6217,136.439,120.111
70.3609,76.6035,136.319,120.093
70.1641,76.6493,136.018,120.114
70.1088,76.6681,136.138,120.173
69.0451,77.0146,135.213,120.965
69.1917,77.0346,135.662,121.017
69.1536,77.0381,135.683,121.023
69.2467,77.0684,136.205,121.038
69.119,77.0839,136.105,121.07
69.0573,77.0889,136.018,121.07
68.8568,77.0751,135.845,121.07
68.474,77.0961,135.456,121.076
68.4481,77.0954,135.449,121.087
68.5399,77.0915,136.046,121.09
68.5577,77.041,136.396,121.05
67.8998,77.2935,135.781,121.737
67.8166,77.3768,135.753,121.818
67.7836,77.3957,135.734,121.882
67.6555,77.4402,135.621,121.907
67.1417,77.3263,135.103,121.883
66.5205,77.4112,134.438,122.32
66.4979,77.4448,134.46,122.427
66.3787,77.4234,134.323,122.387
65.8893,77.3372,133.853,122.255
65.8919,77.3663,133.862,122.339
65.8013,77.3339,133.823,122.285
65.2905,76.9051,133.766,121.79
64.8851,76.9269,133.391,121.797
64.8714,76.7704,133.793,121.68
64.5729,76.5835,133.39,121.46
63.9904,76.346,132.887,121.243
63.8186,76.2745,132.805,121.194
63.4247,76.1097,132.379,121.137
63.242,76.0716,132.296,121.562
62.6921,75.7322,132.303,121.106
61.9775,74.832,131.413,120.231
61.5517,74.2887,130.993,119.775
61.5438,74.2721,131.025,119.728
61.4676,74.027,130.953,119.382
61.2483,73.9181,130.798,119.297
61.3902,73.9402,131.35,119.394
61.1905,73.8964,131.192,119.352
60.8478,73.6741,131.543,119.063
60.81,73.6588,131.849,119.118
60.356,73.4757,131.935,118.901
60.3145,73.4153,132.169,118.882
60.1689,73.303,132.082,118.739
60.0576,73.2897,131.943,118.759
60.0079,73.1676,131.974,118.668
59.9324,73.1408,131.736,119.162
59.8309,72.8366,131.591,119.278
59.9077,72.8283,131.804,119.288
59.8936,72.8248,131.833,119.294
59.8963,72.8334,131.847,119.314
59.8917,72.8345,131.848,119.316
59.912,72.8653,131.848,119.336
59.8543,73.1299,131.597,119.423
59.9875,73.2508,131.937,119.724
59.9017,73.3877,131.662,119.817
59.8821,73.6372,131.548,119.992
59.8584,73.9802,131.329,120.295
59.8954,74.355,130.891,120.568
59.9961,74.4058,130.861,120.784
60.1719,74.433,130.966,120.811
60.3228,74.4685,131.233,120.913
60.4263,74.5008,131.302,120.957
60.5395,74.5922,131.448,120.976
60.6706,74.8325,131.29,121.224
61.0318,75.2579,131.597,121.526
61.3093,75.4624,131.995,121.94
61.6199,75.6386,132.173,122.01
61.8653,75.8854,132.59,122.31
62.0351,75.9979,132.85,122.462
62.1151,76.0687,133.008,122.519
62.2529,76.2015,132.974,122.58
62.4601,76.3105,133.313,122.76
62.5108,76.3453,133.383,122.81
62.7794,76.3424,133.191,122.77
62.8308,76.3452,133.195,122.82
62.9501,76.2988,133.288,122.722
63.2038,76.263,133.463,122.616
63.5041,76.1303,133.377,122.271
63.8785,76.0634,133.492,122.314
64.239,75.9425,133.833,122.126
64.4606,75.8121,134.038,122.129
64.8581,75.7741,134.342,122.016
65.0721,75.5543,133.994,121.694
65.3772,75.2691,133.843,121.413
65.8054,74.9335,133.504,120.816
66.3285,74.944,134.002,120.735
66.789,74.6936,134.307,120.427
67.0524,74.7823,134.561,120.551
67.5841,74.8088,134.746,120.512
66.9465,74.8687,133.438,120.499
67.218,75.1334,133.381,120.741
67.5675,75.369,133.682,121.06
67.9215,75.59,134.249,121.418
68.3249,75.83,134.376,121.513
68.6915,76.121,135.008,121.957
68.8756,76.2318,135.317,122.152
68.9983,76.2408,135.387,122.182
69.1474,76.2393,135.536,122.18
69.3055,76.2043,135.692,122.095
69.4968,76.1417,135.804,121.975
69.8206,76.0221,136.074,121.767
70.5852,75.2961,136.261,121.157
70.9399,75.2506,136.815,121.08
70.9837,75.2828,136.824,121.248
71.0211,75.2735,136.933,121.219
71.14,75.3698,136.957,121.195
71.2915,75.4681,137.12,121.444
71.5302,75.4823,137.214,121.391
72.1116,75.7508,137.411,121.613
72.2039,75.8128,137.625,121.787
72.4583,75.9804,137.655,121.783
72.736,76.1297,138.015,122.007
72.8502,76.1908,138.155,122.146
73.0722,76.2578,138.324,122.094
73.324,76.4237,138.551,122.326
73.6944,76.8009,138.726,122.399
73.9751,77.0764,139.172,122.991
74.35,77.3397,139.4,123.12
74.8579,77.6244,139.75,123.484
74.9991,77.7356,139.798,123.708
75.3143,77.9045,139.658,123.722
75.613,78.013,139.485,123.944
75.7599,77.9989,139.628,123.834
75.9928,78.0493,139.84,123.872
76.1725,78.1331,139.959,123.845
76.5838,78.3134,139.97,123.642
76.7382,78.3683,140.105,123.787
77.2504,77.8864,139.89,122.881
77.764,77.6267,140.456,122.393
77.9849,76.9816,140.331,121.481
78.5741,76.054,140.526,120.054
79.2088,75.0539,140.496,119.117
79.5533,74.4967,140.782,118.321
79.6771,74.2974,140.947,117.977
79.7534,74.1092,140.967,117.784
79.8787,74.1988,141.308,118.131
79.8595,74.1879,141.064,118.017
79.9768,74.2429,141.301,118.138
80.1173,74.5952,140.707,118.236
80.4359,75.1055,141.151,118.949
80.5114,75.3436,141.244,119.198
79.8834,75.6912,140.424,119.474
80.1148,75.8853,140.993,119.821
80.1429,76.0645,141.02,119.96
80.1597,76.3161,140.893,120.011
80.513,77.2532,140.78,120.956
80.2876,78.3559,139.718,122.075
80.233,78.8606,139.45,122.819
80.281,79.3748,139.295,123.308
80.3092,79.3823,139.586,123.289
80.215,79.411,139.436,123.335
80.1346,78.7663,139.3,122.465
80.1421,78.4391,139.365,122.241
80.048,78.0496,139.232,121.856
79.6654,77.4923,138.739,121.03
79.4464,77.6565,138.621,121.564
79.6203,77.6188,138.776,121.54
79.4771,77.5487,138.585,121.467
79.6072,77.5614,138.91,121.439
79.6003,77.6709,138.788,121.307
79.6294,77.8313,139.039,121.786
79.5966,77.8531,139.026,121.822
79.5369,77.8015,138.827,121.715
79.5049,77.8757,138.775,121.505
79.4585,78.1031,138.684,121.779
79.604,78.2354,139.035,122.179
79.4058,78.2828,138.723,122.062
79.4043,78.5724,138.671,122.031
79.7599,78.4481,138.881,120.989
79.8846,78.7314,139.338,121.54
79.8433,78.9108,139.228,121.742
79.6537,79.0621,139.075,121.672
79.6869,79.2546,139.156,122.234
79.6931,79.2658,139.148,122.242
79.6768,79.2656,139.103,122.241
79.6981,79.2742,139.154,122.251
79.7186,79.286,139.189,122.267
79.732,79.2954,139.203,122.277
79.7485,79.3071,139.214,122.293
79.7713,79.3195,139.234,122.302
79.7885,79.3282,139.259,122.31
79.8204,79.3891,139.266,122.349
79.8583,79.4319,139.307,122.348
79.8876,79.4799,139.351,122.441
79.9137,79.5211,139.331,122.411
79.9537,79.5674,139.419,122.536
79.9848,79.6905,139.382,122.421
80.0393,79.9994,139.455,122.491
80.0817,80.0173,139.55,122.481
80.1325,80.1707,139.566,122.471
80.176,80.315,139.637,122.735
80.2316,80.3895,139.677,122.818
80.2706,80.4598,139.622,122.853
80.3499,80.5157,139.693,122.9
80.4564,80.5935,139.81,122.796
80.5284,80.7628,139.936,123.151
80.541,80.9125,139.96,123.285
80.5482,81.0703,139.967,123.443
80.5166,81.3607,139.712,123.471
80.6855,81.511,140.095,123.923
80.6888,81.5286,140.095,123.97
80.3384,81.6257,139.495,123.906
79.6289,81.8241,138.791,124.106
79.7045,81.8634,139.187,124.272
79.7215,81.9758,139.177,124.427
79.7599,82.0869,139.203,124.546
79.7446,82.1155,139.174,124.593
79.7813,82.1296,139.249,124.611
79.8101,82.1807,139.272,124.651
79.8282,82.1958,139.298,124.678
79.8418,82.2048,139.312,124.686
79.8507,82.2129,139.317,124.695
79.8662,82.222,139.337,124.704
79.878,82.2306,139.35,124.71
79.8908,82.2411,139.361,124.723
79.8621,82.234,139.289,124.724
79.8756,82.2335,139.312,124.719
79.9035,82.239,139.366,124.722
79.8779,82.2371,139.275,124.721
79.8892,82.2347,139.3,124.713
79.9171,82.2421,139.376,124.725
79.8058,82.2354,139.161,124.685
79.8252,82.2604,139.262,124.728
79.7621,82.2714,139.159,124.745
79.3484,82.1589,138.585,124.559
79.4616,82.23,138.923,124.698
79.4725,82.2473,138.944,124.73
79.426,82.2286,138.835,124.726
79.4338,82.2376,138.86,124.72
79.4502,82.2433,138.901,124.727
79.426,82.2434,138.911,124.709
79.3073,82.2432,138.807,124.699
79.2187,82.1255,139.26,124.369
79.2105,82.1567,139.726,124.547
79.3332,82.2,140.286,124.675
79.3216,82.2041,140.296,124.686
79.2236,82.1376,140.199,124.578
79.2175,82.1601,140.188,124.64
79.2225,82.1557,140.19,124.638
79.2277,81.9856,140.153,124.463
79.1105,81.3293,140.058,123.654
79.2872,80.1142,140.238,122.535
79.3058,80.1164,140.262,122.6
79.3243,80.1177,140.292,122.601
79.3316,80.1021,140.304,122.595
79.3492,80.0769,140.335,122.573
79.4182,80.0676,140.408,122.536
79.4852,80.0722,140.475,122.541
79.7727,80.0254,140.724,122.481
80.0202,80.0394,140.972,122.455
80.9486,79.9942,141.775,122.303
81.3184,79.9984,142.217,122.399
81.7002,79.9277,142.502,122.377
82.4773,79.6736,143.252,122.045
82.7578,79.5882,143.688,121.943
82.8426,79.6562,143.806,122.126
83.5843,79.4168,144.496,121.737
83.7225,79.4533,144.689,121.858
84.3751,79.2564,145.366,121.59
84.9273,79.1876,145.824,121.681
85.065,79.2333,145.982,121.656
85.829,79.0229,146.759,121.38
85.9903,79.1024,147.003,121.583
86.3344,79.1749,147.782,121.611
86.5193,79.2121,147.987,121.703
86.6176,79.2339,148.089,121.717
87.0514,79.2236,148.528,121.681
87.075,79.2589,148.537,121.729
87.3007,79.2695,148.731,121.775
87.6511,79.4399,149.096,122.344
87.9959,79.6657,149.425,122.654
88.0981,79.7017,149.51,122.69
88.3874,79.9961,149.763,122.969
88.6718,81.1195,149.945,124.005
88.9508,81.6423,150.374,124.488
89.0389,81.8124,150.491,124.738
89.1058,81.8882,150.57,124.861
89.1757,81.9346,150.588,124.911
89.2669,81.9623,150.637,124.945
89.3399,81.9813,150.8,124.959
89.3775,81.9963,150.844,124.954
89.6174,82.0243,151.207,124.873
90.2468,81.8337,152.259,124.697
90.6143,81.816,153.03,124.715
91.2309,81.5482,153.699,124.273
92.1229,81.0623,154.351,123.733
92.4237,81.2062,154.794,124.095
92.6511,81.2452,155.021,124.179
93.5568,81.1953,155.834,124.09
94.1618,81.0956,156.44,124.036
94.7986,80.8425,157.15,123.82
95.6684,80.3884,157.924,123.368
96.4481,80.0247,158.745,122.938
97.4594,79.7212,159.612,122.689
98.6484,79.0376,160.651,121.883
100.37,78.3885,162.463,121.562
101.723,78.2237,163.85,121.756
102.476,78.2121,164.587,122.183
103.74,77.7113,165.674,121.64
104.7,77.4796,166.292,121.489
105.54,77.6467,167.182,121.982
106.676,77.6724,168.425,122.212
107.99,77.7999,169.596,122.69
108.555,77.7649,170.288,122.783
111.225,77.8181,171.985,123.498
111.869,77.9657,172.642,123.947
113.11,77.8555,173.634,123.705
114.544,77.7778,175.079,123.708
115.37,77.4649,176.106,123.377
116.34,77.0735,176.963,123.098
118.128,76.4598,178.564,122.978
120.149,75.6466,180.033,122.254
121.183,75.6566,180.959,122.522
122.542,75.275,182.245,122.057
124.465,75.1424,183.832,121.971
126.233,74.9962,185.427,121.576
128.837,75.3271,188.08,121.438
129.311,75.3023,188.672,121.685
129.732,75.1961,189.008,121.492
130.353,74.9793,189.627,121.21
131.166,74.8974,190.443,121.323
131.953,74.8082,191.138,121.1
133.691,74.6363,192.585,120.623
134.819,74.1894,193.364,119.836
136.172,74.3458,194.837,119.975
136.925,74.4318,195.559,120.258
137.882,74.6182,196.638,120.316
139.041,74.852,197.571,120.465
139.645,75.1746,198.44,120.895
141.191,75.62,199.707,120.875
142.415,75.9274,201.389,120.942
143.274,75.8847,202.05,121.03
144.105,75.8894,202.797,120.561
145.411,75.9943,204.136,120.505
146.309,76.7862,205.236,120.72
147.803,77.4529,206.796,120.53
148.368,77.9062,207.333,120.699
148.936,78.1169,207.868,120.777
149.762,78.5287,208.549,121.09
150.577,79.0906,209.722,121.404
152.188,79.9865,211.516,122.082
153.439,80.5335,212.646,122.474
154.708,81.1502,214.183,122.6
156.217,82.1003,215.485,122.908
156.431,82.2207,215.88,123.084
158.386,82.8075,217.44,123.239
158.806,82.8764,218.261,123.242
158.878,82.9253,218.339,123.371
159.316,83.1684,218.718,123.237
159.613,83.3299,219.015,123.644
160.407,83.4105,219.714,123.479
161.157,83.6466,220.495,123.76
162.549,84.1531,221.904,123.761
163.458,84.1341,222.575,123.641
164.29,84.3913,223.64,123.578
165.273,84.2011,224.557,123.085
166.199,84.1616,225.441,122.649
166.66,84.0384,226.177,122.131
167.676,83.9414,227.555,122.009
168.175,84.0231,228.032,122.146
169.002,83.7484,228.859,121.957
169.482,83.5472,229.438,121.796
170.25,83.2347,230.005,121.425
171.055,82.9302,230.751,121.03
171.721,82.8095,231.427,120.99
172.752,82.6822,232.528,120.964
173.263,82.6946,233.058,120.995
173.486,82.7659,233.429,121.167
173.761,82.7041,233.709,121.084
174.286,82.7047,234.106,120.97
174.548,82.8247,234.414,121.216
175.438,82.931,234.978,120.946
176.297,83.0061,235.967,121.225
176.623,83.1424,236.523,121.532
177.473,83.3122,237.154,121.299
178.107,83.1615,237.718,120.752
178.592,83.1738,238.325,121.003
179.342,83.0114,238.797,120.631
180.14,82.6677,239.039,120.15
180.994,82.5857,239.588,119.702
181.694,82.4342,240.368,119.647
182.258,82.325,240.995,119.619
182.505,82.3847,241.393,119.827
182.592,82.3899,241.539,119.844
182.76,82.2813,241.667,119.726
183.147,81.9327,241.954,119.259
183.432,81.8853,242.342,119.325
184.033,81.7228,242.723,119.177
184.199,81.7222,243.153,119.202
184.271,81.6991,243.199,119.151
184.385,81.6817,243.314,119.151
184.587,81.6284,243.473,119.094
184.824,81.4632,243.711,118.936
185.032,81.2793,243.901,118.787
185.32,81.4167,244.175,119.361
186.23,81.1648,244.963,119.144
186.594,81.1256,245.514,119.077
186.703,81.1009,245.625,119.079
186.757,81.1092,245.727,119.084
187.028,81.1245,245.933,119.041
187.228,81.174,246.185,119.126
188.255,81.1505,247.158,119.074
188.917,81.0497,247.788,118.929
189.262,81.051,248.196,118.874
190.041,80.7866,248.743,118.596
190.27,80.8734,249.238,118.814
190.775,80.5931,249.649,118.381
190.851,80.6938,249.825,118.668
191.032,80.468,249.88,118.393
191.237,80.3728,250.147,118.313
191.363,80.401,250.325,118.331
191.65,80.3225,250.575,118.19
191.691,80.4168,250.704,118.351
191.964,80.3365,251.381,118.205
192.074,80.3349,251.489,118.219
192.369,79.969,251.723,117.672
192.489,79.7652,251.855,117.484
192.786,79.5654,252.129,117.388
192.83,79.534,252.293,117.403
192.83,79.4116,252.265,117.316
192.875,79.4104,252.356,117.338
192.85,79.2927,252.271,117.182
192.799,79.036,252.273,116.868
192.758,79.0231,252.248,116.944
192.31,78.8291,251.799,116.647
192.136,78.7013,251.518,116.618
191.959,78.6157,251.388,116.579
191.379,78.423,250.639,116.352
190.899,77.998,249.901,115.927
190.683,77.7139,249.92,115.6
190.063,77.2079,248.817,115.264
189.943,77.0384,248.815,115.433
189.631,76.9432,248.383,115.415
189.16,76.7092,247.978,115.205
189.157,76.652,248.055,115.142
189.159,76.6319,248.113,115.113
188.839,76.4993,247.68,114.91
188.781,76.4752,247.677,114.943
188.317,75.9409,246.881,114.45
187.726,76.232,246.505,115.158
187.505,76.2597,246.402,115.242
187.317,76.2756,246.225,115.247
187.146,76.3202,246.093,115.298
186.256,76.4513,245.196,115.426
185.846,76.5775,244.683,115.544
185.365,76.3658,244.376,115.355
185.537,76.3654,244.984,115.349
184.71,76.3892,244.11,115.264
184.049,76.3969,243.383,115.317
183.479,76.6813,242.764,115.52
183.556,76.7586,243.012,115.736
183.413,76.8388,242.822,115.689
183.178,76.8504,242.598,115.801
182.923,76.6758,242.313,115.612
182.375,76.5954,241.786,115.517
182.051,76.3511,241.355,115.034
182.024,76.3854,241.481,115.211
180.77,76.1993,240.249,115.078
180.38,76.2415,239.871,115.126
180.289,76.3277,239.754,115.278
180.127,76.3652,239.625,115.33
179.855,76.3313,239.277,115.351
179.221,76.7269,238.709,115.911
179.037,76.6283,238.524,115.995
177.966,76.9245,237.696,116.352
177.46,76.6272,237.505,115.99
177.635,76.6566,238.12,116.131
177.381,76.515,237.803,115.983
177.127,76.1646,237.591,115.642
177.109,76.1689,237.564,115.649
176.978,76.1278,237.436,115.623
176.993,76.1285,237.464,115.612
176.894,76.1391,237.311,115.617
176.696,76.0311,237.053,115.569
176.543,76.2526,236.928,116.243
176.099,76.3083,236.529,116.226
175.957,76.4377,236.48,116.419
176.105,76.5922,237.093,116.463
176.024,76.5798,236.967,116.533
175.838,76.4118,236.83,116.388
175.454,75.8657,236.201,115.654
175.532,75.9065,236.502,115.857
175.435,75.85,236.41,115.82
175.453,75.8558,236.449,115.823
175.422,76.2439,236.383,115.772
175.405,76.4476,236.394,116.381
175.333,76.4269,236.524,116.454
175.446,76.6966,236.964,117.159
175.62,76.6186,237.572,116.974
175.559,76.5619,237.517,116.925
175.515,76.4105,237.425,116.728
175.259,76.0858,237.226,116.281
175.292,76.1218,237.242,116.517
175.432,75.7106,237.29,116.022
175.743,75.0575,237.552,115.385
175.853,75.2073,237.817,115.634
175.872,75.2341,237.844,115.698
175.893,75.2389,237.864,115.698
175.922,75.1372,237.854,115.56
176.043,75.1383,238.03,115.571
176.06,75.1781,238.026,115.643
176.077,75.0981,238.058,115.54
176.225,74.8692,238.17,115.08
176.266,74.9311,238.281,115.305
176.599,74.4696,239.027,114.477
176.943,73.9853,239.295,113.643
177.09,74.0774,239.528,113.991
177.334,73.7131,239.863,113.449
177.646,73.7053,240.502,113.608
177.714,73.6163,240.66,113.479
177.723,73.6269,240.674,113.558
177.77,73.62,240.681,113.547
177.814,73.6483,240.779,113.628
177.855,73.6645,240.796,113.617
177.884,73.6882,240.853,113.671
177.906,73.6842,240.86,113.665
177.965,73.6528,240.893,113.622
178.041,73.7368,240.974,113.673
178.17,73.8264,241.047,113.634
178.3,73.9739,241.212,113.851
178.401,73.9332,241.21,113.78
178.62,73.9989,241.434,113.727
178.987,74.279,241.647,113.74
179.213,74.2705,242.094,113.658
179.485,74.2959,242.224,113.51
179.596,74.396,242.421,113.775
179.707,74.3873,242.6,113.757
179.787,74.3728,242.624,113.813
179.873,74.3522,242.785,113.823
179.951,74.2623,242.802,113.671
180.057,74.2252,242.986,113.632
180.092,74.1995,243.037,113.588
180.358,73.7591,243.209,112.848
180.447,73.3977,243.418,112.348
180.631,72.8581,243.433,111.611
180.749,72.4325,243.566,110.916
180.774,71.5038,243.515,109.768
180.982,71.3162,243.811,109.632
181.087,70.9422,243.784,109.225
181.453,70.0758,243.834,108.337
181.599,70.0617,243.851,108.579
181.926,69.5666,244.049,108.454
182.141,69.3322,244.383,108.24
181.667,68.3883,243.574,107.861
181.702,68.0065,243.377,107.65
181.811,68.0426,243.664,108.094
181.882,68.2031,243.782,108.702
181.973,68.1553,243.677,108.689
181.755,68.1985,243.602,109.365
181.812,68.3283,243.745,109.839
181.812,68.4896,243.554,110.542
181.939,68.698,243.894,111.186
181.849,68.6441,243.646,111.136
181.885,68.4926,243.448,110.99
181.88,68.3952,243.511,110.896
181.849,68.5843,243.575,111.577
181.828,68.5605,243.289,111.524
181.478,68.5632,242.706,111.517
181.524,68.6311,242.89,111.616
181.485,68.6852,242.751,111.681
181.567,68.6876,242.986,111.673
181.456,68.6612,242.846,111.592
181.483,68.6922,242.94,111.677
181.414,68.6881,242.849,111.667
181.358,68.6918,242.739,111.667
180.343,68.7772,241.619,111.661
179.918,68.8269,241.336,111.785
179.852,68.843,241.304,111.82
179.816,68.8467,241.254,111.829
179.816,68.8498,241.27,111.834
179.434,68.8182,240.855,111.8
179.35,68.8137,240.778,111.805
179.274,68.7979,240.695,111.788
178.953,68.7255,240.387,111.73
178.893,68.8878,240.344,112.307
178.796,68.7968,240.164,112.259
178.111,68.4183,239.283,111.817
178.264,68.4295,239.627,111.918
178.137,68.2851,239.385,111.781
178.047,68.199,239.336,111.655
177.967,68.1536,239.366,111.64
178.005,68.1553,239.398,111.614
177.996,68.1614,239.439,111.629
177.858,68.2211,239.321,111.673
177.718,68.2692,239.203,111.726
177.71,68.3077,239.179,111.788
177.748,68.4933,239.188,111.887
177.73,68.5501,239.18,112.039
177.679,68.72,239.138,112.148
177.678,68.8283,239.154,112.289
177.681,68.8509,239.149,112.332
177.437,68.8593,238.808,112.353
177.34,68.8556,238.788,112.344
177.267,68.868,238.744,112.35
177.095,68.8874,238.535,112.359
176.935,69.1212,238.424,112.529
176.914,69.1799,238.372,112.659
176.875,69.5935,238.256,112.893
176.9,69.904,238.296,113.316
176.948,70.0126,238.403,113.465
177.025,70.185,238.383,113.562
177.122,70.5055,238.503,113.637
177.201,71.0685,238.497,114.348
177.328,71.5453,238.551,114.606
177.447,71.9628,238.925,115.387
177.471,72.1429,238.871,115.623
177.454,72.4887,238.816,115.985
177.178,73.2228,238.595,116.569
177.201,73.3557,238.64,116.796
177.065,73.3635,238.498,116.845
176.918,73.3347,238.36,116.769
176.923,73.2356,238.242,116.566
176.985,73.2621,238.458,116.69
177,73.2859,238.471,116.733
177.016,73.3051,238.484,116.78
177.023,73.3164,238.49,116.797
177.027,73.3267,238.504,116.807
176.951,73.4274,238.401,116.913
176.47,73.5367,237.841,117.059
176.481,73.8035,237.939,117.79
176.389,73.8789,237.955,117.885
176.438,74.1357,238.441,118.525
176.476,74.161,238.87,118.601
176.024,73.7501,238.301,118.069
176.162,73.6862,238.603,117.98
176.092,73.7184,238.577,117.931
176.048,73.7742,238.471,118.176
176.082,73.6861,238.532,117.893
176.05,73.7235,238.41,117.964
176.122,73.8381,238.593,118.266
176.187,73.7267,238.619,117.99
176.189,73.75,238.648,118.097
176.211,73.686,238.636,117.87
176.229,73.792,238.644,117.919
176.231,73.9249,238.702,118.316
176.341,74.1376,238.695,118.005
176.339,74.1528,238.855,117.921
176.573,74.2788,239.549,118.227
176.56,74.3057,239.533,118.226
176.526,74.3311,239.508,118.27
176.533,74.3539,239.507,118.32
176.535,74.3636,239.525,118.312
176.525,74.3679,239.522,118.311
176.497,74.4219,239.522,118.243
176.762,74.4917,240.228,118.443
176.758,74.5599,240.257,118.403
176.753,74.6394,240.233,118.585
176.764,74.6766,240.249,118.6
176.846,74.7184,240.314,118.658
176.922,74.7683,240.41,118.613
177.158,74.7854,240.623,118.701
177.67,74.6287,241.132,118.321
178.106,74.5083,241.577,118.259
179.451,74.3092,242.725,117.71
179.728,74.3493,243.1,117.573
180.135,74.5597,243.459,117.563
180.469,74.7068,243.839,117.946
181.149,74.5877,244.326,117.438
181.831,74.6989,244.999,117.092
182.235,74.4551,245.418,116.502
182.465,74.6628,245.838,116.735
182.562,74.7951,245.962,117.131
182.749,74.7912,245.989,116.684
182.838,74.7185,246.133,116.372
182.89,74.8066,246.125,116.342
183.073,75.0556,246.436,116.854
183.24,74.7759,246.309,116.152
183.47,74.692,246.768,115.928
183.605,74.803,246.974,116.15
183.741,74.7183,247.158,115.916
183.903,74.9264,247.225,116.206
183.975,75.0272,247.282,116.157
184.09,75.1547,247.482,116.446
184.133,75.2791,247.593,116.715
184.157,75.3518,247.666,116.692
184.396,75.4587,248.36,116.901
184.466,75.5575,248.421,116.973
184.803,75.653,248.76,116.976
185.35,75.7199,249.286,117.074
185.558,75.8323,249.451,117.223
185.9,75.9738,249.789,117.321
186.229,76.0827,250.138,117.512
186.572,76.1726,250.473,117.555
186.78,76.2275,250.73,117.653
186.901,76.2575,250.852,117.719
187.27,76.2821,251.274,117.685
187.602,76.3808,252.024,117.824
187.694,76.4949,252.141,117.961
187.849,76.8242,252.26,118.138
187.903,76.9179,252.376,118.383
187.942,76.9442,252.411,118.416
188.245,77.1575,252.635,118.411
188.307,77.2946,252.78,118.762
188.344,77.5039,252.833,118.822
188.632,77.8453,253.129,119.194
189.515,77.9614,253.817,119.374
189.934,78.0609,254.282,119.489
190.889,78.1537,255.203,119.362
191.151,78.2578,255.638,119.697
191.487,78.4603,255.993,119.807
