121.999,51.0002,172.974,111.974
122.013,51.0199,172.985,111.994
122.028,51.0439,173.001,112.015
122.065,51.2957,172.987,112.194
122.117,51.7499,173.027,112.633
122.226,52.5335,173.021,113.285
122.35,53.1172,173.202,113.966
122.379,54.0881,173.088,114.799
122.338,54.7459,173.044,115.716
122.475,55.1682,173.279,116.046
122.458,55.6061,173.221,116.566
122.519,55.9658,173.345,116.89
122.518,56.3534,173.315,117.256
122.487,56.9272,173.232,117.819
122.547,57.4654,173.4,118.249
122.588,57.8868,173.436,118.795
122.59,58.2319,173.401,119.186
122.565,58.6908,173.413,119.604
122.56,58.873,173.448,119.827
122.323,59.5016,172.965,120.366
122.307,59.8821,173.048,120.805
122.422,59.9819,173.381,120.932
122.432,60.0427,173.374,121.004
122.358,60.3495,173.158,121.257
122.161,61.0971,172.85,121.914
122.205,61.4576,172.935,122.339
121.848,62.7994,172.128,123.558
121.834,63.3218,171.621,124.183
121.669,64.2025,170.896,124.798
121.533,64.9804,170.585,125.631
121.101,65.8031,169.539,126.047
120.13,66.4626,168.31,126.419
119.054,66.4748,166.899,125.743
117.82,66.1619,164.989,125.146
116.984,65.5141,163.929,124.059
116.111,65.186,162.757,123.888
115.263,64.7157,161.922,123.358
114.673,64.5014,161.572,123.101
113.768,64.1397,160.699,122.67
112.909,63.776,159.778,121.919
112.396,63.6768,159.3,121.622
112.246,63.4649,159.284,120.757
112.207,63.3348,159.63,119.505
112.168,63.1174,159.609,118.208
112.342,62.9002,159.651,117.068
112.92,62.3501,160.144,115.375
113.455,61.9808,160.743,114.068
114.161,61.2631,161.437,112.42
114.339,60.8593,161.627,111.774
114.67,60.3759,162.056,110.945
114.872,60.5056,162.354,111.347
114.906,60.626,162.413,111.609
115.219,60.8874,163.18,111.84
115.265,60.9934,163.21,111.956
115.298,61.1068,163.202,112.091
115.22,62.1885,162.804,113.201
115.3,62.9586,162.824,114.48
115.364,63.6425,162.767,115.711
115.355,64.7036,161.792,117.179
115.389,65.6411,160.724,118.076
115.325,66.9492,159.865,119.523
115.441,68.2233,159.531,121.126
115.475,69.3939,158.83,122.278
115.327,70.0601,158.106,122.846
115.385,70.5344,157.758,123.404
115.226,70.9112,157.156,123.797
115.237,71.4212,157.019,124.091
115.312,71.866,157.187,124.582
115.37,72.0457,157.31,124.961
115.337,72.2996,157.24,124.887
115.426,72.7463,157.378,125.541
115.634,73.3143,157.567,125.948
115.813,73.9792,157.737,126.729
116.005,74.3269,157.974,127.188
116.043,74.4295,158.02,127.39
116.07,74.5352,158.041,127.471
116.236,74.7876,158.129,127.748
116.406,75.3223,158.304,128.216
116.49,75.4526,158.419,128.425
116.624,75.5577,158.527,128.527
116.807,75.7157,158.722,128.645
116.994,75.809,158.848,128.732
117.146,75.8571,159.098,128.83
117.257,75.9592,159.2,128.915
117.318,76.0493,159.281,129.007
117.374,76.1046,159.333,129.06
117.42,76.1355,159.383,129.076
117.459,76.1792,159.404,129.123
117.557,76.2399,159.514,129.176
117.647,76.2582,159.613,129.172
117.772,75.8832,159.69,128.441
118.064,75.6869,160.084,128.378
118.595,74.4355,161.219,126.32
118.761,73.4287,161.891,124.928
118.909,72.6157,162.434,123.504
118.337,71.3685,162.257,120.822
117.76,70.3381,161.49,118.894
116.644,69.1901,160.313,117.409
115.82,68.4586,159.481,116.327
114.458,67.3972,157.896,114.973
113.086,66.8084,156.186,114.17
112.187,66.3743,155.381,113.513
111.545,66.3514,155.054,113.56
110.951,66.2954,154.937,113.499
110.288,66.164,154.336,113.228
109.549,65.9555,154.17,112.973
108.543,65.2126,153.627,112.228
107.853,64.8464,153.422,111.672
107.464,64.3128,153.453,110.15
107.391,63.7716,153.264,109.37
107.464,63.9634,153.434,109.941
107.508,63.962,153.475,109.925
107.547,63.9748,153.52,109.968
107.604,63.9719,153.553,110.05
107.655,64.1975,153.61,110.71
107.719,64.5446,153.669,111.529
107.779,64.6843,153.684,111.728
107.826,64.9136,153.801,112.394
107.861,64.9846,153.828,112.449
107.889,65.0078,153.851,112.481
107.9,65.0155,153.851,112.487
107.907,65.0108,153.842,112.478
107.939,65.0263,153.912,112.499
107.951,65.04,153.928,112.518
107.962,65.0513,153.94,112.531
107.973,65.0616,153.949,112.54
107.983,65.0725,153.961,112.552
107.994,65.0825,153.97,112.559
108.005,65.0954,153.982,112.575
108.015,65.1059,153.992,112.585
108.025,65.1162,154.003,112.596
108.036,65.1266,154.013,112.606
108.046,65.1364,154.023,112.614
108.057,65.1475,154.034,112.626
108.067,65.158,154.044,112.636
108.078,65.162,154.054,112.638
108.09,65.1724,154.061,112.641
108.103,65.1883,154.081,112.668
108.132,65.173,154.067,112.616
108.158,65.1884,154.086,112.66
108.189,65.1967,154.107,112.665
108.233,65.2212,154.118,112.699
108.335,65.3468,154.042,112.869
108.452,65.6411,154.201,113.639
108.556,65.7128,154.335,113.721
108.618,66.149,154.017,114.849
108.574,66.4779,153.709,115.561
108.668,66.8231,153.79,116.369
108.812,67.1362,154.047,117.185
108.885,67.4602,154.196,117.975
108.885,67.8158,154.124,118.889
108.889,68.1609,154.017,119.696
108.853,68.5549,153.828,120.673
108.71,68.911,153.334,121.452
108.761,69.3186,153.287,122.354
108.814,69.6998,153.313,123.287
108.755,70.0098,152.885,124.074
108.795,70.3131,152.753,124.914
108.819,70.5258,152.71,125.499
108.868,70.4932,152.543,125.448
108.864,70.5776,152.456,125.583
108.892,70.7983,152.646,126.264
108.818,70.8043,152.535,126.315
108.782,70.966,152.478,126.917
108.629,70.9791,152.376,126.96
108.546,71.0015,152.303,126.985
108.518,70.9088,152.231,126.863
108.434,70.8988,152.16,126.867
108.35,70.896,152.067,126.85
108.138,71.034,151.712,126.918
108.145,71.0523,151.797,126.985
108,70.9258,151.445,126.779
107.714,70.8739,150.737,126.757
107.535,70.8399,150.643,126.708
107.361,70.723,150.366,126.436
107.287,70.5285,150.099,126.077
106.952,70.5253,149.442,125.916
106.668,70.4185,148.762,125.605
106.657,70.415,148.872,125.552
106.45,70.3696,148.524,125.576
106.39,70.2925,148.489,125.445
106.413,70.3511,148.61,125.408
106.312,70.4519,148.449,125.567
106.327,70.5952,148.527,125.698
106.255,70.5989,148.466,125.518
106.046,70.3874,148.088,124.949
105.936,70.3926,147.998,125.07
106.107,70.318,148.371,124.925
106.199,70.2326,148.441,124.864
106.118,70.3361,148.392,125.135
106.248,70.2644,148.442,124.991
106.191,70.2098,148.455,125.002
106.254,70.2619,148.543,125.09
106.373,70.34,148.755,125.217
106.443,70.3787,148.812,125.246
106.542,70.3562,148.804,125.221
106.638,70.4296,148.971,125.353
106.745,70.474,149.174,125.418
106.788,70.5061,149.203,125.446
106.845,70.5356,149.257,125.488
106.935,70.5919,149.342,125.565
107.037,70.6657,149.434,125.623
107.134,70.7376,149.585,125.708
107.2,70.8272,149.652,125.785
107.261,70.9475,149.687,125.894
107.36,71.1024,149.78,126.056
107.432,71.2018,149.882,126.166
107.471,71.3582,149.922,126.3
107.519,71.6246,149.947,126.539
107.57,71.7556,150.027,126.72
107.618,71.9707,150.055,126.922
107.666,72.115,150.108,127.086
107.687,72.4532,150.054,127.37
107.724,72.8551,150.09,127.783
107.736,72.9983,150.183,127.893
107.715,73.1115,150.162,128.023
107.703,73.2163,150.164,128.141
107.655,73.4167,150.058,128.275
107.588,73.5907,150.042,128.451
107.366,73.7158,149.655,128.526
107.228,73.995,149.657,128.803
107.009,74.3543,149.399,129.105
106.974,74.5214,149.324,129.375
106.886,74.536,149.072,129.351
106.925,74.591,149.112,129.456
106.885,74.5585,149.074,129.328
106.803,74.5835,148.808,129.423
106.892,74.5712,149.041,129.467
106.826,74.4353,148.869,129.36
106.721,74.3601,148.666,129.316
106.547,74.2677,147.946,129.166
106.312,74.3146,147.431,129.133
106.284,74.3425,147.369,129.161
106.184,74.4276,147.33,129.094
106.078,74.5253,147.217,129.194
106.033,74.6845,147.345,129.373
105.883,74.8843,147.254,129.646
105.694,75.0554,146.982,129.777
105.457,75.2304,146.762,129.946
105.438,75.3844,146.745,130.261
105.447,75.4555,146.812,130.338
105.406,75.4581,146.738,130.303
105.319,75.5101,146.603,130.298
105.207,75.6192,146.438,130.296
105.155,75.7712,146.374,130.389
105.182,75.9372,146.427,130.673
105.243,76.0746,146.447,130.709
105.335,76.2283,146.557,130.97
105.445,76.3436,146.708,131.18
105.558,76.4217,146.959,131.362
105.598,76.4398,146.965,131.335
105.656,76.4147,146.979,131.202
105.693,75.9431,146.903,130.421
105.725,75.8045,147.159,130.016
105.619,75.7046,147.052,129.555
105.633,75.3177,147.038,128.804
105.774,73.9986,147.083,126.767
105.696,72.8035,147.111,125.146
105.711,71.0841,147.098,122.905
105.544,69.5025,147.009,120.52
105.372,68.167,146.744,118.658
105.362,66.4661,146.827,116.04
105.216,65.0564,146.711,114.194
105.116,63.554,146.616,112.061
104.961,62.2562,146.819,109.784
104.581,61.18,146.486,107.809
104.354,59.7433,146.221,105.675
104.191,58.5095,146.157,104.024
103.921,56.8216,145.782,101.61
103.726,55.4481,145.735,99.4619
103.774,54.5118,146.401,98.4738
103.855,54.1992,146.831,98.0789
103.876,54.1838,146.863,98.1037
103.92,54.1636,146.891,98.1454
104.06,54.223,147.022,98.1998
104.247,54.317,147.164,98.3263
104.439,54.6116,147.372,99.0939
104.531,54.6929,147.514,99.1728
104.559,54.7352,147.537,99.2115
104.579,54.7535,147.56,99.2367
104.772,54.8586,147.734,99.3655
104.862,55.1062,147.83,100.095
104.925,55.1156,147.891,100.104
105.055,55.1676,147.974,100.191
105.28,55.5018,148.163,101.044
105.585,55.8218,148.459,101.875
105.661,56.0596,148.64,102.548
105.693,56.0794,148.669,102.567
105.97,56.2718,148.791,102.845
106.456,56.6113,149.21,103.783
106.826,56.9308,149.68,104.531
107.944,57.3107,150.44,105.483
109.168,57.7126,151.261,106.268
109.541,58.1186,151.954,107.104
110.356,58.8203,152.502,107.678
110.734,59.1296,153.137,108.076
111.113,59.9061,153.451,108.739
111.404,60.5849,153.825,109.408
111.821,61.6958,154.167,110.507
112.145,62.5896,154.63,111.447
112.463,63.751,154.864,112.659
112.637,65.9985,155.163,114.64
112.933,67.1492,155.822,115.916
113.064,68.0053,155.975,116.865
113.143,68.8722,156.076,117.676
113.168,69.2333,156.116,118.145
113.185,69.5271,156.116,118.449
113.226,69.6574,156.162,118.63
113.266,69.699,156.233,118.673
113.27,69.7112,156.16,118.691
113.32,69.7289,156.246,118.711
113.353,69.7415,156.236,118.726
113.423,69.7423,156.154,118.75
113.401,69.8338,156.084,119.313
113.216,69.6739,155.714,119.189
112.854,69.6878,154.717,119.719
112.062,70.0454,153.196,120.357
111.277,70.4716,152.096,120.95
110.304,71.0184,150.133,121.668
109.905,71.7187,149.135,122.889
109.819,72.3627,148.835,123.96
109.85,72.6831,149.036,124.76
109.536,73.1262,148.936,125.653
108.837,73.6338,148.18,126.371
107.496,74.0589,146.845,126.663
106.205,74.598,145.476,127.073
104.917,74.4941,143.888,126.542
104.026,74.6333,142.672,126.694
103.618,74.8113,142.128,126.987
103.211,74.9126,141.622,127.119
102.805,74.8917,140.793,127.249
102.415,74.8124,139.943,127.168
101.894,74.579,139.183,126.887
100.97,74.1663,137.762,126.172
99.7585,73.636,136.028,125.664
98.8533,73.5056,134.948,125.655
97.931,73.3323,133.979,125.637
97.2608,73.007,133.325,125.476
96.3259,72.56,132.371,125.108
95.4029,71.844,131.336,125.011
94.4408,71.4861,129.678,125.168
93.5681,71.2125,128.367,125.552
92.4588,71.1974,126.755,125.939
91.2761,71.3434,125.164,126.358
90.2959,72.0008,123.586,127.457
89.1739,71.6337,121.952,127.229
88.1282,71.8184,120.647,127.873
86.3007,71.4311,118.656,127.561
84.5226,71.1519,116.234,127.325
82.6304,70.3979,114.005,126.58
80.9847,69.9221,112.069,126.155
79.4847,69.3704,110.68,125.635
79.0393,69.5699,110.43,125.964
78.0171,69.0387,109.274,125.697
76.7523,68.9019,107.947,126.311
76.1034,68.5636,107.289,126.977
75.7942,68.6528,106.991,127.4
75.0947,68.5167,106.013,127.937
74.141,68.1342,104.665,128.04
73.5934,67.8193,104.22,128.043
73.1213,67.9158,103.899,128.458
73.0702,68.003,103.856,128.934
72.8243,67.6532,103.532,128.259
73.2255,67.0983,103.691,127.181
74.2764,67.1975,104.088,125.694
74.8716,66.9253,104.217,124.281
76.2515,67.1243,105.337,123.041
77.121,67.2001,106.23,121.788
78.2327,67.0363,107.209,120.761
79.579,66.5995,108.043,119.55
81.7789,65.932,109.614,118.123
83.488,63.6651,110.792,115.193
84.8371,61.3998,111.957,112.663
85.0136,59.0528,112.33,109.792
84.962,57.4925,112.175,107.543
86.0553,56.4133,113.112,106.184
87.3532,54.8731,114.27,104.132
88.2454,52.3501,114.662,101.518
88.8724,50.2827,114.963,99.4956
90.7314,48.999,117.042,98.1488
91.3448,47.7243,117.747,97.0364
91.9704,47.0005,118.599,96.1785
92.4897,46.8349,119.522,96.1339
93.0254,46.2522,120.52,95.557
93.2815,45.8942,120.724,95.3025
93.6595,45.288,121.118,94.646
93.8562,45.3199,121.337,94.7483
94.0906,45.3421,121.528,94.8344
94.205,45.3811,121.675,94.8923
94.2513,46.0534,121.702,96.0592
94.3813,46.8192,121.817,97.3968
94.4984,47.9132,121.92,98.8049
94.8393,49.827,122.137,100.88
95.1817,51.157,122.552,102.613
95.6962,53.0485,122.948,104.536
96.0482,55.1095,123.211,106.718
97.0183,57.0621,124.257,109.222
97.8968,59.2021,125.044,112.172
99.4496,60.3983,126.785,114.008
100.865,62.8457,128.089,117.376
102.23,64.7962,129.494,120.607
103.566,66.5754,130.736,123.215
104.599,68.7011,131.859,126.418
106.144,70.0877,133.37,128.29
107.272,71.5171,134.607,130.115
107.902,72.5191,135.264,131.44
108.001,73.8466,135.129,133.005
108.378,74.8743,135.665,134.541
108.358,77.6911,135.62,137.713
108.332,81.0058,135.702,141.202
108.222,83.5925,135.587,143.88
108.335,85.5082,135.735,145.726
108.366,87.7169,135.843,147.842
108.384,90.1344,135.793,150.301
108.578,91.5044,136.054,151.666
108.767,92.9485,136.287,153.057
109.065,94.4155,137.059,154.604
108.913,95.4912,136.849,155.76
108.981,95.9015,136.977,156.305
109.004,96.6663,137.058,156.838
109.248,97.5058,137.765,157.741
109.537,98.1513,138.549,158.438
109.78,98.4432,139.274,158.839
109.798,98.9178,139.33,159.195
110.002,99.2532,140.08,159.445
110.17,99.4716,140.699,159.771
110.358,99.6975,141.406,160.054
110.485,100.065,142.267,160.229
110.401,100.848,142.824,161.048
110.031,101.473,142.996,161.655
109.861,101.687,143.085,162.147
109.802,101.895,143.634,162.299
109.55,102.433,143.979,162.831
108.966,102.578,143.984,162.605
108.493,102.996,144.391,163.198
107.814,102.793,144.191,162.759
107.233,102.721,144.256,162.392
106.863,103.094,144.612,163.05
106.759,103.283,145.308,162.913
106.208,103.517,146.209,163.291
106.061,103.463,147.781,163.617
105.554,102.694,148.65,163.053
105.741,102.043,150.796,163.01
106.457,102.171,152.328,163.499
106.74,102.498,153.069,164.098
106.938,102.763,153.737,164.833
107.126,103.231,155.06,165.883
107.456,103.422,158.132,166.867
106.677,104.766,160.916,168.804
107.212,103.117,163.914,167.541
107.729,102.913,167.438,166.989
109.007,104.049,171.207,168.628
109.489,105.072,172.895,170.125
110.256,106.33,175.055,171.961
110.962,107.962,178.109,173.633
112.031,110.458,181.699,177.528
111.596,113.065,186.404,182.286
110.104,113.757,190.364,185.278
111.38,112.548,196.646,186.163
111.799,112.194,197.589,185.963
112.177,111.865,198.911,185.703
112.534,111.36,199.96,184.968
112.487,111.404,200.08,185.31
112.567,110.97,200.687,184.697
111.742,110.715,200.821,184.4
110.996,110.597,200.609,184.131
110.221,110.637,200.389,184.177
109.656,110.585,200.194,184.13
109.021,110.483,200.051,184.018
107.549,110.297,199.414,183.624
106.732,109.961,198.885,183.165
106.546,110.017,199.075,183.367
105.373,110.01,198.434,183.244
105.201,110.124,198.755,183.423
105.024,110.227,199.015,183.607
104.468,110.152,198.479,183.509
104.681,110.204,199.134,183.657
104.682,110.205,199.125,183.659
104.679,110.148,199.151,183.58
104.644,110.047,199.127,183.461
104.599,109.991,199.066,183.414
104.562,109.908,199.026,183.329
104.458,109.755,198.958,183.215
104.42,109.709,198.874,183.154
104.431,109.707,198.894,183.172
104.425,109.61,198.884,183.069
104.428,109.436,198.89,182.939
104.433,109.657,198.894,183.627
104.371,109.445,198.955,183.506
104.514,109.499,199.478,184.009
104.503,109.618,199.407,184.623
104.526,109.781,199.421,185.263
104.573,109.772,199.515,185.236
104.593,109.773,199.514,185.246
104.646,109.769,199.59,185.228
104.671,109.789,199.621,185.257
104.694,109.805,199.647,185.272
104.716,109.821,199.669,185.288
104.738,109.837,199.691,185.305
104.759,109.854,199.712,185.321
104.78,109.87,199.733,185.338
104.834,109.858,199.776,185.359
104.881,110.042,199.817,186.063
105.101,110.034,200.009,186.701
105.269,110.058,200.122,187.1
105.434,110.091,200.304,187.671
105.577,110.167,200.566,188.272
105.554,110.219,200.512,188.817
105.48,110.151,200.584,189.19
105.594,110.234,201.062,189.743
105.588,110.339,201.063,190.334
105.579,110.299,201.049,190.281
105.603,110.258,201.073,190.288
105.605,110.441,201.084,190.951
105.604,110.63,201.095,191.653
105.6,110.799,201.092,192.336
105.564,110.666,201.084,192.767
105.737,110.437,201.623,192.979
105.713,110.321,201.629,193.377
105.716,110.302,201.63,193.821
105.754,110.324,201.738,194.433
105.704,110.193,201.683,194.731
105.633,110.041,201.555,195.031
105.654,109.845,201.595,194.792
105.639,109.726,201.58,194.673
105.653,109.619,201.554,194.583
105.699,109.507,201.62,194.42
105.719,109.408,201.653,194.317
105.75,109.428,201.694,194.374
105.763,109.354,201.722,194.292
105.777,109.271,201.752,194.214
105.771,109.171,201.723,194.113
105.753,109.034,201.711,193.972
105.728,108.833,201.663,193.766
105.727,108.784,201.682,193.758
105.729,108.51,201.664,193.584
105.739,108.265,201.695,193.955
105.73,107.863,201.691,193.919
105.646,107.514,201.586,194.056
105.372,106.862,201.323,193.746
105.252,106.511,201.179,193.445
105.147,106.151,201.08,193.059
105.112,105.955,201.071,192.881
105.049,105.688,201.001,192.636
104.991,105.405,200.965,192.335
105.031,105.114,201,192.051
105.074,104.532,201.053,191.597
105.194,103.991,201.151,191.696
105.353,103.591,201.334,191.732
105.496,103.368,201.554,191.983
105.756,103.419,202.278,192.399
106.007,103.417,202.974,192.376
106.028,103.424,202.992,192.385
106.044,103.444,202.996,192.405
106.065,103.463,203.017,192.425
106.087,103.483,203.039,192.444
106.109,103.504,203.06,192.466
106.132,103.51,203.079,192.463
106.154,103.53,203.106,192.489
106.177,103.55,203.129,192.511
106.202,103.575,203.152,192.534
106.251,103.621,203.19,192.555
106.285,103.721,203.196,192.603
106.329,103.806,203.169,192.75
106.579,103.949,203.025,192.703
106.543,104.175,202.83,193.02
106.387,104.367,202.147,193.319
106.559,104.347,201.443,193.198
106.524,103.698,200.428,192.572
106.543,103.627,200.19,192.518
106.698,103.644,200.632,192.582
106.699,103.539,200.557,192.46
106.765,103.475,200.694,192.364
106.793,103.549,200.742,192.478
106.856,103.517,200.748,192.323
106.928,103.601,200.831,192.464
106.998,103.673,200.879,192.514
107.062,103.735,200.981,192.642
107.104,103.773,201.045,192.712
107.144,103.769,201.032,192.614
107.235,103.81,201.116,192.559
107.364,103.963,201.208,192.608
107.506,104.179,201.373,192.953
107.657,104.399,201.527,193.188
107.847,104.556,201.639,193.315
107.988,104.519,201.801,193.311
108.077,104.405,201.713,193.179
108.233,104.471,202.153,193.409
108.228,104.281,202.115,193.104
108.235,104.13,202.154,192.916
108.214,103.918,202.077,192.688
108.134,103.563,201.988,192.413
108.11,103.174,201.879,191.917
108.075,102.957,201.902,191.85
107.946,102.674,201.862,191.501
107.816,102.518,201.793,191.364
107.781,102.504,201.741,191.405
107.629,102.2,201.414,191.046
107.62,102.152,201.432,190.963
107.658,102.169,201.414,191.03
107.748,102.217,201.603,191.172
107.788,102.233,201.608,191.178
107.81,102.263,201.658,191.214
107.79,102.288,201.699,191.219
107.784,102.308,201.682,191.211
107.792,102.324,201.738,191.228
107.705,102.339,201.634,191.221
107.627,102.338,201.549,191.221
107.557,102.34,201.449,191.226
107.577,102.372,201.489,191.295
107.595,102.387,201.535,191.307
107.609,102.42,201.537,191.313
107.588,102.491,201.515,191.321
107.538,102.557,201.482,191.382
107.482,102.632,201.431,191.527
107.286,102.682,201.235,191.497
107.14,102.766,201.095,191.65
106.853,102.835,200.825,191.68
106.479,102.932,200.441,191.768
106.245,103.031,200.213,191.906
105.933,103.12,199.913,191.954
105.809,103.216,199.79,192.074
105.683,103.304,199.673,192.144
105.618,103.413,199.598,192.278
105.561,103.488,199.521,192.4
105.472,103.525,199.427,192.436
105.398,103.507,199.363,192.429
105.217,103.403,199.202,192.276
105.006,103.219,198.988,192.09
104.904,103.14,198.876,192.038
104.894,103.159,198.851,192.118
104.898,103.152,198.855,192.12
104.899,103.133,198.865,192.104
104.886,103.1,198.848,192.077
104.835,102.963,198.759,191.989
104.684,102.85,198.52,192.384
104.649,102.783,198.559,192.86
104.588,102.818,198.488,193.352
104.218,102.431,198.072,193.468
104.179,102.515,198.135,194.017
104.11,102.635,198.03,194.637
104.032,102.734,197.913,195.194
103.901,102.501,197.743,194.928
103.934,102.458,197.881,194.897
103.819,102.307,197.806,194.716
103.745,102.322,197.695,194.706
103.682,102.335,197.66,194.738
103.566,102.365,197.535,194.738
103.439,102.47,197.466,194.827
103.597,102.547,198.069,194.971
103.599,102.578,198.054,195.03
103.594,102.599,198.055,195.056
103.548,102.604,198.023,195.052
103.557,102.63,198.011,195.09
103.577,102.651,198.031,195.111
103.598,102.672,198.052,195.131
103.597,102.701,198.04,195.154
103.581,102.714,198.024,195.162
103.583,102.726,198.021,195.184
103.598,102.737,198.049,195.201
103.603,102.735,198.062,195.195
103.612,102.744,198.07,195.209
103.621,102.75,198.079,195.216
103.633,102.763,198.088,195.225
103.654,102.782,198.107,195.242
103.675,102.802,198.128,195.262
103.696,102.823,198.149,195.283
103.717,102.843,198.17,195.303
103.738,102.863,198.192,195.323
103.759,102.884,198.213,195.344
103.78,102.904,198.233,195.365
103.801,102.925,198.254,195.385
103.824,102.946,198.279,195.403
103.855,102.975,198.316,195.391
103.883,103.049,198.34,195.423
103.921,103.203,198.39,195.398
103.948,103.414,198.382,195.695
104.044,103.688,198.43,195.816
104.113,104.17,198.527,196.12
104.157,104.3,198.602,196.086
104.182,104.429,198.629,196.34
104.182,104.497,198.652,196.403
104.196,104.576,198.655,196.467
104.209,104.633,198.659,196.567
104.224,104.674,198.687,196.616
104.24,104.737,198.694,196.598
104.251,104.811,198.695,196.718
104.314,104.738,198.695,196.459
104.368,104.791,198.748,196.555
104.417,104.772,198.77,196.534
104.472,104.781,198.883,196.645
104.548,104.801,198.891,196.528
104.699,104.858,199.032,196.495
104.782,104.912,199.167,196.613
104.881,104.94,199.255,196.4
105.09,104.855,199.387,195.625
105.278,104.99,199.649,195.583
105.335,105.139,199.75,195.987
105.365,105.187,199.781,196.044
105.351,105.129,199.789,195.948
105.132,104.856,199.638,195.652
105.139,104.798,200.139,195.647
104.941,104.724,199.926,195.596
104.662,104.517,199.684,195.367
104.443,103.988,200.081,194.881
104.439,103.88,200.461,194.784
104.245,103.173,200.411,194.264
104.144,102.881,200.421,194.461
104.034,102.15,200.109,194.416
104.178,102.011,200.567,194.522
104.193,102.042,200.601,195.055
104.121,101.369,200.32,195.019
104.005,100.205,199.967,194.371
103.92,99.4373,199.496,194.156
104.025,98.4204,199.571,193.702
104.236,98.2516,200.091,193.753
104.25,97.8037,199.949,194.023
104.378,97.3723,200.141,194.08
104.46,96.9701,200.308,193.994
104.529,96.4314,200.283,194.024
104.764,95.5248,200.364,193.676
105.082,94.578,200.687,193.208
105.333,93.8053,201.099,192.91
105.495,92.818,200.98,192.478
105.522,92.8364,200.905,192.763
105.582,92.8248,200.999,192.775
105.624,92.8413,201.07,192.791
105.65,92.856,201.095,192.8
105.675,92.8679,201.117,192.812
105.702,92.8777,201.144,192.809
105.73,92.8955,201.172,192.833
105.754,92.8678,201.196,192.8
105.783,92.8785,201.227,192.814
105.811,92.8456,201.256,192.784
105.845,92.8329,201.276,192.724
105.898,92.7988,201.323,192.685
105.939,92.7323,201.35,192.571
105.982,92.7771,201.412,192.656
106.005,92.704,201.42,192.573
106.027,92.5979,201.463,192.499
106.045,92.5696,201.487,192.477
106.054,92.5795,201.506,192.481
106.062,92.6131,201.508,192.528
106.087,92.6562,201.54,192.613
106.097,92.6696,201.55,192.627
106.111,92.6865,201.563,192.635
106.086,92.5499,201.558,192.452
106.053,92.5042,201.529,192.487
105.86,91.5989,201.44,191.289
105.855,91.0649,201.845,190.69
105.605,91.0295,201.665,190.526
104.872,90.1242,201.659,189.077
104.655,90.1006,201.764,188.87
104.709,90.1641,202.119,189.044
104.611,90.1562,202.017,189.077
104.645,90.1859,202.134,189.134
104.624,90.1385,202.143,189.111
104.706,89.8505,202.776,188.823
104.788,89.5493,203.335,188.56
104.957,89.4968,203.979,188.97
105.094,89.0749,204.704,188.554
105.233,88.7444,205.249,188.226
105.485,88.3405,206.035,187.885
105.706,88.1423,206.747,188.27
106.065,87.9704,207.507,188.566
106.109,87.9932,207.59,189.023
106.149,88.0877,207.617,189.596
106.351,87.9256,207.818,189.887
106.422,87.852,207.872,189.85
106.596,87.7167,208.093,189.725
106.696,87.8967,208.156,190.369
106.866,87.8129,208.339,190.258
106.907,87.753,208.431,190.231
107.167,87.6909,209.15,190.172
107.174,87.6582,209.141,190.143
107.195,87.6565,209.153,190.12
107.217,87.6653,209.174,190.129
107.249,87.6598,209.234,190.126
107.266,87.6737,209.225,190.131
107.293,87.6955,209.248,190.15
107.327,87.7167,209.294,190.18
107.362,87.7132,209.339,190.193
107.406,87.6772,209.383,190.174
107.463,87.6365,209.441,190.134
107.54,87.4728,209.527,190.029
107.668,87.5726,209.673,190.585
107.966,87.7905,210.428,191.249
108.034,87.7534,210.513,191.223
108.149,87.6309,210.639,191.123
108.258,87.4277,210.769,190.934
108.513,87.5386,211.502,191.534
108.559,87.273,211.57,191.311
109.018,87.111,212.647,191.565
109.235,86.8573,213.198,191.389
109.28,86.9599,213.246,191.954
109.306,86.8932,213.259,191.86
109.335,86.8667,213.287,191.823
109.357,86.8809,213.304,191.834
109.38,86.9001,213.328,191.855
109.399,86.9164,213.349,191.871
109.422,86.9388,213.371,191.894
109.45,86.9562,213.404,191.912
109.481,86.9707,213.441,191.926
109.502,86.9916,213.454,191.947
109.524,87.0142,213.472,191.969
109.547,87.0371,213.496,191.992
109.57,87.0601,213.519,192.015
109.597,87.0813,213.545,192.027
109.637,87.1152,213.533,192.001
109.675,87.2473,213.554,192.092
109.743,87.3423,213.66,192.282
109.783,87.3631,213.699,192.309
109.841,87.4207,213.757,192.351
109.843,87.4214,213.779,192.331
109.753,87.3831,213.648,192.318
109.648,87.3077,213.494,192.296
109.554,86.7802,213.292,192.026
109.6,86.6535,213.551,192.277
109.567,86.7717,213.518,192.759
109.538,86.7048,213.499,192.668
109.474,86.6631,213.431,192.595
109.443,86.6705,213.396,192.602
109.355,86.6181,213.338,192.548
109.249,86.6336,213.226,192.545
109.034,86.6489,213.025,192.54
108.641,86.7238,212.698,192.54
108.362,86.866,212.914,192.681
106.952,86.9924,212.103,192.727
106.231,87.0562,211.79,192.945
105.17,87.0752,211.194,192.982
103.876,87.1191,210.382,192.939
103.113,87.1426,210.139,192.91
103.124,87.2487,210.597,193.163
102.531,87.3273,210.009,193.099
102.185,87.4574,209.679,193.291
101.691,87.5293,209.179,193.375
101.691,87.606,209.139,193.561
101.428,87.5933,208.806,193.502
101.337,87.6253,208.741,193.564
101.066,87.7,208.539,193.6
100.56,87.838,208.012,193.654
99.8595,88.0045,207.26,193.735
99.5874,88.278,207.03,194.008
99.4163,88.4923,206.882,194.305
99.3433,88.642,206.812,194.496
99.1337,88.8228,206.602,194.662
98.7334,89.1185,206.209,194.78
98.44,89.382,205.861,195.222
98.332,89.507,205.762,195.403
98.1812,89.6255,205.622,195.513
98.0848,89.7349,205.507,195.649
97.7466,89.9219,205.187,195.717
97.242,90.1635,204.688,195.841
96.985,90.3777,204.429,196.185
96.7931,90.4805,204.182,196.386
96.7972,90.5197,204.21,196.47
96.7914,90.5421,204.209,196.487
96.7547,90.5536,204.145,196.505
96.6969,90.5504,204.115,196.493
96.4913,90.4923,203.841,196.439
96.465,90.4878,203.893,196.425
96.3547,90.4292,203.789,196.369
96.2535,90.3952,203.7,196.327
96.1684,90.3387,203.621,196.29
96.0478,90.2446,203.476,196.193
95.9109,90.1858,203.336,196.095
95.8437,90.2002,203.28,196.119
95.7856,90.2002,203.225,196.087
95.792,90.2478,203.236,196.194
95.8101,90.2655,203.255,196.201
95.8245,90.2824,203.253,196.2
95.8064,90.2219,203.211,196.115
95.7455,89.6131,203.102,195.427
95.6802,88.8904,202.901,194.81
95.7719,88.2451,203.13,194.133
95.8507,87.6462,203.127,193.66
96.0891,86.5393,203.217,193.021
96.3654,84.9845,203.416,191.722
96.5767,84.3947,203.883,191.374
96.6522,83.6665,204.033,190.647
96.707,82.6763,204.082,189.701
96.747,82.5931,204.103,190.058
96.8122,82.3916,204.155,189.867
96.8719,82.2901,204.207,189.763
96.9141,82.1091,204.278,189.633
96.9571,81.8823,204.231,190.009
97.0654,82.0557,204.513,190.512
97.0892,82.078,204.536,190.531
97.1133,82.0932,204.56,190.545
97.1358,82.113,204.583,190.557
97.1599,82.1414,204.607,190.595
97.187,82.1592,204.636,190.611
97.2103,82.1828,204.657,190.634
97.2386,82.1949,204.687,190.64
97.261,82.222,204.707,190.671
97.2819,82.2419,204.729,190.696
97.292,82.252,204.741,190.702
97.2325,82.2505,204.698,190.68
97.1193,82.2626,204.593,190.691
97.0723,82.3065,204.568,190.731
97.0218,82.3608,204.531,190.794
97.2086,82.4193,205.204,190.853
97.0772,82.4995,205.084,190.92
97.1488,82.5528,205.625,190.98
97.1571,82.5893,205.604,191.042
97.0758,82.6173,205.515,191.042
97.0336,82.6593,205.467,191.081
96.9812,82.7224,205.413,191.15
96.4542,83.0037,204.901,191.109
95.2995,84.0343,203.682,191.52
94.9753,84.6192,203.431,190.959
94.6559,85.5464,202.908,190.492
94.6694,85.8639,202.978,190.338
94.31,86.7734,202.725,189.653
94.1779,87.0276,202.546,189.531
94.1779,87.4115,202.553,190.047
94.1728,87.6668,202.549,190.408
94.1842,87.928,202.539,190.575
94.2162,88.2872,202.577,190.765
94.2623,88.3255,202.659,190.63
94.3,88.3978,202.632,190.686
94.4068,88.4637,202.472,190.781
94.6354,88.5547,202.966,190.962
94.7711,88.6085,202.995,190.99
94.892,88.6613,203.307,191.101
94.9203,88.6869,203.349,191.123
94.9499,88.7151,203.369,191.175
94.9922,88.7269,203.431,191.185
95.0228,88.7424,203.46,191.201
95.0754,88.7176,203.48,191.19
95.2127,88.5891,203.543,191.104
95.3117,88.797,203.735,191.771
95.3506,88.7836,203.795,191.76
95.4113,88.6486,203.833,191.677
95.5655,88.2946,203.879,191.894
95.7198,88.0397,204.103,192.078
95.8837,87.6301,204.1,192.197
96.0476,87.3272,204.398,192.279
96.1019,87.3014,204.556,192.243
96.1163,87.3139,204.568,192.262
96.1215,87.2898,204.588,192.231
96.05,87.0678,204.567,191.998
96.1374,86.6111,205.147,191.54
96.1324,86.1564,205.581,191.008
96.0773,86.0363,205.524,190.944
95.7614,85.2885,205.293,190.242
95.9529,84.934,205.873,189.912
95.933,84.2924,205.798,189.298
95.903,84.1699,205.881,189.51
95.9575,84.0257,205.917,189.482
96.0786,83.8184,206.027,189.273
96.1073,83.8273,206.06,189.28
96.1312,83.8475,206.081,189.301
96.1672,83.8524,206.121,189.303
96.257,83.7647,206.245,189.204
96.3791,83.5771,206.434,188.995
96.6234,83.5491,207.042,189.018
96.686,83.2948,207.125,188.738
96.7088,83.1552,207.145,188.612
96.7124,82.9791,207.157,188.432
96.6977,82.8563,207.087,188.321
96.6756,82.6954,207.044,188.134
96.5366,82.5166,206.776,187.927
96.4527,82.4374,206.59,187.892
96.4736,82.4057,206.681,187.827
96.3918,82.3819,206.629,187.751
96.3322,82.4372,206.591,187.813
96.3143,82.4836,206.567,187.892
96.2901,82.4854,206.498,187.865
96.3033,82.4978,206.545,187.86
96.3465,82.5176,206.598,187.896
96.2991,82.5408,206.53,187.844
96.2976,82.5962,206.541,187.888
96.2563,82.6598,206.499,187.867
96.2722,82.753,206.397,187.646
96.1737,82.7549,206.171,186.858
95.8497,83.1364,205.219,186.697
95.456,83.3608,204.241,186.726
95.3589,83.4663,203.945,186.625
95.1133,83.7736,203.524,186.881
94.8141,83.8866,202.754,186.988
94.6948,84.078,202.438,187.403
94.6804,84.1507,202.489,187.522
94.7333,84.2238,202.658,187.662
94.7391,84.3346,202.649,187.684
94.7794,84.411,202.727,187.865
94.8031,84.4345,202.75,187.89
94.8272,84.457,202.774,187.912
94.8514,84.4796,202.798,187.935
94.8754,84.5021,202.822,187.957
94.8995,84.5248,202.846,187.98
94.9236,84.5474,202.87,188.003
94.9477,84.57,202.894,188.025
94.9719,84.5926,202.919,188.048
94.9967,84.6201,202.942,188.072
95.0512,84.6629,202.884,188.097
95.1614,84.7341,202.802,188.146
95.3548,84.7792,203.119,188.208
95.4749,84.8193,203.237,188.247
95.59,84.8483,203.378,188.283
95.6983,84.8846,203.367,188.304
95.8621,84.9542,203.406,188.352
96.0829,85.017,203.999,188.462
96.1231,85.0569,204.05,188.505
96.1139,85.0877,204.003,188.528
96.1339,85.1297,204.024,188.563
96.1541,85.1852,203.923,188.555
96.249,85.2501,204.156,188.695
96.2416,85.2579,204.064,188.704
96.0374,85.1383,203.667,188.561
96.1213,85.1661,203.866,188.521
96.0766,85.2117,203.8,188.527
95.9766,85.2545,203.706,188.611
95.93,85.3087,203.628,188.668
95.8864,85.3509,203.569,188.755
95.7683,85.2891,203.25,188.73
95.3406,85.182,202.237,188.638
95.1358,85.081,201.775,188.469
95.0444,84.958,201.574,188.361
95.0009,84.7144,201.5,188.125
94.6534,84.4706,200.596,187.895
94.4733,84.1079,200.043,187.469
94.4358,83.6582,199.885,187.002
93.7514,81.8122,198.111,185.222
93.3456,80.1418,196.815,183.399
93.316,79.3641,196.457,182.683
93.3483,78.6637,196.431,182.031
93.5412,78.5263,196.867,181.954
93.6247,78.2713,196.735,181.664
93.7775,77.938,196.75,181.224
93.7523,77.8267,196.488,181.174
93.8674,77.7946,196.663,181.201
93.9584,77.8038,196.606,181.212
94.2396,77.8502,196.793,181.241
94.5324,77.9319,197.143,181.342
94.7968,78.0007,197.452,181.44
95.155,78.0744,197.493,181.493
95.4484,78.2355,197.068,181.611
95.8208,78.3361,196.983,181.778
95.9704,78.3931,197.116,181.834
96.0959,78.4362,197.27,181.878
96.228,78.4772,197.341,181.915
96.3984,78.5235,197.512,181.961
96.5382,78.5421,197.77,181.983
96.6427,78.5628,197.919,182.007
96.7499,78.5834,198.155,182.048
96.8124,78.5691,198.105,182.029
97.0152,78.5207,198.147,181.998
97.1883,78.513,198.519,181.972
97.2667,78.5267,198.683,181.99
97.2854,78.5224,198.686,181.991
97.1633,78.4114,198.296,181.9
97.1951,78.3335,198.432,181.818
97.0495,78.2722,198.346,181.71
97.1164,78.2944,198.535,181.756
97.1549,78.314,198.605,181.769
97.1482,78.3449,198.608,181.784
97.1386,78.3918,198.596,181.825
97.1573,78.4256,198.607,181.881
97.1742,78.4831,198.617,181.921
97.1992,78.5394,198.641,181.98
97.2257,78.5693,198.676,182.025
97.2484,78.5919,198.698,182.047
97.2711,78.6145,198.721,182.07
97.2938,78.637,198.744,182.092
97.3164,78.6596,198.766,182.115
97.3391,78.6822,198.789,182.138
97.3666,78.7199,198.802,182.204
97.3974,78.7298,198.845,182.189
97.4267,78.7505,198.87,182.214
97.4664,78.753,198.907,182.224
97.5059,78.757,198.956,182.224
97.5653,78.7462,198.997,182.231
97.7031,78.7394,199.123,182.238
97.8549,78.7194,199.261,182.204
97.9093,78.7142,199.354,182.178
97.9895,78.6966,199.42,182.169
98.118,78.6716,199.508,182.141
98.3396,78.578,199.71,182.089
98.663,78.6698,199.977,182.674
99.2668,78.639,200.322,183.204
99.5701,78.7761,200.955,183.777
99.7288,78.98,201.063,184.449
99.9868,78.8646,201.218,184.423
100.268,79.0276,201.531,185.022
100.485,79.0089,201.796,185.01
100.676,79.1709,201.981,185.755
100.874,79.2067,202.115,186.496
101.083,79.1125,202.346,186.943
101.255,79.0487,202.579,187.227
101.379,79.1711,202.757,187.72
101.472,79.343,202.883,188.36
101.563,79.5401,202.965,189.057
101.632,79.7712,203.059,189.753
101.699,79.7554,203.107,189.748
101.757,79.7475,203.195,189.716
101.815,79.7201,203.234,189.712
101.862,79.7081,203.305,189.67
101.902,79.6472,203.313,189.627
101.941,79.6378,203.385,189.594
101.965,79.6382,203.408,189.592
101.989,79.6476,203.44,189.596
102.013,79.6584,203.458,189.617
102.051,79.6371,203.504,189.6
102.103,79.5677,203.554,189.537
102.142,79.4961,203.601,189.472
102.178,79.4283,203.629,189.404
102.234,79.1233,203.704,189.098
102.256,78.8286,203.742,188.747
102.244,78.6847,203.723,188.59
102.235,78.6745,203.708,188.556
102.243,78.7221,203.706,188.656
102.255,78.7443,203.712,188.68
102.273,78.7654,203.727,188.706
102.289,78.7921,203.742,188.735
102.303,78.8202,203.751,188.772
102.262,78.8408,203.67,188.758
102.241,78.8818,203.627,188.8
102.263,78.9185,203.699,188.871
102.263,78.9401,203.697,188.891
102.288,78.9633,203.729,188.916
102.315,78.9872,203.765,188.94
102.265,78.9918,203.625,188.961
102.198,78.9779,203.523,188.948
102.236,78.9772,203.608,188.947
102.147,78.9489,203.454,188.936
102.059,78.9239,203.274,188.913
101.58,78.8946,202.439,188.959
99.7775,79.3827,199.588,189.703
99.3469,79.6081,198.955,190.027
98.9412,79.8739,198.534,190.272
98.6577,80.1127,198.342,190.507
98.2528,80.5035,197.916,190.837
98.1355,80.789,197.845,191.195
97.7121,81.0058,197.381,191.357
97.0368,81.4657,196.597,191.678
96.7449,81.7848,196.511,192.093
96.6984,81.9569,196.51,192.394
96.6827,82.0302,196.581,192.466
96.6336,82.0857,196.525,192.529
96.6025,82.1456,196.531,192.575
96.5565,82.2342,196.497,192.653
96.5609,82.299,196.516,192.731
96.5752,82.3419,196.527,192.787
96.5889,82.3735,196.543,192.821
96.6097,82.4,196.56,192.852
96.632,82.4241,196.583,192.877
96.6544,82.4482,196.605,192.901
96.6767,82.4724,196.627,192.925
96.6991,82.4965,196.65,192.949
96.7215,82.5206,196.672,192.973
96.7438,82.5447,196.694,192.997
96.7662,82.5688,196.717,193.021
96.7885,82.5929,196.739,193.045
96.7961,82.6188,196.748,193.068
96.8079,82.6488,196.763,193.093
96.828,82.6769,196.779,193.129
96.84,82.7065,196.808,193.152
96.8468,82.7423,196.812,193.191
96.8533,82.7796,196.823,193.227
96.8652,82.81,196.824,193.258
96.8828,82.8366,196.835,193.289
96.9043,82.8609,196.855,193.313
96.9285,82.8868,196.881,193.336
96.9498,82.9127,196.9,193.365
96.9721,82.9368,196.923,193.389
96.9944,82.9609,196.945,193.413
97.0168,82.9851,196.967,193.437
97.0391,83.0092,196.99,193.462
97.0583,83.0273,197.009,193.481
97.0867,83.0567,197.045,193.499
97.1104,83.0923,197.08,193.537
97.1302,83.1275,197.094,193.568
97.1541,83.177,197.16,193.599
97.3856,83.3186,198.043,193.663
97.577,83.5853,198.795,193.836
97.7331,83.7929,199.297,194.138
97.8967,84.0068,200.111,194.28
97.9689,84.3235,200.79,194.536
98.003,84.563,201.114,194.705
98.1331,84.8691,201.733,195.016
98.2447,85.192,202.261,195.311
98.3462,85.4098,202.833,195.545
98.1685,85.5782,202.621,195.729
98.1372,85.8127,202.649,196.043
98.3424,85.8999,203.336,196.299
98.1583,85.5622,203.294,195.747
98.2524,85.33,203.67,195.551
98.2428,85.3102,203.658,195.731
98.2833,85.3035,203.668,195.748
98.3331,85.3092,203.754,195.765
98.3777,85.2643,203.781,195.735
98.4594,85.2196,203.84,195.662
98.5602,85.1717,203.91,195.618
98.7262,85.0565,203.979,195.506
98.874,85.0071,204.174,195.415
98.986,84.9475,204.208,195.373
99.1144,84.7366,204.102,195.054
99.0514,84.2965,203.644,194.592
99.22,84.0034,203.866,194.299
99.3698,83.8139,204.061,194.294
99.4849,83.5801,204.16,193.927
99.6473,83.4241,204.372,193.84
99.7844,83.4621,204.708,193.911
99.829,83.4763,204.703,193.911
99.8942,83.4926,204.759,193.931
99.9629,83.5017,204.869,193.916
100.002,83.5272,204.94,193.975
99.9916,83.373,204.885,193.829
100.012,83.3106,204.927,193.762
100.009,83.1865,204.838,193.515
99.9546,82.8196,204.797,193.181
99.9842,82.8135,204.908,193.218
100.008,82.8443,204.959,193.296
100.029,82.8684,204.978,193.321
100.051,82.8906,205,193.342
100.068,82.9059,205.014,193.338
100.096,82.9416,205.043,193.392
100.121,82.9665,205.069,193.419
100.144,82.9906,205.093,193.443
100.167,83.0139,205.115,193.466
100.191,83.038,205.139,193.49
100.214,83.0621,205.162,193.514
100.238,83.0862,205.186,193.539
100.261,83.1103,205.209,193.563
100.285,83.1344,205.233,193.587
100.308,83.1585,205.256,193.611
100.332,83.1826,205.28,193.635
100.354,83.2069,205.303,193.659
100.376,83.2313,205.325,193.683
100.39,83.2537,205.339,193.706
100.388,83.2703,205.341,193.724
100.393,83.292,205.348,193.743
100.38,83.3116,205.34,193.763
100.376,83.3334,205.332,193.784
100.391,83.358,205.339,193.81
100.414,83.3824,205.363,193.835
100.438,83.4065,205.386,193.859
100.458,83.4304,205.406,193.882
100.478,83.454,205.422,193.906
100.504,83.4786,205.452,193.931
100.527,83.5027,205.475,193.955
100.546,83.5255,205.493,193.969
100.568,83.5533,205.516,194
100.592,83.5802,205.54,194.033
100.616,83.6043,205.564,194.057
100.636,83.6245,205.582,194.077
100.648,83.6385,205.596,194.093
100.658,83.6281,205.602,194.085
100.671,83.5363,205.609,194.007
100.692,83.478,205.648,193.923
100.703,83.4197,205.652,193.868
100.723,83.4405,205.671,193.891
100.748,83.4442,205.7,193.9
100.765,83.4587,205.713,193.912
100.781,83.4668,205.73,193.925
100.803,83.4859,205.751,193.939
100.823,83.5039,205.771,193.957
100.87,83.3473,205.778,193.858
100.949,83.3781,205.837,194.405
101.075,82.7184,205.809,194.407
101.179,82.3364,205.876,194.427
101.302,81.5414,205.826,194.24
101.502,81.4564,206.384,194.405
101.534,81.1849,206.288,194.093
101.643,80.8517,206.388,193.788
101.772,80.6107,206.599,193.576
101.847,80.4943,206.733,193.441
101.903,80.3436,206.773,193.318
101.971,80.2336,206.879,193.213
102.012,80.2382,206.959,193.189
102.036,80.2631,206.984,193.214
102.06,80.2878,207.008,193.239
102.083,80.3125,207.031,193.264
102.102,80.3233,207.054,193.272
102.118,80.3386,207.071,193.287
102.132,80.3436,207.085,193.282
102.11,80.2322,207.054,193.111
102.144,79.9126,207.132,192.798
102.153,79.8778,207.116,192.815
102.316,79.4039,207.377,192.255
103.454,77.6802,209.4,190.057
103.694,76.6416,210.132,188.388
103.94,75.9868,210.637,187.619
104.267,75.7006,211.508,187.409
104.734,75.4485,212.11,187.092
105.002,75.0364,212.182,186.588
105.552,73.9335,212.8,185.372
106.769,72.2882,214.013,183.161
110.261,73.2109,217.215,182.186
111.044,73.7932,218.155,181.608
111.734,74.9561,219.472,181.726
111.942,75.0976,220.001,181.907
112.333,75.2786,220.854,181.899
112.641,75.9146,221.622,181.994
112.896,76.5082,221.951,181.984
113.432,76.659,222.99,181.613
113.729,76.6913,223.845,181.32
113.945,76.917,224.435,181.62
114,77.0649,224.489,181.864
114.104,77.147,224.627,181.914
114.382,77.3207,225.386,182.117
114.623,77.4614,226.2,182.202
114.851,77.6511,226.84,182.437
114.838,77.7752,226.808,182.655
114.861,77.8442,226.823,182.712
114.864,77.927,226.832,182.806
114.869,78.0061,226.837,182.862
114.853,78.1433,226.797,182.928
114.848,78.3693,226.787,183.073
114.839,78.5553,226.822,183.374
114.825,78.6693,226.802,183.519
114.823,78.7633,226.797,183.623
114.835,78.8489,226.809,183.693
114.83,78.9444,226.806,183.802
114.845,79.0341,226.819,183.87
114.856,79.1431,226.843,183.978
114.856,79.256,226.852,184.073
114.846,79.3814,226.842,184.205
114.86,79.5289,226.849,184.336
114.866,79.6399,226.858,184.482
114.857,79.7345,226.829,184.608
114.847,79.8159,226.822,184.693
114.846,79.8929,226.821,184.765
114.845,79.9775,226.833,184.831
114.834,80.066,226.811,184.931
114.828,80.1493,226.802,185.024
114.809,80.2268,226.784,185.094
114.794,80.3077,226.767,185.189
114.782,80.3862,226.759,185.259
114.776,80.4651,226.748,185.352
114.751,80.5316,226.725,185.363
114.726,80.6321,226.701,185.486
114.708,80.7207,226.681,185.599
114.685,80.7946,226.656,185.64
114.671,80.8858,226.646,185.741
114.67,80.9549,226.646,185.789
114.674,81.0454,226.648,185.899
114.697,81.0907,226.671,185.901
114.704,81.1668,226.669,185.997
114.74,81.2389,226.711,186.062
114.753,81.3289,226.726,186.152
114.773,81.3954,226.748,186.222
114.791,81.4602,226.766,186.287
