250.731,67.7097,273.776,95.1974
248.588,68.9131,272.207,96.0812
245.922,69.6434,270.137,96.9654
243.061,71.1462,267.693,98.3273
240.291,71.3227,264.91,99.292
238.451,71.5799,263.315,99.4634
235.894,72.1229,260.742,99.962
234.356,71.8057,259.245,99.7258
232.961,71.4026,257.731,99.4034
231.241,70.5877,256.199,99.1674
231.217,70.6644,256.173,99.6154
231.097,70.0283,256.118,98.9232
230.67,68.9043,256.235,97.9819
229.961,68.6183,256.048,98.154
229.402,68.4329,255.762,98.3813
228.866,68.0677,255.258,98.121
228.881,67.4209,255.116,97.9346
228.913,66.9873,255.186,97.859
228.895,66.8487,255.247,97.7902
228.438,66.2566,254.582,97.1435
228.29,66.1737,254.618,97.0707
227.892,65.9112,254.221,96.7849
227.606,65.7133,253.941,96.4746
227.16,65.0534,253.403,96.1559
226.072,63.8758,252.391,95.5911
225.585,63.5651,251.956,95.5946
224.403,62.2971,250.72,95.2907
222.39,60.6879,248.784,93.8696
220.2,58.6529,246.62,92.421
218.616,57.6415,244.844,91.8829
216.474,56.0676,242.815,90.7817
214.215,54.2848,240.681,89.7583
211.972,53.7361,238.672,89.0554
210.399,53.5602,237.567,88.9594
209.393,53.8708,237.152,89.3213
207.869,53.959,236.033,89.4021
206.92,54.1484,235.662,89.9232
205.035,54.5955,234.262,90.5711
203.47,55.5114,232.959,91.7813
202.496,55.9328,231.896,92.6616
201.382,56.0218,230.82,93.2553
198.829,55.1373,228.586,93.0194
195.954,53.6699,226.167,91.7685
193.319,52.6963,224.1,91.3229
191.883,51.6703,222.676,90.9115
191.013,50.8818,221.78,90.338
189.579,49.236,220.696,89.1058
187.985,48.0251,219.65,88.2882
186.328,46.7887,218.125,87.5976
185.874,45.6812,217.806,86.858
185.78,45.1361,217.913,86.6877
185.625,44.1272,218.319,86.339
185.621,44.0182,218.645,86.5172
185.315,43.9674,218.95,86.3832
185.473,44.0821,219.479,86.5543
185.721,44.1939,220.214,86.6741
185.741,44.7977,220.354,87.3565
185.947,45.1047,220.941,88.1016
186.041,45.457,221.069,88.6937
186.439,45.6976,222.048,89.3067
186.694,45.8893,222.702,89.932
186.979,46.0251,223.536,90.6179
187.101,46.0431,224.247,91.1701
187.088,45.7631,224.785,91.2652
186.363,44.9647,224.694,90.9369
185.634,44.1652,224.403,90.0935
184.849,42.3606,224.306,88.5804
183.234,40.8364,223.456,87.6049
181.782,39.2058,223.014,86.7185
179.628,38.3472,221.715,86.7709
177.685,37.9945,220.172,86.6394
175.628,38.0519,218.293,87.3845
172.763,38.0064,215.942,87.9277
170.509,38.0492,213.858,88.4195
169.936,38.5161,213.397,89.2124
167.384,38.6878,210.888,89.8175
165.926,38.7705,209.865,90.3457
164.809,38.8875,208.851,90.9441
163.286,38.6877,207.61,91.0331
160.652,37.1638,204.739,90.0813
159.074,36.0227,203.217,89.1837
157.499,34.9191,201.833,88.5714
156.469,34.5964,200.729,88.6515
154.859,34.6859,199.297,89.026
153.106,34.5836,197.626,88.8728
151.286,34.3796,196.555,88.7599
147.506,34.5581,193.467,88.7725
143.1,35.6632,190.065,90.312
138.152,36.6408,185.955,91.6792
133.475,37.5089,181.975,93.0405
128.742,39.2683,178.367,95.0438
125.336,39.5243,175.298,95.6487
121.273,40.3509,171.22,97.361
115.509,41.1651,166.698,99.7456
108.879,42.4509,161.631,102.526
103.036,42.3499,156.851,103.078
98.0502,42.9644,152.405,104.06
92.8346,43.1803,148.504,105.388
88.5955,42.7823,145.09,105.943
83.3126,42.5616,140.538,105.874
81.6894,42.5589,139.217,105.937
79.7277,42.2758,137.568,105.915
78.5667,42.1735,136.253,106.087
78.0876,42.1051,135.96,105.864
76.7688,42.2036,134.709,105.806
74.8384,42.7031,132.538,107.042
74.6223,42.8953,132.561,107.636
74.5699,43.1785,132.655,108.484
74.3718,43.9724,133.136,110.088
74.2211,44.6791,133.282,111.48
74.0384,46.4683,133.759,113.767
74.0456,47.8201,133.995,115.225
74.3416,49.4368,134.369,116.718
74.9027,51.4983,135.483,118.998
75.3852,53.0607,136.296,120.477
75.6676,53.8313,136.736,120.906
76.3168,54.7475,137.816,121.996
77.0382,55.34,138.599,122.473
77.7834,55.7574,139.726,123.188
79.3703,55.7962,141.54,122.887
81.1622,56.4593,143.738,123.473
82.4247,57.0087,145.324,124.019
83.0686,57.5709,145.797,124.214
84.1456,58.1434,146.841,124.229
85.2639,58.2905,147.847,124.175
86.9476,58.3769,149.464,123.738
88.7708,58.6424,151.255,123.532
90.7196,58.9612,152.43,123.536
92.0494,59.5572,153.49,123.99
92.6611,60.1043,153.911,123.985
92.9603,60.3994,154.323,124.072
93.062,60.6624,154.511,124.508
93.1294,60.9701,154.563,124.595
93.2927,61.5171,154.65,124.767
93.371,61.6665,154.814,125.037
93.401,61.7142,154.863,125.156
93.4547,61.7197,154.909,125.142
93.6908,60.8817,154.986,123.939
94.5964,58.5825,155.587,121.903
95.5598,56.5398,155.711,118.022
96.6297,55.247,156.229,114.84
97.2089,55.043,156.748,114.566
97.8475,54.8234,157.288,114.367
98.3169,54.6922,156.919,114.111
98.5359,54.498,156.69,113.511
98.829,54.5367,155.976,113.508
98.1271,53.6847,153.452,112.071
96.2681,53.1259,149.951,111.226
92.8623,52.6435,145.226,110.803
88.6945,53.0655,139.732,110.606
83.5462,53.8895,133.201,110.586
78.6696,55.3616,127.522,111.455
74.2237,56.5454,122.06,112.35
70.1849,56.7445,117.272,112.384
68.0805,57.2675,114.262,112.503
67.9006,57.2463,113.234,112.303
68.2968,57.3049,112.73,112.286
69.0075,57.2185,112.7,111.805
71.6049,56.2461,114.359,110.609
74.5587,55.2215,116.733,109.092
78.0963,54.8358,119.772,108.277
81.6879,54.4334,123.232,107.355
85.2061,54.3743,126.937,106.908
88.8283,53.9264,130.678,106.732
92.5368,53.8662,134.583,106.541
96.64,53.3004,139.108,106.197
101.014,52.9055,143.423,105.574
106.009,52.0877,148.364,104.917
110.429,50.6553,152.829,103.607
114.204,48.822,156.437,102.138
118.31,47.567,160.201,101.37
122.15,46.3969,163.67,101.055
126.214,45.0441,167.747,100.717
130.653,44.0248,172.465,100.356
135.106,43.7362,176.794,100.823
136.985,43.33,179.064,101.07
139.455,43.3631,181.576,101.374
140.975,43.7933,183.186,102.252
143.376,44.6043,185.823,103.195
145.894,45.7746,188.244,104.464
148.868,46.6097,191.026,105.239
151.668,47.8715,193.895,106.378
154.378,48.6466,196.839,107.341
155.415,48.9307,197.886,107.899
156.488,48.9547,198.864,108.025
158.046,49.0436,200.454,108.821
161.142,47.8861,203.872,108.509
163.849,46.5963,206.851,107.85
166.031,45.8238,209.357,107.195
169.546,44.0109,212.816,105.515
172.399,42.4127,215.84,104.264
174.148,40.1658,218.023,102.292
175.383,37.9591,219.858,100.731
176.621,36.3545,221.567,98.9541
177.65,35.0769,223.815,97.7115
179.492,33.9066,226.492,96.3077
181.347,32.6273,228.715,95.1934
182.44,32.1692,230.324,95.2619
182.995,32.2316,231.178,95.8536
184.064,32.7455,232.923,96.7695
186.264,34.658,236.046,98.8983
187.852,36.1991,238.544,100.488
189.862,37.7393,241.783,102.296
192.06,39.613,244.701,104.498
194.152,41.3206,247.647,106.01
196.048,43.0344,250.308,107.457
197.681,44.6355,252.552,108.629
199.419,45.6926,254.541,109.279
200.758,46.4138,256.284,110.115
201.224,46.7547,257.257,110.672
201.486,46.8575,258.029,110.797
201.719,46.9008,258.727,110.85
201.964,46.9262,259.435,110.899
201.975,46.9444,259.448,110.916
201.877,47.0569,259.395,110.979
201.889,47.253,259.962,111.131
201.681,47.4964,260.388,111.351
200.898,48.4283,260.408,112.285
200.795,49.356,261.19,113.204
200.76,49.5673,261.324,113.514
200.541,51.7027,262.088,115.131
201.04,54.5709,263.456,117.708
201.362,55.208,263.83,118.648
201.531,55.3155,263.899,118.799
201.711,55.3382,264.102,118.837
201.966,55.3811,264.314,118.896
202.059,55.63,264.515,119.605
202.087,55.6482,264.506,119.605
201.836,55.6273,264.029,119.532
199.24,55.3946,260.554,118.852
195.801,55.1988,256.113,118.232
192.158,55.4669,251.689,118.11
188.295,55.8172,247.44,117.841
184.96,56.7637,243.19,118.356
181.841,58.438,239.118,119.467
178.129,60.5503,234.678,120.992
175.145,62.3545,231.19,122.228
171.554,64.6344,227.335,123.999
167.769,67.5426,223.218,126.435
164.092,69.1017,218.484,127.418
161.029,70.9871,214.681,128.993
158.18,71.9133,211.118,129.795
156.51,72.0634,208.892,129.636
154.132,71.915,206.209,129.421
152.547,71.7129,204.613,129.283
152.099,71.7624,204.397,129.364
152.156,71.8018,204.531,129.469
152.385,71.0261,204.586,128.619
153.172,69.936,205.036,127.641
155.622,68.7399,206.64,126.204
159.62,67.2876,209.895,124.235
163.753,66.3332,213.016,122.646
165.979,65.5135,214.561,121.691
167.29,65.6171,215.801,121.741
169.101,66.0088,217.701,122.189
171.622,66.8081,220.084,122.492
174.274,67.7209,221.86,123.137
177.902,68.6076,225.13,123.41
181.373,69.9116,228.526,123.871
183.948,71.5445,231.355,124.433
185.922,72.6865,233.199,124.424
187.984,73.6153,235.416,124.81
192.368,74.7338,239.923,125.077
197.159,75.3872,245.018,124.876
200.481,75.7443,248.108,124.498
202.152,75.7189,249.777,124.251
203.165,76,251.027,124.576
203.785,76.1674,251.612,124.808
204.805,76.4561,252.591,124.619
205.864,76.3677,253.315,124.245
206.605,76.1927,253.997,123.472
206.87,75.9646,253.71,122.943
207.124,76.3481,253.99,122.683
207.73,76.9884,254.579,122.659
208.461,77.5066,255.329,122.979
208.991,77.7727,256.056,122.813
210.13,78.133,257.551,123.197
211.207,78.3261,258.407,123.378
212.733,78.0076,259.794,123.138
215.115,77.4432,262.009,122.616
218.449,77.068,264.585,122.614
220.888,76.8305,266.72,122.794
224.219,76.3266,269.238,122.404
227.434,76.7705,271.935,123.284
229.695,77.6212,273.653,124.632
232.117,78.4689,275.401,126.095
234.66,80.6221,277.188,129.004
236.923,81.7254,278.645,130.448
237.955,83.9742,278.876,133.626
240.243,88.8123,280.14,139.939
240.891,91.9778,280.425,143.872
242.106,94.4279,282.166,146.674
243.781,95.9579,284.307,149.033
244.717,97.0321,285.814,151.175
244.954,97.4278,286.412,152.101
245.098,97.8393,286.627,153.138
245.421,98.2391,287.572,153.869
245.619,98.43,288.104,154.409
245.639,98.4396,288.11,154.415
245.729,98.4277,288.176,154.442
245.77,98.6863,288.234,155.162
245.79,98.7014,288.265,155.177
245.826,98.7684,288.289,155.26
245.84,98.7848,288.322,155.259
245.849,98.7978,288.328,155.274
245.858,98.8102,288.337,155.286
245.858,98.8264,288.341,155.299
245.738,98.8832,288.221,155.351
245.727,98.9023,288.211,155.376
245.697,98.99,288.194,155.48
245.155,99.3008,287.966,155.585
245.14,99.8078,288.461,156.017
244.711,100.988,288.684,157.078
244.506,102.129,288.959,158.285
243.359,104.111,288.086,160.817
241.961,108.187,286.805,165.233
240.844,112.044,285.547,169.376
241.092,112.89,285.96,170.2
241.627,113.776,286.321,171.31
242.017,115.059,286.712,173.059
242.508,115.557,287.134,173.791
242.415,117.167,287.141,175.918
242.739,117.412,287.386,177.093
242.699,118.571,287.089,179.139
242.588,120.279,286.21,181.76
