82.0175,218.043,150.972,291
82.1041,218.176,151.066,291.107
83.0054,218.79,151.623,291.745
84.0325,220.048,153.536,292.214
85.9145,221.89,155.786,294.105
86.9729,223.26,157.008,295.287
91.0212,225.363,160.748,298.371
93.2659,226.774,163.158,299.981
95.7968,229.475,165.372,301.701
97.5137,231.314,166.927,302.434
99.0941,233.116,168.337,303.309
101.197,235.872,170.077,304.756
102.65,238.86,171.283,306.692
103.951,242.161,171.83,308.031
113.073,239.568,180.395,305.775
122.481,237.377,188.895,304.326
130.155,236.793,195.736,304.023
131.338,237.842,198.441,305.051
146.347,242.045,214.064,307.454
149.979,242.852,217.762,307.993
155.977,243.437,223.125,308.951
161.457,244.411,228.455,309.605
168.458,246.329,234.619,310.672
171.435,246.884,237.636,310.966
175.379,247.366,241.546,311.485
180.028,248.284,245.306,312.636
183.687,248.483,248.11,312.693
186.136,249.208,249.815,313.154
186.821,250.22,250.804,312.768
186.856,250.656,250.765,313.582
186.854,251.466,250.977,313.909
186.486,253.491,251.686,314.65
186.897,258.893,252.886,317.529
188.679,260.437,254.755,318.451
194.096,261.939,260.464,319.094
196.471,262.188,262.811,319.768
199.294,261.523,265.205,320.024
206.062,260.036,269.903,320.113
212.65,257.602,274.994,318.628
219.012,256.329,280.627,318.121
226.377,253.352,286.569,316.599
230.323,253.355,289.385,316.97
234.458,254.761,292.325,318.357
238.179,257.055,294.338,320.444
238.144,260.421,294.516,323.048
235.786,261.634,291.86,324.267
234.324,263.56,290.708,325.834
232.485,264.42,288.914,325.211
233.256,265.033,290.318,324.01
233.502,265.042,290.951,323.959
232.886,265.081,290.167,323.658
233.776,265.553,290.843,324.599
233.954,265.525,291.205,325.066
234.178,265.377,291.647,325.09
233.831,265.291,292.306,324.653
237.058,265.508,296.096,326.001
238.377,265.345,298.388,327.023
241.016,264.864,301.358,327.133
241.637,264.502,302.224,327.306
240.715,264.065,301.411,327.96
239.442,265.126,300.342,329.323
236.168,265.107,296.767,329.743
236.158,265.134,297.115,330.142
235.969,265.383,296.878,330.832
235.997,265.388,296.956,330.871
235.939,265.364,296.86,330.861
235.988,265.369,296.956,330.836
236.023,265.378,296.989,330.846
235.461,265.188,296.419,330.502
235.133,265.154,296.099,330.598
237.023,262.969,297.398,327.91
236.939,262.198,297.339,326.925
232.95,261.401,291.668,328.856
233.245,266.265,291.497,332.673
228.185,270.476,286.14,337.42
229.163,269.818,286.789,337.117
229.406,269.698,287.368,337.201
229.823,268.344,287.707,335.75
233.914,264.814,291.74,331.994
237.221,262.662,294.574,329.627
237.51,262.634,294.849,329.629
237.897,262.675,295.307,328.92
237.942,262.803,295.413,329.274
237.951,262.812,295.421,329.277
238.764,262.962,296.435,329.571
239.483,262.861,297.36,330.003
241.892,260.729,299.717,327.443
242.356,260.941,300.329,327.53
239.068,264.214,296.267,330.717
237.939,270.212,294.926,336.164
233.438,278.756,290.5,340.823
233.167,280.162,288.981,343.061
233.285,280.279,289.243,343.205
232.489,276.986,288.341,339.69
231.38,272.792,287.224,334.576
231.605,272.527,287.576,334.441
230.288,270.542,286.235,330.973
240.407,249.627,297.99,308.671
